dia	mes	agno	personaje	Texto
1	1	2023	20230101	1 de xineru de 1962. Naz la informática y programadora Alexia Massalin. Ye pionera nel conceutu de superoptimización, el procesu d'atopar automáticamente la secuencia de códigu óptima pa desaniciar bucles.
2	1	2023	20230102	2 de xineru de 1822. Naz el físicu y matemáticu Rudolf Clausius. Ente otres aportaciones, afitó les idees básiques de la segunda llei de la termodinámica ya introduxo'l conceutu d'entropía.
3	1	2023	20230103	3 de xineru de 2013. Muerre la bioquímica Marianne Grunberg-Manago. Descubrió l'ARN-polimerasa (xunto con Severo Ochoa), un afayamientu clave nel desendolcu de la xenética.
4	1	2023	20230104	4 de xineru de 1339. Naz Muhammed V de Granada, fundador del Maristán Nazarín. Nesti hospital acoyíense enfermos probes y deprendíense y poníen en práutica la medicina y farmacopea andalusín.
5	1	2023	20230105	5 de xineru de 2018. Muerre la limnóloga y zoóloga Armonia S. Alonso. Foi coautora del llibru de referencia pal estudiu de los pexes d'agües continentales n'Arxentina Los peces argentinos de agua dulce.
6	1	2023	20230106	6 de xineru de 1795. Naz el químicu Anselme Payen. Ye conocíu sobre manera pol descubrimientu de la primer enzima, y polos sos trabayos sobre la celulosa y el papel.
7	1	2023	20230107	7 de xineru de 1539. Naz el lexicógrafu y escritor Sebastián de Covarrubias. Espublizó'l Tesoro de la lengua castellana o española, que foi'l primer diccionariu monollingüe d'una llingua vulgar n'Europa.
8	1	2023	20230108	8 de xineru de 1917. Naz la bioquímica y endocrinóloga Sylvia Agnes Sophia Tait. Xunto a James Francis Tait, afayó la hormona aldosterona, qu'afeuta al sodiu y al potasiu y ayuda a regular la presión arterial.
9	1	2023	20230109	9 de xineru de 1858. Naz la botánica Elizabeth Gertrude Britton. Contribuyó a la conocencia de la brioloxía, rama de la botánica dedicada al estudiu de los mofos, les hepátiques y les antóceres.
10	1	2023	20230110	10 de xineru de 1916. Naz el bioquímicu Sune Karl Bergström, Premiu Nobel de Fisioloxía, xunto a Bengt Samuellson y John Robert Vane, por descubrir les prostaglandines y otres sustancies actives biolóxiques.
11	1	2023	20230111	11 de xineru de 1787. William Herschel descubre Titania y Oberón, dos llunes d'Uranu.
12	1	2023	20230112	12 de xineru de 1934. Naz la farmacéutica María Elisa Álvarez Obaya. Nuna modesta farmacia n'Hadría (Lanzarote), fixo los primeros análisis gracies a los que se desatapó «el casu del metílicu».
13	1	2023	20230113	13 de xineru de 915. Naz el califa al-Hakam II. Afaló les ciencies y fundó una biblioteca que constituyó un importante centru de traducción y espardimientu d'obres y saberes de l'antigüedá grecollatina n'Al-Ándalus.
14	1	2023	20230114	14 de xineru de 1937. Naz la limnóloga M. Ann Chapman. Foi la primer muyer que lideró una espedición científica a L'Antártida. El llagu Chapman en L'Antártida llámase asina n'homenaxe a ella.
15	1	2023	20230115	15 de xineru de 1918. Naz la física y matemática Sheila Tinney. Investigó retículos cristalinos, mecánica ondulatoria, electrodinámica cuántica, radiación cósmico y teoría de mesones.
16	1	2023	20230116	16 de xineru de 1918. Naz la física Inga Fischer-Hjalmars. Foi una de les persones pioneres n'aplicar la mecánica cuántica pa iguar problemes en química teórica.
17	1	2023	20230117	17 de xineru de 1706. Naz el científicu y políticu Benjamin Franklin. Dedicó la so investigación ante too al estudiu de los fenómenos llétricos. El pararrayos foi ún de los sos munchos inventos.
18	1	2023	20230118	18 de xineru de 2007. María Teresa Mires Portugal ye la primer muyer que preside una Real Academia n'España. Estudió los receutores de nucleótidos y la so repercusión en malures neurodexeneratives.
19	1	2023	20230119	19 de xineru de 1963. Naz Alfredo Corell, investigador n'inmunoxenética y histocompatibilidá. Premiáronlu pol so gran llabor en divulgación yá innovación docente, qu'enllaza nel so proyectu Immunomedia.
20	1	2023	20230120	20 de xineru de 2000. Inaúgurase'l Centru d'Investigación del Cáncer (centru mestu de la Universidá de Salamanca-CSIC). Desendolca investigación de bioloxía molecular, tresllacional y clínica del cáncer.
21	1	2023	20230121	21 de xineru de 1912. Naz el bioquímicu Konrad Bloch. Descubrió cómo'l cuerpu humanu sintetiza'l colesterol.
22	1	2023	20230122	22 de xineru de 1945. Naz la xeóloga Caridad Zazo Cardeña. Dedicó'l so llabor investigador a la xeoloxía y xeomorfoloxía llitoral del Pliocenu y Cuaternariu.
23	1	2023	20230123	23 de xineru de 1995. Naz Sarah Wahedi. Fundó Ehtesab, una aplicación collaborativa qu'informa de los ataques, bombardeos y bloqueos qu'asoceden n'Afganistán, que dexa qu la población pueda ponese a salvo.
24	1	2023	20230124	24 de xineru de 1904. Naz la física Berta Karlik. La so contribución más destacada foi'l descubrimientu de que l'astatu ye un productu de procesos de decadencia naturales.
25	1	2023	20230125	25 de xineru de 1900. Naz el xenetista Theodosius Dobzhansky, ún de los padres del neodarvinismu o teoría sintética de la evolución. Dixo: «Nada tien sentíu en bioloxía si nun ye a la lluz de la evolución».
26	1	2023	20230126	26 de xineru de 1823. Muerre l'inmunólogu Edward Jenner. Llogró la primer vacuna de la historia, concretamente contra la viruela.
27	1	2023	20230127	27 de xineru de 1972. Entama la fabricación de Magnavox Odyssey, la primer videoconsola de la historia. Desendolcóla  Ralph Baer, nomáu'l padre de los videoxuegos.
28	1	2023	20230128	28 de xineru de 1903. Naz la cristalógrafa Kathleen Lonsdale. Estableció la estructura del bencenu per métodos de difraición de rayos X (1929) y del hexaclorobencenu per  aciu de métodos espectrales de Fourier (1931).
29	1	2023	20230129	29 de xineru de 1886. L'inxenieru yá inventor alemán Karl Benz solicita la patente del primer automóvil con tracción por gasolina de la historia. El vehículu, de tres ruedes, amuésase nel Muséu Alemán de Múnich.
30	1	2023	20230130	30 de xineru de 1957. Úsase per primer vegada un marcapasos cardiacu artificial portátil, un dispositivu esternu coneutáu col corazón, desendolcáu por Walton Lillehei y el so equipu na Universidá de Minnesota.
31	1	2023	20230131	31 de xineru de 1896. Naz la matemática Sofia Aleksandrovna Janovskaja. Trabayó na filosofía, lóxica ya historia de les matemátiques. Escribió sobre la xeometría de René Descartes, les matemátiques exipcies y les paradoxes de Zenón d'Elea.
1	2	2023	20230201	1 de febreru de 1866. Naz la enfermera Agda Meyerson. Foi pionera de la so profesión y activista p'ameyorar la formación, el salariu y les condiciones de trabayu n'enfermería.
2	2	2023	20230202	2 de febreru de 2005. Afayen el primer ríu de lleche de lluna nuna cueva del valle d'Aizarna (Guipúzcoa). Esta sustancia blanco y cremoso, compuesto por cuarcita, tien usos farmacéuticos y cosméticos.
3	2	2023	20230203	3 de febreru de 1918. Naz la glacióloga Moira Dunbar. Foi la primer muyer en facer una investigación científica en barcos rompexelu canadianos.
4	2	2023	20230204	4 de febreru de 1922. Naz la paleontóloga aficionada Joan Wiffen. Ente otros, afayó güesos d'un titanosauriu, un terópodu, un hipsilofodonte, un pterosauriu, un anquilosauriu, mosasaurios y plesiosaurios.
5	2	2023	20230205	5 de febreru de 1505. Primer imprentación del diccionariu árabe-castellán de Pedro de Alcalá. Foi'l primer llibru que s'imprentó con carauteres árabes y resulta clave pa conocer con precisión el dialeutu andalusín.
6	2	2023	20230206	6 de febreru de 1886. El químicu Clemens Winkler descubrió'l xermaniu. Aisllólo ya identificólo a partir del mineral d'arxirodita procedente de la mina de plata de Himmelsfürst (Alemaña).
7	2	2023	20230207	7 de febreru de 1918. Naz la xenetista Ruth Sager. Foi pionera nel campu de la xenética citoplasmática. Descubrió la tresmisión non cromosómica de les traces xenétiques.
8	2	2023	20230208	8 de febreru de 1943. Naz l'analista de datos Valerie Thomas. Inventó'l conocíu como tresmisor d'ilusiones, que reproduz imáxenes de forma remota emplegando espeyos parabólicos y que s'adautó pa la ciruxía y el cine 3D.
9	2	2023	20230209	9 de febreru de 1854. Naz la médica Aletta Henriëtte Jacobs. Foi pionera en planificación familiar: en 1881, fixo'l primer estudiu sistemáticu de l'anticonceición.
10	2	2023	20230210	10 de febreru de 1840. Naz el químicu y xeólogu Per Teodor Cleve. Descubrió los elementos holmiu y tuliu. Tamién concluyó que'l didimiu yera en realidá una amestadura de dos elementos: el neodimiu y el praseodimiu.
11	2	2023	20230211	11 de febreru de 2005. Investigadores arxentinos asoleyen l'afayamientu del primer xacimientu de güevos de dinosauriu con embriones nel so interior, atopáu en La Patagonia.
12	2	2023	20230212	12 de febreru de 1921. Naz la programadora Kathleen McNulty Mauchly Antonelli. Foi una de les seis programadores orixinales d'ENIAC, el primer ordenador dixital electrónicu de propósitu xeneral.
13	2	2023	20230213	13 de febreru de 1880. Thomas Edison observa la emisión termoiónica, el fluxu de partícules cargaes, mientres trataba de descubrir por qué rompíen los filamentos de les sos llámpares incandescentes.
14	2	2023	20230214	14 de febreru de 1961. El lawrenciu foi sintetizáu per primer vegada por un equipu d'investigadores de física nuclear del Lawrence Berkeley National Laboratory (EE. XX.).
15	2	2023	20230215	15 de febreru de 1874. Naz l'esplorador Ernest Shackleton. Intentó cruciar L'Antártida col buque Endurance. Magar que naufragó, tol personal sobrevivió llueu de navegar 1.500 kilómetros en botes salvavides.
16	2	2023	20230216	16 de febreru de 1923. Naz la matemática aficionada Marjorie Rice. Desendolcó un sistema de notación pal estudiu de los polígonos y afayó nueves teselaciones pentagonales.
17	2	2023	20230217	17 de febreru de 1905. Naz la matemática Rózsa Péter. Ye autora de Das Spiel mit dem Unendlichen (Xugando col Infinitu), un llibru traducíu a más de 15 llingües.
18	2	2023	20230218	18 de febreru de 1201. Naz Nasir al-Din al-Tusi. Considérase'l primer matemáticu en valorar la trigonometría como una disciplina independiente de les matemátiques pures.
19	2	2023	20230219	19 de febreru de 1957. Naz Daína Chaviano, una de les principales escritores de ciencia ficción d'Hispanoamérica. Asoleyó llibros como El abrevadero de los dinosaurios o Fábulas de una abuela extraterrestre.
20	2	2023	20230220	20 de febreru de 1923. Naz la química ya inventora Helen Murray Free. Xunto col so maríu Alfred, desendolcó les primeres tires reactives d'inmersión y llectura, pal so usu en pruebes de diagnósticu.
21	2	2023	20230221	21 de febreru de 1924. Naz la informática Thelma Estrin. Foi una de les primeres persones n'aplicar teunoloxía informática al resolvimientu de problemes de salú y a la investigación biomédica.
22	2	2023	20230222	22 de febreru de 194. 5 Muerre la médica Sara Josephine Baker. Foi pionera nel so trabayu pa menguar la mortalidá infantil y pa facilitar a les persones más desfavorecíes l'accesu a la salú pública.
23	2	2023	20230223	23 de febreru de 1886. El químicu ya inventor Charles Martin Hall llogró les primeres amueses d'aluminiu per aciu d'un procesu electrolíticu pa dixebrar el metal de la so mena.
24	2	2023	20230224	24 de febreru de 1907. Naz la naturalista Marjorie Eileen Doris Courtenay-Latimer. En 1938 afayó un celacantu vivu, un pexe que se creyía desaniciáu hai 65 millones d'años.
25	2	2023	20230225	25 de febreru de 1837. Thomas Davenport patenta'l primer motor llétricu nel mundu, desendolcáu xunto a la so esposa Emily y a Orange Smalle. Esti motor taba alimentáu per aciu d'una batería de Volta.
26	2	2023	20230226	26 de febreru de 1909. Primer demostración frente al públicu del cine en color, denomináu Kinemacolor, nel Palace Theatre de Londres.
27	2	2023	20230227	27 de febreru de 1946. Naz la xenetista Mary-Claire King. Identificó los xenes BRCA1 y BRCA2 (responsables del cáncer de mama) y aplicó la secuenciación d'ADN pa identificar a víctimes de violaciones de los derechos humanos.
28	2	2023	20230228	28 de febreru de 1884. Naz la física Alexandra Glagoleva-Arkadieva. Diseñó una instalación de rayos X en Moscú pa buscar restos de metal y bales en mancaos de guerra. Más tarde volvió usala p'ayudar en partos.
1	3	2023	20230301	1 de marzu de 1896. El físicu Henri Becquerel descubre la radioactividá por accidente, al poner sales d'uraniu sobre una placa fotográfica.
2	3	2023	20230302	2 de marzu de 1935. Naz la xeóloga y química Purificación Fenoll Hach-Alí. Estudió la mineraloxía y xeoquímica del magre y la so aplicación industrial, al igual que les menes metáliques en xacimientos d'oru, níquel o cromu.
3	3	2023	20230303	3 de marzu de 1851. Naz la médica Ogino Ginko. Foi la primer muyer llicenciada y prauticante de la medicina occidental en Xapón.
4	3	2023	20230304	4 de marzu de 1895. Naz Margaret Dorothy Foster, investigadora del Proyeutu Manhattan. Desendolcó téuniques d'análisis cuantitativu pal uraniu y pal toriu, y nueves maneres de dixebrar los dos elementos.
5	3	2023	20230305	5 de marzu de 1904. Naz el paleontólogu, arqueólogu y antropólogu Pei Wenzhong. Atopó'l primer craniu del home de Beixín (Homo erectus pekinensis) nuna fonda resquiebra de 40 metros.
6	3	2023	20230306	6 de marzu de 1998. Muerre'l diseñador industrial Benjamin Bowden. Fixo bien d'innovaciones na industria del automóvil y les bicicletes. El so diseñu más conocíu ye la bicicleta futurista Spacelander.
7	3	2023	20230307	7 de marzu de 1922. Naz la matemática Olga Aleksandrovna Ladyzhenskaya. Ye conocida pol so trabayu n'ecuaciones en derivaes parciales (sobre manera nel problema 19 de Hilbert) y en dinámica de fluyíos.
8	3	2023	20230308	8 de marzu de 1923. La Universidá Central de Madrid (agora Universidá Complutense) inviste como doctor honoris causa al físicu Albert Einstein.
9	3	2023	20230309	9 de marzu de 1787. Naz la botánica y paleontóloga Josephine Ettel Kablick. Afayó delles especies nueves, como'l pexe fósil Palaeoniscus kablikae y el trilobite Kablikia silurica.
10	3	2023	20230310	10 de marzu de 1947. Naz el guitarrista ya inxenieru Tom Scholz. Fundó la so propia empresa de diseñu y fabricación de productos teunolóxicos, como'l atenuador Power Soak y los amplificadores p'auriculares Rockman.
11	3	2023	20230311	11 de marzu de 1932. Naz la viróloga Yvonne Barr. Descubrió'l virus d'Epstein-Barr, xunto al patólogu Michael Anthony Epstein. Esti virus ye la principal causa de la mononucleosis aguda infeiciosa.
12	3	2023	20230312	12 de marzu de 1939. Naz la programadora y hacker Jude Milhon (alies St. Jude). Acuñó'l términu cypherpunk –xuniendo cipher (cifráu) y cyberpunk– pa llamar asina a les  persones defensores de la privacidá dixital.
13	3	2023	20230313	13 de marzu de 2013. Entra en plenu funcionamientu'l Atacama Large Millimeter Array, el radiotelescopiu más poderosu del mundu nesi momentu.
14	3	2023	20230314	14 de marzu de 1876. Naz Otto Karl Julius Röhm. Introduxo l'usu d'enzimes nos deterxentes. Esto failos más sostenibles, al amenorgar l'usu d'enerxía y fosfatos na llavadura de la ropa.
15	3	2023	20230315	15 de marzu de 1868. Naz la matemática Grace Chisholm Young. Foi madre de seis fíos y escribió dellos llibros sobre la enseñanza infantil, en collaboración col so home, William Young.
16	3	2023	20230316	16 de marzu de 1915. Naz el matemáticu Kunihiko Kodaira. Ye conocíu poles sos contribuciones en xeometría alxebraica y en teoría de variedaes complexes. Foi Medalla Fields en 1954 y Premiu Wolf en 1984.
17	3	2023	20230317	17 de marzu de 1849. Naz la zoóloga ya ictióloga Cornelia Maria Clapp. Foi la primer muyer de los EE. XX. en doctorase en Bioloxía, especializándose en vida marina.
18	3	2023	20230318	18 de marzu de 1826. Naz la sufraxista Matilda J. Gage. La historiadora de la ciencia Margaret W. Rossiter acuñó'l conocíu como efeutu Matilda nel so honor, pa describir cómo les científiques reciben menos creitu pol so trabayu.
19	3	2023	20230319	19 de marzu de 1369. Muerre'l médicu, poeta y filósofu andalusín Ibn Jatima. Foi pioneru al plantegar la hipótesis de la infeición por organismos minúsculos y la importancia del aisllamientu frente a los andancios.
20	3	2023	20230320	20 de marzu de 1879. Naz la bioquímica Maud Menten. Xunto a Leonor Michaelis, desendolcó la llamada cinética de Michaelis-Menten, modelu que describe la velocidá de munches reaiciones enzimátiques.
21	3	2023	20230321	21 de marzu de 2002. Naz Somaya Faruqi, capitana del Equipu de Robótica de Moces Afganes. Conocíes como The Afghan Dreamers, el so oxetivu ye tresformar la cultura de la so comunidá al traviés del programa STEAM.
22	3	2023	20230322	22 de marzu de 1940. Naz la primer xeóloga mexicana, María Fernanda Campa Uranga, la Chata. Fundó l'Instituto Mexicano del Petróleo y defendió'l calter públicu ya inalienable de les riqueces del subsuelu.
23	3	2023	20230323	23 de marzu de 2017. La química Niveen Khashab recibe'l premiu L'Oreal-UNESCO pol so trabayu innovador en materiales híbridos intelixentes y en téuniques pa monitorizar l'actividá antioxidante intracelular.
24	3	2023	20230324	24 de marzu de 1884. Naz la química y farmacéutica Chika Kuroda. Contribuyó a la fabricación d'un fármacu pa tratar la hipertensión deriváu de la quercetina, un pigmentu del pelleyu de la cebolla.
25	3	2023	20230325	25 de marzu de 1995. Muerre James Coleman, sociólogu conocíu pola formulación de la teoría de la eleición racional, qu'ayuda a entender el comportamientu económicu y social.
26	3	2023	20230326	26 de marzu de 1516. Naz el naturalista Conrad Gesner. Considérase-y el padre de la bibliografía pola so Bibliotheca universalis, la primera gran compilación bibliográfica imprentada de calter xeneral y universal.
27	3	2023	20230327	27 de marzu de 1875. Naz la neuróloga Cécile Vogt-Mugnier. El síndrome de Vogt-Vogt, una alteración de l'atetosis qu'asocede nel paralís cerebral infantil, recibe'l nome de Cécile y del so maríu Oskar.
28	3	2023	20230328	28 de marzu de 1935. L'inxenieru aeronáuticu Virgilio Leret patenta'l so mototurbocompresor de reacción continua, el primer motor a reacción. Nun pudo siguir con esti proyeutu al ser ún de los primeros fusilaos tres el golpe d'Estáu de 1936.
29	3	2023	20230329	29 de marzu de 1561. Naz Santorio Santorio, médicu y ún de los fundadores de la medicina esperimental. Desendolcó dellos instrumentos de precisión, ente ellos, el termómetru clínicu.
30	3	2023	20230330	30 de marzu de 1892. Naz el matemáticu Stefan Banach, ún de los fundadores del análisis funcional. Fixo importantes aportaciones a la teoría de conxuntos, la teoría de la midida y otres rames de les matemátiques.
31	3	2023	20230331	31 de marzu de 1880. Naz la bioquímica Muriel Wheldale Onslow. Estudió la química de los pigmentos de flores.
1	4	2023	20230401	1 d'abril de 1776. Naz Sophie Germain, matemática autodidauta, que contribuyó a la teoría de númberos, ente otro. Estudió los agora conocíos como númberos primos de Sophie Germain.
2	4	2023	20230402	2 d'abril de 1902. Inaugúrase'l Teatru Llétricu de Los Ánxeles. Foi'l primer cine públicu de Los Estaos Xuníos.
3	4	2023	20230403	3 d'abril de 1895. Naz la farmacéutica y química Eugenia Pereira Rodríguez. Dirixó un llaboratoriu onde fabricaba antibióticos, cosméticos, pastes dentales y el primer deterxente llíquido d'España.
4	4	2023	20230404	4 d'abril de 2021. Muerre Thomas Brock, microbiólogu especializáu nos microorganismos que viven a temperatures altes. Escribió'l llibru de testu de microbioloxía más utilizáu del mundu.
5	4	2023	20230405	5 d'abril de 1887. Naz la física Hedwig Kohn. Trabayó nel determín cuantitativu de la intensidá lluminosa. Les sos aportaciones contribuyeron al desendolcu de la espectroscopia atómica y molecular.
6	4	2023	20230406	6 d'abril de 2021. Muerre l'historiador ya hispanista Pierre Guichard. Figura clave de la historiografía medieval, contribuyó a replantegar de manera decisiva los fundamentos de la historia d'Al-Ándalus.
7	4	2023	20230407	7 d'abril de 1857. Naz Dolors Aleu Riera, primer muyer en llograr un doctoráu en Medicina n'España.
8	4	2023	20230408	8 d'abril de 1992. Espublízase na revista Nature'l descubrimientu de tres nuevos cranios n'Atapuerca. Rescampla la conservación esceicional d'ún, el conocíu como Miguelón n'honor al ciclista Miguel Induráin.
9	4	2023	20230409	9 d'abril de 1921. Naz la matemática ya inxeniera aeroespacial Mary Winston Jackson. Trabayó nel Centru d'Investigación de Langley de la NASA, onde desempeñó dellos puestos: dende calculista a inxeniera.
10	4	2023	20230410	10 d'abril de 1887. Naz el premiu nobel Bernardo Alberto Houssay. Afayó'l papel que desempeñen les hormones pituitaries na regulación de la cantidá d'azucre en sangre.
11	4	2023	20230411	11 d'abril de 1935. Naz l'arqueólogu ya historiador del arte Christian Ewert. Investigó l'arquitectura andalusina, con estudios destacaos que van dende Medina Azahara hasta l'Aljafería de Zaragoza.
12	4	2023	20230412	12 d'abril de 1968. Naz l'investigador en nutrición animal Kevin Shingfield. Especialista en ganáu de lleche, destaca polos sos trabayos sobro l'efeutu de la dieta sobre'l valor nutricional de la lleche.
13	4	2023	20230413	13 d'abril de 1782. Descúbrese'l teluriu. Atopólu en minerales d'oru'l xeólogu y químicu Franz-Joseph Müller von Reichenstein, inspeutor xefe de mines en Transilvania (Rumania).
14	4	2023	20230414	14 d'abril de 2003. Acaba'l Proyeutu Xenoma Humanu pa determinar la secuencia de pares de bases químiques que componen l'ADN humano: 3.000 millones de nucleótidos y unos 20.000 xenes.
15	4	2023	20230415	15 d'abril de 1874. Naz el físicu y premiu nobel Johannes Stark. Describió l'efeutu Doppler nos rayos canales y el desdoblamientu de les llinies espectrales cuando la lluz se somete a un campu llétricu intensu.
16	4	2023	20230416	16 d'abril de 1921. Naz la bioquímica Marie Maynard Daly. Estudió los efeutos sobre'l corazón y les arteries de factores como l'avieyamientu, el tabaquismu, la hipertensión o'l colesterol.
17	4	2023	20230417	17 d'abril de 2014. Investigadores de la Universidá de Cardiff llogren un gran progresu nel tratamientu de la leucemia linfática crónica (LLC), la forma más común d'esta enfermedá.
18	4	2023	20230418	18 d'abril de 1887. Naz Isabel Ovín Camps, primer muyer llicenciada en Química n'España. Especializóse n'educación y recibió la Cruz d'Alfonso X el Sabio en 1954.
19	4	2023	20230419	19 d'abril de 156. 7 Muerre Michael Stifel, flaire y matemáticu descubridor de los logaritmos.
20	4	2023	20230420	20 d'abril de 1896. Naz Sheina Marshall, conocida pol so trabayu en bioloxía marina,  sobre manera polos sos estudios sobre'l plancton.
21	4	2023	20230421	21 d'abril de 1872. Naz la micóloga Gertrude Simmons Burlingham. Ye perconocida pola so obra sobro los xéneros de fungos Russula y Lactarius.
22	4	2023	20230422	22 d'abril de 1904. Naz la filósofa y escritora María Zambrano Alarcón. Foi una de les figures capitales del pensamientu español del sieglu XX.
23	4	2023	20230423	23 d'abril de 185. 8 Naz el físicu Max Planck. Foi'l fundador de la teoría cuántica y recibió el Premiu Nobel de Física en 1918.
24	4	2023	20230424	24 d'abril de 1855. Naz la xeóloga Catherine Alice Raisin. Investigó nel campu de la mineraloxía y petroloxía microscópica. Estudió'l síliz o xil, les serpentines y les espilites.
25	4	2023	20230425	25 d'abril de 1874. Naz l'inxenieru electrónicu Guglielmo Marconi. Presentó xuna patente de radio en 1904 y recibió el Premiu Nobel de Física pola so contribución a la telegrafía inalámbrica.
26	4	2023	20230426	26 d'abril de 1913. Naz la farmacéutica y brióloga Creu Cases i Sicart. Foi xuna botánica especialista en mofos y hepátiques. A partir de 1937 exerció de farmacéutica, magar qu'ensin perder el contautu cola botánica.
27	4	2023	20230427	27 d'abril de 1970. Anúnciase'l descubrimientu del elementu 105, el dubniu, nuna xunta de la American Physical Society.
28	4	2023	20230428	28 d'abril de 1911. Naz la oncóloga ya investigadora clínica Mildred Vera Peters. Demostró que munchos pacientes de la enfermedá de Hodgkin –considerada entós incurable– podíen curase con radiación.
29	4	2023	20230429	29 d'abril de 1852. El médicu y lexicógrafu Peter Mark Roget espubliza la primer edición del Tesauro de palabras y frases inglesas. Ye una escoyeta de términos rellacionaos, como sinónimos y antónimos.
30	4	2023	20230430	30 d'abril de 2013. El neurobiólogu Ben Barres ye nomáu miembru de l'Academia Nacional de Ciencies en Los Estaos Xuníos y conviértese asina na primer persona trans n'ocupar esti puestu.
1	5	2023	20230501	1 de mayu de 1514. Maciej de Miechów fai l'inventariu de la so biblioteca. Gracies a ello, confírmase que yá taba en circulación el Pequeñu comentariu, nel que Copérnico espón el so modelu heliocéntricu.
2	5	2023	20230502	2 de mayu de 1934. Muerre'l filólogu y arabista Julián Ribera y Tarragó, pioneru nel estudiu de la buelga andalusina dientro de la cultura hispana. Escribió obres esenciales como Bibliófilos y bibliotecas en la España musulmana.
3	5	2023	20230503	3 de mayu de 1924. Naz el matemáticu Isadore Manuel Singer, conocíu pol teorema de Atiyah-Singer, que rellaciona índices analíticos y topolóxicos d'operadores diferenciales elípticos sobre variedaes compautes.
4	5	2023	20230504	4 de mayu de 1880. Naz Mónico Sánchez Moreno, l'inxenieru pioneru de la radioloxía y les telecomunicaciones qu'inventó'l primer aparatu de rayos X portátil, qu'empezaría a usase n'ambulancies.
5	5	2023	20230505	5 de mayu de 2003. Muerre la botánica Graziela Maciel Barroso. Conocida como la Primer Dama de la Botánica en Brasil, al ser la primer muyer en facer un cursu de grau nesa estaya nel país.
6	5	2023	20230506	6 de mayu de 1939. The Lancet publica l'artículu «La microglía», onde Pío del Río Hortega describe'l descubrimientu d'estes célules. Vivió esti finxu dende l'esiliu fuera d'España.
7	5	2023	20230507	7 de mayu de 1713. Naz el matemáticu Alexis Clairaut. Los sos trabayos marcaron un nuevu estilu físico-matemáticu, nel que progresaron paralelamente entrambes disciplines.
8	5	2023	20230508	8 de mayu de 1896. Naz la matrona Stanisława Leszczyńska. Tuvo recluyida nel campu de concentración d'Auschwitz, onde asistió a les prisioneres na nacencia d'unos 3.000 ñácaros.
9	5	2023	20230509	9 de mayu de 1834. Naz la botánica Catherine Furbish. A lo llargo de 60 años percorrió l'estáu de Maine (EE. XX.) pa recoyer, clasificar ya ilustrar la flora qu'atopaba.
10	5	2023	20230510	10 de mayu de 1958. Naz la física y astronauta Ellen Ochoa. Foi la primer muyer d'orixe hispanu en viaxar al espaciu.
11	5	2023	20230511	11 de mayu de 868. Impréntase en China'l testu budista conocíu como'l Sutra del diamante, traducíu del idioma sánscritu. Considérase'l primer llibru imprentáu que llegó hasta l'actualidá.
12	5	2023	20230512	12 de mayu de 2017. Bryan Keith «Dexter» Holland, cantante y guitarrista de la banda punk rock The Offspring, recibe'l so doctoráu en Bioloxía Molecular gracies a una tesis sobre la secuencia d'ARN del VIH.
13	5	2023	20230513	13 de mayu de 1914. Naz la matemática y astrónoma Antonia Ferrín Moreiras. Foi la primer muyer en defender una tesis doctoral n'astronomía n'España. Fixo estudios sobre estrelles dobles.
14	5	2023	20230514	14 de mayu de 864. El meteoritu d'Orgueil cai en Francia. El so estudiu resultó mui polémicu. El mesmu Louis Pasteur esaminólu pa buscar bacteries estraterrestres nel so interior.
15	5	2023	20230515	15 de mayu de 1903. Naz l'arqueóloga y matemática María Reiche Neumann. Nacionalizada peruana, dedicó gran parte de la so vida a investigar y promover el caltenimientu de les llinies de Naza.
16	5	2023	20230516	16 de mayu de 1960. El físicu Theodore Maiman fai funcionar con ésitu'l primer láser. Pa construyilo, utilizó un rubín rosa.
17	5	2023	20230517	17 de mayu de 2022. La química analítica Najat Aoun Saliba entra a formar parte del Parlamentu d'El Líbano. Destaquen les sos investigaciones sobre contaminación atmosférica y compuestos canceríxenos nos cigarros electrónicos.
18	5	2023	20230518	18 de mayu de 1946. Promúlgase la llei que crea l'Institutu Nacional d'Investigación Agraria (INRA, Francia). Va ser el más destacáu d'Europa na so estaya y va empobinase a llograr una agricultura y ganadería más competitives y caltenibles.
19	5	2023	20230519	19 de mayu de 2010. Muere Fang Fang Kullander. Ye reconocida poles sos contribuciones a l'acuicultura en China y a la conocencia de les agües continentales de Myanmar. Fundó'l proyeutu sino-européu ECOCARP.
20	5	2023	20230520	20 de mayu de 1865. La inventora Fermina Orduña recibe la patente d'un sistema pa tresportar pollines, vaques y cabres. Esti sistema aseguraba la distribución rápida de lleche fresco a casa, especialmente a persones enfermes.
21	5	2023	20230521	21 de mayu de 1958. Naz Muffy Calder, profesora conocida pol so trabayu nel diseñu de software complexu pal so usu en sistemes biomédicos.
22	5	2023	20230522	22 de mayu de 1903. Naz la matemática y física Bertha Swirles Jeffreys. Fixo importantes contribuciones a la física cuántica. Xunto col so home Harold, escribió'l llibru Methods of Mathematical Physics.
23	5	2023	20230523	23 de mayu de 1884. Naz l'estadísticu Corrado Gini. Inventó'l coeficiente de Gini, una midida de la desigualdá d'una distribución que se calcula como una proporción de les árees nel diagrama de la curva de Lorenz.
24	5	2023	20230524	24 de mayu de 2021. Detecten per primer vegada etanolamina nel espaciu. Ye una molécula clave pal orixe de la vida porque contién cuatro de los sos elementos químicos fundamentales: oxíxenu, nitróxenu, hidróxenu y carbonu.
25	5	2023	20230525	25 de mayu de 1934. Santiago Ramón y Cajal remata la escritura d'El mundo visto a los 80 años. Les sos reflexones sobre la vieyera y los sos conseyos a la xente que tome la carrera investigadora amuesen gran vixencia.
26	5	2023	20230526	26 de mayu de 2002. La nave de la NASA Mars Odyssey detecta qu'hai más xelu baxo la superficie de Marte de lo esperao.
27	5	2023	20230527	27 de mayu de 1898. Naz la diseñadora y científica social Marie Neurath. Ye conocida por tresformar datos o testos en diagrames, faciendo combinaciones ente la visualización de datos y la infografía.
28	5	2023	20230528	28 de mayu de 2017. Muerre la ecóloga y limnóloga pionera Maria Rosa Miracle. Foi la primer muyer caderalga d'Ecoloxía n'España y la primer presidenta de l'Asociación Española de Limnología.
29	5	2023	20230529	29 de mayu de 1898. Naz la médica Margaret Lin Xavier. Foi la primer muyer tailandesa en llograr un grau de Medicina. Trabayó n'obstetricia y enfermedaes sexuales.
30	5	2023	20230530	30 de mayu de 1958. Naz Miguel López Alegría, primer astronauta nacíu n'España. Fixo 10 caminaes espaciales.
31	5	2023	20230531	31 de mayu de 1852. Naz el microbiólogu Julius Richard Petri. Inventó les plaques de Petri, que s'utilicen en tolos llaboratorios del mundu pal cultivu de microorganismos sobre medios sólidos.
1	6	2023	20230601	1 de xunu de 2022. El grupu d'investigación de Neuroinxeniería Biomédica de la Universidá Miguel Hernández estrena una obra musical basada en rexistros electrofisiolóxicos d'una persona ciega.
2	6	2023	20230602	2 de xunu de 1858. L'astrónomu Giovanni Battista Donati afaya'l cometa que lleva'l so nome: el cometa de Donati.
3	6	2023	20230603	3 de xunu de 1923. Naz l'astrónoma Erika Böhm-Vitense. Ye conocida pol so trabayu sobre estrelles variables cefeides y atmósferes estelares.
4	6	2023	20230604	4 de xunu de 2003. La investigadora Margarita Salas llee'l so discursu d'ingresu na Real Academia Española. Tomó posesión del sillón «i» y convirtióse na primer científica n'ingresar nesta institución.
5	6	2023	20230605	5 de xunu de 1646. Naz la filósofa Elena Lucrezia Cornaro Piscopia. Nel añu 1678 va ser la primer muyer en recibir un doctoráu en filosofía por una universidá (la de Padua).
6	6	2023	20230606	6 de xunu de 1851. Naz l'inventor y empresariu Angelo Moriondo. Ye conocíu por  patentar la que se considera como la primer máquina moderna de café espreso.
7	6	2023	20230607	7 de xunu de 1909. Naz la médica Virginia Apgar. Creó'l test Apgar, el métodu qu'usamos anguaño pa evaluar la salú de los naciellos.
8	6	2023	20230608	8 de xunu de 1896. Naz la matemática Eleanor Pairman. Deprendió matemátiques al alumnáu ciego: estudió braille y deprendió a facer diagrames y símbolos cola so máquina de coser y otros instrumentos domésticos.
9	6	2023	20230609	9 de xunu de 1961. Muerre l'albeitre y biólogu Camille Guérin. Desendolcó, xunto con Albert Calmette, la vacuna BCG contra la tuberculosis.
10	6	2023	20230610	10 de xunu de 1911. Naz la botánica y micóloga Greta Barbara Stevenson. Describió más de cien nueves especies de la orde de fungos Agaricales.
11	6	2023	20230611	11 de xunu de 1754. El químicu Joseph Black descubró'l dióxidu de carbonu: denominólo aire fixo.
12	6	2023	20230612	12 de xunu de 1937. Naz la inventora Emma Lilian Todd. Deprendió mecánica de manera autodidauta y diseñó'l so primer aeroplanu en 1906. Promovió l'interés popular pola aviación a primeros del sieglu XX.
13	6	2023	20230613	13 de xunu de 1585. Muerre l'inxenieru Juanelo Turriano. Ye famosu por construyir l'inxeniu que xubía l'agua dende El Tajo a Toledo. Entá se conserven dellos autómates atribuyíos a esti inventor.
14	6	2023	20230614	14 de xunu de 2014. Muerre la matemática María Josefa Wonenburger Planells, investigadora na teoría de grupos y na teoría d'álxebres de Lie. Foi la primer muyer española en llograr una beca Fulbright.
15	6	2023	20230615	15 de xunu de 1667. El médicu Jean-Baptiste Denys y el ciruxanu Paul Emmerez faen la primer tresfusión de sangre dafechu documentada. Ye una xenotransfusión d'un corderu a un mozu de 15 años.
16	6	2023	20230616	16 de xunu de 1909. Naz el biólogu Archie Fairley Carr. Toa un autoridá en tortugues marines, clasificó 79 especies y subespecies y estudió les so costumes migratories, l'apariamientu y los sos vezos nutricionales.
17	6	2023	20230617	17 de xunu de 1910. L'inxenieru ya inventor Aurel Vlaicu fai'l so primer vuelu cola máquina Vlaicu I. Considérase ún de los pioneros de l'aviación mundial.
18	6	2023	20230618	18 de xunu de 1983. La física Sally Ride ye la primer estaoxunidense en dir al espaciu. Xunto cola moza, Tam O'Shaughnessy, trabayó pa potenciar les vocaciones científiques ente les neñes.
19	6	2023	20230619	19 de xunu de 1960. Naz la neurocientífica Juana Gallar. Estudia cómo sentimos dolor nos güeyos y cómo-yos afeuta la temperatura, la medicación y la ciruxía, p'ayudar, ente otres, a les persones con güeyu secu.
20	6	2023	20230620	20 de xunu de 1931. Naz la química inorgánica Mary L. Good. Dedicóse a la investigación industrial y contribuyó a la comprensión de cómo los catalizadores aceleren les reaiciones químiques.
21	6	2023	20230621	21 de xunu de 2022. La investigadora Elena García Armada recibe'l Premiu Popular al Inventor Européu pol so exoesqueletu que dexa que neñes y neños con paralises puedan caminar na rehabilitación.
22	6	2023	20230622	22 de xunu de 2017. El dron Mine Kafon recibe'l premiu Drone Hero Europe. Los hermanos afganos Mahmud y Massoud Hassani diseñáronlu pa la busca, deteición y detonación a distancia de mines terrestres.
23	6	2023	20230623	23 de xunu de 1889. Naz la inxeniera mecánica Verena Holmes. Promovio la participación de les muyeres na inxeniería y, anguaño, el so cumpleaños coincide col Día Internacional de la Muyer na Inxeniería.
24	6	2023	20230624	24 de xunu de 1956. Naz la epidemióloga Abla Mehio Sibai. Ye reconocida pol so trabayu pioneru pa llograr un avieyamientu saludable en persones con ingresos baxos y pol so impautu en polítiques de salú pública.
25	6	2023	20230625	25 de xunu de 1997. Muerre l'investigador y biólogu marín Jacques Cousteau. Foi un gran divulgador, con más de 100 documentales y películes que promueven el caltenimientu del mediu marín.
26	6	2023	20230626	26 de xunu de 2011. Muerre la historiadora Maria Lúcia Mott. Destaquen les sos investigaciones n'historia de la salú y amás ye pionera de los estudios de xéneru en Brasil.
27	6	2023	20230627	27 de xunu de 1909. Naz la botánica y xenetista Harriet Baldwin Creighton. Trabayó nel campu de la citoxenética del maíz con Barbara McClintock.
28	6	2023	20230628	28 de xunu de 1876. Naz la enfermera Clara Louise Maass. Foi voluntaria nos estudios que descubrieron cómo se contaxa la fiebre mariello y, de fechu, morrió por cuenta d'estos. Esto punxo fin a estos estudios.
29	6	2023	20230629	29 de xunu de 1917. Naz la médica y epidemióloga Selma Kaderman Dritz. Desempeñó un papel instrumental nel siguimientu de la nueva enfermedá del VIH.
30	6	2023	20230630	30 de xunu de 2012. El Centru de Ciencies de Kabul anunció que Khalilullah Yaqubi, un estudiante de secundaria, descubriere una fórmula matemática que puede utilizase pa resolver ecuaciones cuadrátiques de segundu grau con una incógnita.
1	7	2023	20230701	1 de xunetu de 965. Naz el físicu Alhacén. Consideráu como creador del métodu científicu, escribió'l revolucionariu Llibru d'Óptica, con grandes meyores sobre la lluz, el color y el funcionamientu del güeyu humanu.
2	7	2023	20230702	2 de xunetu de 2018. Fúndase la Sociedad Ibérica de Ecología (SIBECOL). Axunta a toles persones dedicaes a la ciencia de la ecoloxía, yá sía teórica, terrestre, marina o d'agües continentales.
3	7	2023	20230703	3 de xunetu de 1826. El químicu Antoine-Jerome Balard anuncia'l descubrimientu del bromu (númberu atómicu 35).
4	7	2023	20230704	4 de xunetu de 1868. Naz l'astrónoma Henrietta Swan Leavitt. Estudió les estrelles variables cefeides nel Observatoriu del Harvard College.
5	7	2023	20230705	5 de xunetu de 1951. Naz Yves Chilliard. Desendolcó la so carrera nel Institutu Nacional d'Investigación Agraria de Francia (INRA) y ye reconocíu polos sos estudios sobre metabolismu lipídicu en ganáu de lleche.
6	7	2023	20230706	6 de xunetu de 1849. Naz l'abogáu y matemáticu Alfred Kempe. Escribió sobre la solución d'ecuaciones por medios mecánicos y una famosa memoria acerca de mecanismos titulada Cómo trazar una llinia reuta.
7	7	2023	20230707	7 de xunetu de 1921. Naz Joaquina Albarracín. Fixo estudios innovadores sobre'l vistíu y l'adornu de les muyeres del norte de Marruecos, que punxo en rellación colos de musulmanes y morisques de la península ibérica na Edá Media y Moderna.
8	7	2023	20230708	8 de xunetu de 1943. Emile Gagnan y Jacques Cousteau patenten la escafandra autónoma moderna. Incluyía una revolucionaria válvula pa regular el fluxu del gas alendao
9	7	2023	20230709	9 de xunetu de 1939. Naz Zemaryalai Tarzi, arqueólogu y direu0tor de les escavaciones de Bamiyán y Hadda. Protagonizó'l documental The Giant Buddhas, sobre la destrucción de los Budes de Bamiyán polos talibanes.
10	7	2023	20230710	10 de xunetu de 1908. El físicu Heike Kamerlingh Onnes produz heliu llíquido esfreciendo'l gas hasta 0,9 kelvin. Recibió'l Nobel de Física en 1913 polos sos estudios sobre la materia a  temperatures baxes.
11	7	2023	20230711	11 de xunetu de 1969. David Bowie publica «Space Oddity», un cantar sobre la sensación de flotar nel espaciu. Nueve díes más tarde, la BBC usó'l cantar na cobertoria del allunizaxe del Apolo 11.
12	7	2023	20230712	12 de xunetu de 1953. Naz la científica conservacionista y ecoloxista Georgina Maze. Desondolcó los criterios pa incluyir especies amenazaes na Llista Colorada de la Unión Internacional pal Caltenimientu de la Naturaleza.
13	7	2023	20230713	13 de xunetu de 2010. Inaugúrase'l Museo de la Evolución Humana, en Burgos. Constitúi un referente internacional en rellación col procesu evolutivu humanu, nos sos aspeutos ecolóxicos, biolóxicos y culturales.
14	7	2023	20230714	14 de xunetu de 1888. Naz la química Mary Lura Sherrill. Foi reconocida polos sos llogros n'investigación química,sobre manera pola síntesis de componentes antimaláricos.
15	7	2023	20230715	15 de xunetu de 1898. Naz la física y matemática Mary Taylor Slow. Foi la primer muyer en trabayar na teoría d'espardimientu d'ondes de radio.
16	7	2023	20230716	16 de xunetu de 1888. Naz el físicu y matemáticu Alexander Friedmann. Propunxo una teoría pionera sobre la espansión del universu, gobernada por un conxuntu d'ecuaciones que desendolcó: les ecuaciones de Friedmann.
17	7	2023	20230717	17 de xunetu de 1967. Muerre la médica Janet Lane-Claypon. Foi una de les fundadores de la epidemioloxía y foi pionera nel usu de los llamaos estudios de cohortes y estudios caso-control.
18	7	2023	20230718	18 de xunetu de 1898. Marie y Pierre Curie descubren un nuevu elementu químicu: el poloniu. El so númberu atómicu ye 84.
19	7	2023	20230719	19 de xunetu de 1947. Naz el guitarrista y astrofísicu Brian May. Conocíu por ser miembru de la banda Queen, fixo la so tesis doctoral n'astrofísica a partir d'observaciones recoyíes nel observatoriu del Teide.
20	7	2023	20230720	20 de xunetu de 1873. Naz l'inventor Alberto Santos Dumont. Diseñó y construyó dirixibles y aviones. Foi una de les persones que más contribuyó al desendolcu tempranu de l'aviación.
21	7	2023	20230721	21 de xunetu de 1620. Naz Jean-Felix Picard, fundador de la xeodesia. Foi pioneru al midir un arcu d'un grau del meridianu terrestre con triangulación, usando preseos provistos de lentes astronómiques con retícula.
22	7	2023	20230722	22 de xunetu de 1904. Naz la bioquímica ya historiadora de la ciencia Lu Gwei-djen. Esperta na historia de la ciencia y la tecnoloxía en China, foi tamién médica especializada en nutrioloxía.
23	7	2023	20230723	23 de xunetu de 1995. Los astrónomos Alan Hale y Thomas Bopp afayen, cuasi simultáneamente, el cometa Hale-Bopp.
24	7	2023	20230724	24 de xunetu de 1914. Naz la farmacóloga Frances Oldham Kelsey. Supervisora de la Food and Drug Administration en Los EE. XX., negóse a autorizar la venta de la talidomida nel so país, yá que duldaba de la so seguranza.
25	7	2023	20230725	25 de xunetu de 2013. Implanten con ésitu falses alcordances nel celebru d'aguarones. Esti descubrimientu ameyora la comprensión de la memoria humana.
26	7	2023	20230726	26 de xunetu de 1999. Constitúise la Fundación Atapuerca. Los sos oxetivos son sofitar al Equipu d'Investigación d'Atapuerca per aciu de les campañes d'escavaciones, ameyorar la contorna y espublizar los restos arqueolóxicos atopaos y les investigaciones sobre estos.
27	7	2023	20230727	27 de xunetu de 1848. Naz el físicu Loránd Eötvös. El so trabayu centróse na gravitación y l'estudiu de la tensión superficial de los llíquidos.
28	7	2023	20230728	28 de xunetu de 1851. El fotógrafu Johann Julius Friedrich Berkowski foi'l primeru en llograr un daguerrotipu de la corona de lluz nun clis solar total.
29	7	2023	20230729	29 de xunetu de 1919. Naz la bioquímica Patricia Hannah Clarke. El so principal campu d'investigación foi la producción y el metabolismu de les enzimes bacterianes.
30	7	2023	20230730	30 de xunetu de 1920. Naz la xeóloga Marie Tharp. Demostró la esistencia de la dorsal mesoatlántica y fixo posible'l cambéu de la hipótesis de la Tierra n'espansión a les teoríes de tectónica de plaques y deriva continental.
31	7	2023	20230731	31 de xunetu de 1934. Naz la xenetista Julia Gwynaeth Bodmer. Estudió los antixenos leucocitarios humanos (HLA, n'inglés), un sistema de marcadores xenéticos. Foi esperta en seroloxía y definición xenética del sistema HLA.
1	8	2023	20230801	1 d'agostu de 1945. Muerre Blas Cabrera, consideráu como ún de los padres de la física española y un referente nel campu del magnetismu.
2	8	2023	20230802	2 d'agostu de 1893. Naz la cristalógrafa Isabel Ellie Knaggs. Estableció que los átomos de carbonu adopten una xeometría en forma tetraédrica cuando formen compuestos con otros átomos.
3	8	2023	20230803	3 d'agostu de 1890. Naz l'astrónoma Martha Betz Shapley. Ye conocida pola so investigación sobre estrelles binaries eclipsantes.
4	8	2023	20230804	4 d'agostu de 1917. L'inventor Lucien Lévy solicita la patente pal principiu superheterodín. Va ser tan relevante que la práutica totalidá de los receutores de radio AM van utilizar el sistema heterodín.
5	8	2023	20230805	5 d'agostu de 195. 2 Muerre Sameera Moussa, la primer física nuclear d'Exiptu. Trabayó pa facer accesible a tol mundu l'usu médicu de la teunoloxía nuclear y pol usu pacíficu de la enerxía atómico.
6	8	2023	20230806	6 d'agostu de 1773. Naz el matemáticu Louis Benjamin Francoeur. El so cursu d'álxebra na Faculté des Sciences de París incorporaba lleiciones sobre xeodesia y cálculu de probabilidaes.
7	8	2023	20230807	7 d'agostu de 1933. Naz la politóloga Elinor Ostrom. Foi premiada col Nobel xunto a Oliver Williamson poles sos teoríes sobre'l papel de les empreses nel resolvimientu de conflictos y como estructures de gobiernu.
8	8	2023	20230808	8 d'agostu de 2013. Muerre l'arabista ya hispanista Mahmud Ali Makki. Creó'l Departamentu de Llingua y Lliteratura Españoles de la Universidá d'El Cairo. Ente otros gallardones, recibió la Orden de Alfonso X el Sabio.
9	8	2023	20230809	9 d'agostu de 1937. Naz la química Edda Adler. Estudió los factores y mecanismos que regulen la lliberación de neurotransmisores, según el rol de los endocanabinoides na fisiopatoloxía cardiovascular.
10	8	2023	20230810	10 d'agostu de 1883. Naz l'agrónoma y fisióloga vexetal Winifred Elsie Brenchle. Ameyoró la téunica de cultivos hidropónicos y acercóse a descubrir el papel del cobre y el zinc na nutrición de les plantes.
11	8	2023	20230811	11 d'agostu de 1942. La inxeniera y actriz Hedy Lamarr y el pianista George Antheil patenten el so sistema de comunicación encriptada. Constitúi una de les bases pal desendolcu del wifi.
12	8	2023	20230812	12 d'agostu de 1865. Joseph Lister convirtióse nel primer ciruxanu n'usar desinfestante nuna operación.
13	8	2023	20230813	13 d'agostu de 1642. Christiaan Huygens afaya la capa de xelu del polu sur de Marte.
14	8	2023	20230814	14 d'agostu de 1888. Naz el matemáticu Julio Rey Pastor. Ye consideráu ún de los grandes renovadores de les matemátiques nel mundu de fala hispana.
15	8	2023	20230815	15 d'agostu de 1863. Naz l'inxenieru naval y matemáticu Aleksey Krylov. Espublizó unos 300 trabayos sobre la construcción de buques, el magnetismu, l'artillería, les matemátiques, l'astronomía o la xeodesia.
16	8	2023	20230816	16 d'agostu de 1871. Naz la bióloga y limnóloga Rina Monti. Esperta n'histoloxía y anatomía comparativa, desendolcó la escuela italiana de limnología. Foi la primer caderalga nel Reinu d'Italia.
17	8	2023	20230817	17 d'agostu de 2018. Espublízase'l xenoma del trigu fariñero. La so gran complexidá riquió la collaboración de 73 institutos d'investigación de 20 países, ente ellos l'INRA y el CNRS (Francia) y el CSIC (España).
18	8	2023	20230818	18 d'agostu de 1911. Naz la pionera en programación Klára Dán Von Neumann. Escribió'l códigu usáu na máquina MANIAC I, desendolcada pol matemáticu John von Neumann  y l'inxenieru Julian Bigelow.
19	8	2023	20230819	19 d'agostu de 1874. Naz el micólogu y botánicu Arthur Henry Reginald Buller. Foi un reconocíu estudiosu del reinu Fungi y del tizón del trigu.
20	8	2023	20230820	20 d'agostu de 1942. Los químicos nucleares Burris Cunningham y Louis Werner aisllen un microgramu de plutoniu. Foi la primer cantidá visible al güeyu humanu, lo que dexó estudiar delles de les sos propiedaes.
21	8	2023	20230821	21 d'agostu de 1789. Naz Augustin Louis Cauchy, ún de los pioneros del análisis matemáticu.
22	8	2023	20230822	22 d'agostu de 1860. Naz Blanca Catalán de Ocón y Gayolá. Ye considerada la primer botánica española. Los sos herbarios, de los qu'entá se conserven dos, incluyeron especies desconocíes nel momentu.
23	8	2023	20230823	23 d'agostu de 1917. Naz la endocrinóloga Estelle Rosemary Ramey. Refutó al ciruxanu Edgar Berman, quien afirmó que les muyeres nun podíen ocupar altos cargos públicos polos sos «desagradables desequilibrios hormonales».
24	8	2023	20230824	24 d'agostu de 2021. Parte del Equipu de Robótica de Moces Afganes llega a Méxicu fuxendo de los talibanes. Son conocíes por desendolcar un prototipu de respirador de baxu costu na pandemia por COVID-19.
25	8	2023	20230825	25 d'agostu de 1609. Galileo Galilei presenta'l primer telescopiu astronómicu rexistráu énte'l Senáu de Venecia.
26	8	2023	20230826	26 d'agostu de 1892. Naz la criptoanalista Elizebeth Smith Friedman. Trabayó contra'l contrabandu y el narcotráficu y descifró mensaxes d'espíes nazis qu'afalaben llevantamientos fascistes n'América del Sur.
27	8	2023	20230827	27 d'agostu de 1923. Naz la xenetista y conservacionista Liane Russell. Estudió la xenética de los mamíferos pa entender la determinación del sexu y los efeutos de la radiación, les drogues y los combustibles.
28	8	2023	20230828	28 d'agostu de 1789. William Herschel afaya Encéladu, un satélite de Saturnu. Amás d'astrónomu, Herschel foi músicu y compunxo obres pa tecláu, violín, oboe y orquesta.
29	8	2023	20230829	29 d'agostu de 1982. El meitneriu ye sintetizao per primer vegada por  un equipu d'investigación lideráu por Peter Armbruster y Gottfried Münzenberg. Recibe'l so nome n'homenaxe a Lise Meitner.
30	8	2023	20230830	30 d'agostu de 1884. Naz el físicu y químicu Theodor Svedberg. Desendolcó la téunica d'ultracentrifugación analítica y demostró la so utilidá na estremancia de proteínes pures.
31	8	2023	20230831	31 d'agostu de 1842. Naz la médica y escritora Mary Corinna Putnam. Abogaba por ampliar les oportunidaes educatives de les muyeres, que teníen de recibir la mesma formación y práutica clínica que los homes.
1	9	2023	20230901	1 de setiembre de 1145. Naz el xeógrafu y lliteratu Ibn Yubayr. El llibru nel que rellata la so pelegrinación dende la península ibérica a La Meca ye una  fonte valiosa d'información sobre'l so tiempu.
2	9	2023	20230902	2 de setiembre de 1877. Naz el químicu Frederick Soddy. Recibió'l Premiu Nobel de Química polos sos estudios de les sustances radiactives y les sos investigaciones sobre l'orixe y la naturaleza de los isótopos.
3	9	2023	20230903	3 de setiembre de 1897. Naz la física Elisabeth Karamichailova, una de les muyeres pioneres en física nuclear de primeros del sieglu XX; cooperó con Marietta Blau nel estudiu del poloniu.
4	9	2023	20230904	4 de setiembre de 973. Naz el matemáticu y astrónomu Al-Biruni. Calculó'l radiu de la esfera terrestre con un marxe d'error de namás 17 km, un nivel d'aproximamientu que nun se repetiría hasta'l sieglu XVI.
5	9	2023	20230905	5 de setiembre de 1897. Naz la botánica Katherine Warington. Foi la primer persona en probar que'l boru, en forma d'ácidu bórico, ye esencial pa la medría de les plantes.
6	9	2023	20230906	6 de setiembre de 1829. Naz la médica pionera Marie Zakrzewska. Xunto a Elizabeth y Emily Blackwell, fundó una escuela d'enfermería pa muyeres, de la que foi superintendente.
7	9	2023	20230907	7 de setiembre de 1829. Naz August Kekulé. Foi ún de los fundadores de la teoría estructural de la química, basada na tetravalencia del átomu de carbonu y nel conceutu d'enllaz químicu.
8	9	2023	20230908	8 de setiembre de 1987. Muerre la ictióloga Margaret M. Smith. Xunto al so maríu, afayó 370 especies de pexes. Amás, ye considerada una de les ilustradores naturalistes más importantes del mundu.
9	9	2023	20230909	9 de setiembre de 1916. Naz la xeóloga Dorothy Jung Echols. Trabayó na industria del petroleu nel proyeutu Deep Sea Drilling Project. Especializóse nos microfósiles (micropaleontoloxía).
10	9	2023	20230910	10 de setiembre de 1907. Naz la xeóloga y especialista en corales Dorothy Hill. Foi la primer muyer profesora nuna universidá australiana, al igual que la primer muyer que presidió la Australian Academy of Science.
11	9	2023	20230911	11 de setiembre de 1847. Naz l'astrónoma Mary Watson Whitney. Aprendió de Maria Mitchell y, a lo llargo de 22 años, foi la responsable del Vassar Observatory. Espublizáronse 102 artículos científicos baxo la so direición.
12	9	2023	20230912	12 de setiembre de 1921. Naz l'escritor de ciencia ficción Stanisław Lem. Los sos llibros esploren el llugar de la humanidá nel universu y les sos llimitaciones, incluyendo los problemes de comunicación con otros seres.
13	9	2023	20230913	13 de setiembre de 1913. Naz la química Carmen Herrero Ayllón. Amás d'investigadora y profesora de química, participó nun proyeutu de llaboratoriu pedagóxicu de formación del profesoráu en tolos campos.
14	9	2023	20230914	14 de setiembre de 2016. L'astrofísica Begoña Vila Costas ye reconocida cola Exceptional Public Achievement Medal de la NASA polos sos llogros esceicionales nel desendolcu del telescopiu espacial James Webb.
15	9	2023	20230915	15 de setiembre de 2019. Muerre Montserrat Soliva Torrentó. Foi especialista en compostaxe y nel usu de restos orgánicos pa conservar el mediu ambiente, protexer el suelu y enanchar la productividá agraria.
16	9	2023	20230916	16 de setiembre de 1934. Juan de la Cierva fai'l primer vuelu n'autoxiru sobre la ciudá de Madrid.
17	9	2023	20230917	17 de setiembre de 1888. Naz l'agrónoma y bioquímica Michiyo Tsujimura. En 1929 aislló la catequina (un flavonoide) y en 1930 estraxo'l tanín en forma de cristal del té verde.
18	9	2023	20230918	18 de setiembre de 1977. La Voyager 1 sacó la primer semeya de la Lluna y la Tierra xuntes nel espaciu.
19	9	2023	20230919	19 de setiembre de 2021. A les 15:03 hores entra n'erupción el volcán de Tajogaite (La Palma). L'equipu de pilotos de drones del IXME va face un trabayu pioneru pa la xestión de la emerxencia volcánica y el siguimientu de la erupción.
20	9	2023	20230920	20 de setiembre de 1959. Naz la bioquímica Elisa Izaurralde. Estudió les proteínes qu'esporten el ARN mensaxero fuera del nucleu celular, los mecanismos de la represión tresllacional y la decadencia del ARN mensaxero.
21	9	2023	20230921	21 de setiembre de 1923. Muerre'l médicu Fidel Pagés, pioneru de l'anestesia epidural. Por cuenta de la so temprana muerte y a que'l so trabayu nun se traduxo, los sos descubrimientos foron desconocíos per años.
22	9	2023	20230922	22 de setiembre de 1908. Naz l'astrónoma Odette Bancilhon. Dende principios de la década de 1930 desendolcó la so carrera nel Observatoriu d'Arxel, onde descubrió l'asteroide Cevenola (1333) en 1934.
23	9	2023	20230923	23 de setiembre de 2013. Muerre la botánica y limnóloga Ruth M. Patrick. Especialista en diatomees, foi pionera n'utilizar estos organismos pa diagnosticar l'estáu de salú de los ecosistemes d'agua dulce.
24	9	2023	20230924	24 de setiembre de 2013. Escuchen per primer vegada a primates non humanos burbusando. Yeren monos tití que, al vese amenazaos, burbusaben pa qu'otros nun los sintieren.
25	9	2023	20230925	25 de setiembre de 1644. Naz l'astrónomu Ole Rømer. Por influencia de Rømer, introdúxóse'l calendariu gregorianu en Dinamarca nel añu 1710.
26	9	2023	20230926	26 de setiembre de 2008. Muerre l'arquiteuta Rita Fernández Queimadelos. Ocupó cargos nunca antes desempeñaos por una muyer n'España, como'l d'arquiteuta municipal o arquiteuta escolar provincial.
27	9	2023	20230927	27 de setiembre de 2013. L'Alministración d'Alimentos y Melecines de los Estaos Xuníos (FDA) aprueba'l primer páncrees artificial.
28	9	2023	20230928	28 de setiembre de 1954. Naz el paleoantropólogu Juan Luis Arsuaga, codescubridor del craniu nu. 5 de la Torca de los Huesos (conocíu como Miguelón). Dende 2013 ye direutor científicu del Muséu de la Evolución Humana.
29	9	2023	20230929	29 de setiembre de 1896. Naz la bióloga marina Irene Bernasconi. Especializada na busca d'Echinoderma, ye conocida pol so trabayu nel Antárticu, sobre manera nel Sector Antárticu Arxentín.
30	9	2023	20230930	30 de setiembre de 1958. Unos obreros atopen en Camas (Sevilla) l'ayalga del Carambolo. Ye ún de los afayamientos más importantes venceyaos al mundu tartésicu.
1	10	2023	20231001	1 d'ochobre de 2015. Tien llugar la primer emisión de Longitud de onda, un programa de Radio Clásica dedicáu a la rellación ente la ciencia y la música.
2	10	2023	20231002	2 d'ochobre de 1928. Piedad de la Cierva Viudes ingresa como alumna na Universidá de Murcia. Yera la única muyer. Foi pionera n'estudiar el vidru óptico ya inventó los lladriyos refractarios de cascariella d'arroz.
3	10	2023	20231003	3 d'ochobre de 1509. Antonio de Nebrija recibe la cátedra de Retórica de la Universidá de Salamanca. Ye ún de los llingüistes más destacaos de la llingua castellana. Escribió la primer gramática d'esta llingua en 1492.
4	10	2023	20231004	4 d'ochobre de 1890. Naz el médicu y radiólogu Alan L. Hart. Foi pioneru na aplicación de rayos X pa diagnosticar la tuberculosis. Fixo la primer transición masculina transxéneru documentada en Los Estaos Xuníos.
5	10	2023	20231005	5 d'ochobre de 1925. Naz el paleoantropólogu Emiliano Aguirre. Dirixó les escavaciones de los xacimientos pleistocenos de la sierra d'Atapuerca dende 1978 hasta la so xubilación en 1990.
6	10	2023	20231006	6 d'ochobre de 1903. Naz el físicu Ernest Walton. Xunto a John Cockcroft, construyó ún de los primeros tipos d'acelerador de partícules, polo que ganaron el Premiu Nobel.
7	10	2023	20231007	7 d'ochobre de 1928. Naz la psiquiatra Lorna Wing. Lleva'l so nome la tríada de Wing, que define los síntomes del síndrome d'Asperger.
8	10	2023	20231008	8 d'ochobre de 2023. Día Internacional de la Podoloxía. El so oxetivu ye crear conciencia sobre la importancia que la salú del pie tien pa la salú nel so conxuntu.
9	10	2023	20231009	9 d'ochobre de 2013. Un nuevu métodu de microscopía dexa reparar estructures d'hasta 80 nm dientro d'una célula.
10	10	2023	20231010	10 d'ochobre de 1731. Naz Henry Cavendish, físicu, químicu y descubridor del hidróxenu (númberu atómicu 1 na tabla periódica).
11	10	2023	20231011	11 d'ochobre de 1745. Ewald Georg von Kleist constrúi la botella de Leyden, el primer mecanismu p'almacenar carga llétrico.
12	10	2023	20231012	12 d'ochobre de 1946. Fúndase l'Institutu d'Endocrinoloxía C. I. Parhon (Bucarest). Constantin Ion Parhon foi coautor, con Moise Goldstein, del consideráu como primer tratáu d'endocrinoloxía médica del mundu.
13	10	2023	20231013	13 d'ochobre de 1874. Naz Kiyotsugu Hirayama. Descubrió asteroides con carauterístiques orbitales asemeyaes: semiexa mayor, escentricidá y enclín. Créese que les conocíes como families Hirayama tienen un orixe común.
14	10	2023	20231014	14 d'ochobre de 1803. Espublízase'l decretu nel que s'incorpora a Isabel Zendal Gómez a la Real Expedición Filantrópica de la Vacuna.
15	10	2023	20231015	15 d'ochobre de 1608. Naz el físicu Evangelista Torricelli. Considérase la primer persona en midir la presión atmosférico.
16	10	2023	20231016	16 d'ochobre de 2013. El Curiosity Rover algamó un finxu nel so viaxe a Marte al percorrer 1 kilómetru dende'l so aterrizaxe.
17	10	2023	20231017	17 d'ochobre de 1720. Naz la escritora y anatomista Geneviève Charlotte Thiroux d’Arconville. Fixo abondosos esperimentos sobro'l podrén y conservación d'alimentos, qu'axuntó nun ensayu en 1766.
18	10	2023	20231018	18 d'ochobre de 1963. La gata Félicette foi'l primer felín en viaxar al espaciu. Esta misión foi too un finxu na carrera espacial de Francia.
19	10	2023	20231019	19 d'ochobre de 1943. Aísllen, na Universidá de Rutgers (EE.XX.), el primer antibióticu efectivo contra la tuberculosis: la estreptomicina.
20	10	2023	20231020	20 d'ochobre de 1906. Lee De Forest anuncia'l descubrimientu del triodu, qu'amplificaba les ondes de soníu y controlaba el volume. Ye un antecesor del amplificador utilizáu nes guitarres llétriques.
21	10	2023	20231021	21 d'ochobre de 2016. Winifred Mary Beard, esperta nel estudiu de la civilización romana, recibe'l Premiu Princesa d'Asturies. El so gran llabor divulgador dexó averar los clásicos al gran públicu.
22	10	2023	20231022	22 d'ochobre de 1981. Inaugúrase'l tren d'alta velocidá París-Lyon, el primeru del so tipu n'Europa.
23	10	2023	20231023	23 d'ochobre de 2013. Descubren la galaxa detectable más alloñada hasta la fecha (z8_GND_5296). Ta a 13.100 millones d'años lluz de nós.
24	10	2023	20231024	24 d'ochobre de 1997. L'equipu investigador d'Atapuerca recueye'l Premiu Príncipe d'Asturies d'Investigación Científica y Téunica. Reconozse asina l'estraordinariu interés de los sos descubrimientos paleoantropolóxicos.
25	10	2023	20231025	25 d'ochobre de 1972. Naz la economista Esther Duflo. Recibió'l Premiu Nobel d'Economía en 2019 (xunto a Abhijit Banerjee y Michael Kremer) pol so enfoque esperimental p'alliviar la probeza global.
26	10	2023	20231026	26 d'ochobre de 1874. Naz el físico-químicu Thomas Lowry. Ameyoró la teoría d'Arrhenius definiendo un ácidu como una sustancia capaz a tresferir protones y una base como una sustancia capaz a aceutalos.
27	10	2023	20231027	27 d'ochobre de 925. Posible fecha de la muerte d'Abū Bakr Muhammad ibn Zakarīyā al-Rāzī (al-Razi). Escribió la enciclopedia médica al-Hawi y considérase-y descubridor del querosenu, del ácidu sulfúrico y del usu médicu del etanol.
28	10	2023	20231028	28 d'ochobre de 1982. L'Alministración d'Alimentos y Melecines de Los Estaos Xuníos (FDA) aprueba la comercialización del primer productu médicu recombinante: un tipu d'insulina (Humulin).
29	10	2023	20231029	29 d'ochobre de 2015. Muerre María Luisa Aguilar Hurtado, la primer astrónoma profesional de Perú. Afaló la cultura científica per aciu de la fundación del Seminariu d'Astronomía y Astrofísica.
30	10	2023	20231030	30 d'ochobre de 1938. Naz la matemática Marina Evseevna Ratner. Especialista en teoría ergódica, dellos teoremas d'esta rama lleven el so nome.
31	10	2023	20231131	31 d'ochobre de 2003. Nunes observaciones rutinaries, detecten el planeta nanu Eris. Identificóse en xineru de 2005 y motivó que la Unión Astronómica Internacional redefiniere'l términu planeta en 2006.
1	11	2023	20231101	1 de payares de 1973. Los investigadores Cohen, Chang, Boyer y Helling espublicen la primer construcción in vitro de plásmidos, un finxu crucial na teunoloxía del ADN recombinante.
2	11	2023	20231102	2 de payares de 1815. Naz el matemáticu George Boole. Considérase'l creador de la lóxica matemática.
3	11	2023	20231103	3 de payares de 1906. Naz la química farmacéutica Lluz Oliveros-Belardo. Estraxo más de trenta nuevos aceites esenciales filipinos, estudió les sos propiedaes químiques y creó nuevos sabores, arumes y melecines.
4	11	2023	20231104	4 de payares de 1897. Naz la botánica Janaki Ammal. Fixo importantes contribuciones a la citoxenética y la xeobotánica. El so trabayu científicu más notable trata sobre la caña d'azucre y la berenxena.
5	11	2023	20231105	5 de payares de 1900. Naz la ictióloga Ethelwynn Trewavas. Ye conocida pol so trabayu sobre les families Cichlidae y Sciaenidae.
6	11	2023	20231106	6 de payares de 1950. Naz el matemáticu Amir Aczel. Escribió sobre la historia de la ciencia y les matemátiques. El so llibru más conocíu ye El postrer teorema de Fermat.
7	11	2023	20231107	7 de payares de 994. Naz l'intelectual andalusín Ibn Hazm. Compunxo 400 volumes sobro xenealoxía, teoloxía, hestoria, derechu o medicina. El collar de la palomba, sobre l'amor y los amantes, ye la so obra cimera.
8	11	2023	20231108	8 de payares de 1887. L'inventor Emile Berliner patenta'l gramófonu. Ente los sos llogros tamién tán el desendolcu de los discos de vinilu o'l precursor del micrófonu.
9	11	2023	20231109	9 de payares de 1934. Naz el astrofísicu y escritor Carl Sagan. Fixo una gran contribución a la promoción y popularización de la ciencia. Ye especialmente conocida la so serie Cosmos.
10	11	2023	20231110	10 de payares de 1869. Naz l'historiador y arabista Andrés Giménez Soler. Les sos obres siguen siendo referentes pal estudiu de la Granada nazarina.
11	11	2023	20231111	11 de payares de 1942. Naz l'oncólogu Robert A. Weinberg. Describió'l primer oncoxén (Ras) y el primer xen supresor de tumores (Rb).
12	11	2023	20231112	12 de payares de 2015. Un equipu del Institutu Teunolóxicu de Massachusetts (MIT), de  Los EE. XX., inventa un nuevu procesu pa desalinizar l'agua per mediu d'ondes de choque.
13	11	2023	20231113	13 de payares de 1891. Naz la xeóloga Hedwig T. Kniker. Estudió'l Cretácicu y el Terciariu, al igual que los fusilinidos del Pérmicu y la so importancia estratigráfica.
14	11	2023	20231114	14 de payares de 1830. Naz l'arabista Emilio Lafuente Alcántara. El so estudiu Inscripciones árabes de Granada inclúi traducciones ya interpretaciones de los testos presentes nes filigranes de l'Alhambra.
15	11	2023	20231115	15 de payares de 2016. L'IXME presenta al públicu'l mayor xacimientu potencial de teluriu del mundu, afayáu al suroeste de Les Canaries. Estudiaren les mineralizaciones de los montes somarinos de les islles dende 2011.
16	11	2023	20231116	16 de payares de 2004. Créase la Fundación Ørskov pa sofitar la investigación de métodos innovadores y caltenibles p'ameyorar la ganadería y la producción d'alimentos. Rinde homenaxe al investigador Bob Ørskov.
17	11	2023	20231117	17 de payares de 1935. Muerre la médica Matilda Evans. Defendió una meyor atención médica a les persones afroamericanes, sobre manera a neñes y neños.
18	11	2023	20231118	18 de payares de 1917. Naz la física Carolyn Beatrice Parker. Nel periodu 1943-1947 trabayó nel Proyeutu Dayton, el brazu d'investigación y desendolcu de plutoniu del Proyeutu Manhattan.
19	11	2023	20231119	19 de payares de 1901. Naz la matemática Nina Karlovna Bari. Ye conocida pol so trabayu en series trigonométriques.
20	11	2023	20231120	20 de payares de 1889. Naz l'astrónomu Edwin Hubble. El telescopiu espacial Hubble recibió esti nome nel so honor.
21	11	2023	20231121	21 de payares de 1935. La química Branca Edmée Marques de Sousa Torres defende la so tesis doctoral sobre'l bariu na Universidá de La Sorbona. Los sos direutores foron Marie Curie y André-Louis Debierne.
22	11	2023	20231122	22 de payares de 1859. Naz la médica y profesora Cecilia Grierson. Foi la primer muyer que llogró'l grau de Medicina n'Arxentina. Fundó l'Asociación Obstétrica Nacional y la Revista Obstétrica.
23	11	2023	20231123	23 de payares de 1898. Naz la química Rachel Fuller Brown. Con Elizabeth Llee Hazen, creó'l primera funxicida pa humanos: la nistatina, pa infeiciones del fungu Candida albicans y polos Cryptococcus.
24	11	2023	20231124	24 de payares de 1846. Naz l'arqueólogu ya historiador Percy Gardner. Espertu en numismática, demostró cómo la historia y l'arte d'un periodu amuésense al traviés de les sos monedes.
25	11	2023	20231125	25 de payares de 1964. Martin Cole y collaboradores patenten un métodu biolóxicu (enzimáticu) pa preparar penicilines de forma más sostenible, evitando producir miles de tonelaes de restos químicos y aforrando enerxía.
26	11	2023	20231126	26 de payares de 1783. L'aeronauta Louis-Sebastien Lenormand fai'l primer esperimentu documentáu de paracaidismu.
27	11	2023	20231127	27 de payares de 1852. Muerre la matemática, informática y escritora Ada Lovelace. Ye considerada como la primer programadora d'ordenadores del mundu.
28	11	2023	20231128	28 de payares de 1660. Fúndase en Londres la Royal Society, la sociedá científica más antigua del Reinu Xuníu y una de les primeres d'Europa, dedicada a promover la escelencia na ciencia.
29	11	2023	20231129	29 de payares de 1893. Naz la médica ya investigadora farmacéutica María Orosa e Ylagan. Especializóse en teunoloxía de los alimentos y desendolcó productos como'l soyalac y el darak.
30	11	2023	20231130	30 de payares de 1942. Naz María Ángeles Durán, investigadora especializada nel análisis del trabayu non remuneráu y la so rellación cola estructura social y económica.
1	12	2023	20231201	1 d'avientu de 2010. Los investigadores de la Universidá de Sevilla Cristina Sánchez-Porro y Antonio Ventosa espublicen el descubrimientu d'un nuevu microorganismu que crez nos restos del RMS Titanic.
2	12	2023	20231202	2 d'avientu de 1950. Isaac Asimov publica I, Robot. Estos rellatos básense nes tres lleis de la robótica, un códigu moral pa empobinar la rellación ente robós y humanos.
3	12	2023	20231203	3 d'avientu de 1842. Naz la entomóloga Margaretta Morris. Describióla cicharra Magicicada cassinii y estudió les mosques del trigu, les llagostes y los fungos como plagues botániques. El so trabayu ameyoró l'agricultura.
4	12	2023	20231204	4 d'avientu de 1973. La nave Pioneer 10 vuela cerca de Xúpiter y toma semeyes de la so atmósfera y trés de los sos satélites (Europa, Ganímedes y Calisto). Foi la primer nave espacial en viaxar fuera del sistema solar.
5	12	2023	20231205	5 d'avientu de 1895. Naz el matemáticu Elbert Frank Cox. Foi'l primer afroamericanu en llograr un doctoráu en matemátiques.
6	12	2023	20231206	6 d'avientu de 1909. Naz la química María de la Concepción Carnero Valenzuela. Xunto al bioquímicu Fernando Calvet, estudió les dioxines, compuestos químicos que dan en contaminantes ambientales persistentes.
7	12	2023	20231207	7 d'avientu de 1823. Naz el matemáticu y lóxicu Leopold Kronecker. Taba convencíu de que l'aritmética y l'análisis tienen de basase nos númberos enteros.
8	12	2023	20231208	8 d'avientu de 1919. Naz la informática Kateryna Yushchenko. Trabayó en teoría de la probabilidá, llinguaxes algorítmicos y de programación. Desendolcó un llinguaxe d'altu nivel pa programación, l'Address.
9	12	2023	20231209	9 d'avientu de 1931. Naz la bioquímica y bióloga ambiental Fawzia Fahim. Ye principalmente conocida pol so trabayu sobro los efeutos antitumorales del velenu de culiebra.
10	12	2023	20231210	10 d'avientu de 2017. Un equipu lideráu pol IXME y la Universidá d'Oxford afaya una nuevu cachiparru (Cornupalpatum burmanicum) nuna pluma de dinosauriu. Ye la primer evidencia direuta d'esti parasitismu.
11	12	2023	20231211	11 d'avientu de 1843. Naz Robert Koch. Decubrió los bacilos de la tuberculosis y del cólera. Ye consideráu'l fundador de la bacterioloxía moderna.
12	12	2023	20231212	12 d'avientu de 1913. Naz la matemática Emma Castelnuovo. Especialista n'educación matemática, fixo un trabayu innovador nel enfoque didáuticu d'esta disciplina.
13	12	2023	20231213	13 d'avientu de 1465. El médicu y comerciante Abd al-Basit al-Malati desembarca en Málaga pa enanchar los sos estudios de medicina n'Al-Ándalus. Escribirá sobre les sos esperiencies y perceiciones del territoriu andalusín.
14	12	2023	20231214	14 d'avientu de 1916. Naz la xeóloga Concepción Bonet Muñoz. Creó'l Departamentu de Fotoxeoloxía na Xunta d'Enerxía Nuclear (actual CIEMAT) y participó nel desendolcu del Plan Xeneral de Carreteres d'España.
15	12	2023	20231215	15 d'avientu de 1970. La sonda Venera 7 entra na atmósfera de Venus y posa na superficie del planeta.
16	12	2023	20231216	16 d'avientu de 1878. Naz la química Gertrud Woker. Señaló la toxicidá de la gasolina con plomu y suxirió cómo producir combustible ensin ello. Estudió los efeutos de los gases venenosos emplegaos na guerra.
17	12	2023	20231217	17 d'avientu de 1903. Los mecánicos y hermanos Orville y Wilbur Wright vuelen per primer vegada col so avión motorizáu. Percuerren una distancia de 40 metros en 12 segundos.
18	12	2023	20231218	18 d'avientu de 1994. Afayen la cueva de Chauvet (Ardèche, Francia). Contién dalgunes de les pintures rupestres más antigües que se conocen.
19	12	2023	20231219	19 d'avientu de 2013. Llánzase al espaciu Gaia, el telescopiu de l'Axencia Espacial Europea (ESA, nes sos sigles n'inglés).
20	12	2023	20231220	20 d'avientu de 1890. Naz el químicu ya inventor Jaroslav Heyrovský. Recibió'l Premiu Nobel de Química pol descubrimientu y desendolcu de los métodos polarográficos d'análisis.
21	12	2023	20231221	21 d'avientu de 1922. Naz la física y matemática Cécile DeWitt-Morette. Dirixó una espedición a Mauritania col so home pa confirmar que la trayeutoria de la lluz curvo acordies cola teoría de la relatividá xeneral.
22	12	2023	20231222	22 d'avientu de 1887. Naz el matemáticu autodidauta Srinivāsa Aiyangār Rāmānujan. La so conxetura sobre la función tau abrió nueves llinies d'investigación.
23	12	2023	20231223	23 d'avientu de 1912. Naz la química orgánica Anna Jane Harrison. Estudió'l fumu tóxico na Segunda Guerra Mundial y contribuyó a la investigación sobre la lluz ultravioleta.
24	12	2023	20231224	24 d'avientu de 2013. La reina Isabel II del Reinu Xuníu exonera al matemáticu Alan Turing (1912-1954) de los cargos de «indecencia pública» por tener una rellación homosexual. Turing ye ún de los precursores de la informática moderna.
25	12	2023	20231225	25 d'avientu de 2020. Afayen un depósitu ritual con dos cascos prehistóricos de bronce nun covarón de Cueves (Asturies). Magar qu'estos cascos tán bien representaos n'imáxenes artístiques, son bien raros d'atopar.
26	12	2023	20231226	26 d'avientu de 1990. Muerre l'inxenieru agrónomu Robert Jarrige. Los sos llibros sobre principios de nutrición y alimentación de rumiantes son grandes referentes pa la investigación y el trabayu de campu nestes estayes.
27	12	2023	20231227	27 d'avientu de 1903. Naz la farmacóloga Edith Bülbring. Investigó la fisioloxía del músculu llisu.
28	12	2023	20231228	28 d'avientu de 1895. Wilhelm Röntgen fai públicu'l descubrimientu de los rayos X. Nun los patentó pa que la sociedá pudiere aprovechalos de forma gratuita. Tampoco nun quixo que llevaren el so nome.
29	12	2023	20231229	29 d'avientu de 1888. Isaac Roberts saca semeya de la Gran Nebulosa d'Andrómeda (años dempués, Hubble va demostrar que ye una galaxa).
30	12	2023	20231230	30 d'avientu de 1837. Naz la historiadora de la música Marie Lipsius, conocida como la Mara.  Espublizó numberoses biografíes de músicos y editó la correspondencia de Franz Liszt.
31	12	2023	20231231	31 d'avientu de 1975. Afayen l'asteroide 1975 YD. La Unión Astronómica Internacional renomólu Anadiego n'honor a Ana Teresa Diego, estudiante d'astronomía detenida y asesinada na dictadura arxentina comenzada en 1976.
