dia	mes	agno	personaje	Texto 
1	1	2022	20220101	1 de chinero de 2021. Un equipo d'investigación d'o IGME publica en a revista Science lo primer mapa mundial de fundimiento d'o terreno (subsidencia) causau per la extracción d'augua subterrania.
2	1	2022	20220102	2 de chinero de 1959. La Unión Sovietica lanza la sonda Luna 1. Va estar lo primer artefacto mandau ta la Luna.
3	1	2022	20220103	3 de chinero de 1895. Naixe l'investigador quimico Josep Pascual Vila. Destaca per las suyas aportacions en o campo d'a quimica organica.
4	1	2022	20220104	4 de chinero de 1894. Naixe Évariste Lévi-Provençal, primer catedratico de Luenga y Civilización Arabes d'a Universidat d'a Sorbona. Las suyas investigacions son fundamentals pa lo estudio de l'Occident islamico medieval (Magreb y al-Andalus).
5	1	2022	20220105	5 de chinero de 1955. Naixe la cheologa planetaria Adriana Ocampo, directora d'o Programa de Sciencia d'a NASA. Ha estau responsable d'a misión d'a sonda espacial Juno ta Chupiter y d'a misión d'o New Horizons ta Plutón.
6	1	2022	20220106	6 de chinero de 1921. Naixe la bioquimica Marianne Grunberg-Manago. Va descubrir, chunto a Severo Ochoa, la enzima polinucliotido fosforilasa, una ferramienta clau pa descifrar lo codigo chenetico.
7	1	2022	20220107	7 de chinero de 2015. Un equipo d'investigación d'a Universidat Tarbiat Modares produce una membrana de ceramica impermiable con una alta resistencia termica.
8	1	2022	20220108	8 de chinero de 2001. La pediatra Helen Rodríguez Trías recibe la Medalla Presidencial d'os EUA per la suya fayena pa amillorar la salut publica de mullers y ninos en poblacions minoritarias y de baixos ingresos.
9	1	2022	20220109	9 de chinero de 1975. Descubren lo puesto d'hibernación d'as paixarelas monarca. Estas bonicas y lonchevas paixarelas migran en agüerro dende Canadá enta las selvas d'oyameles en Mexico.
10	1	2022	20220110	10 de chinero de 1897. Naixe Joaquina Eguaras, investigadora en a Escuela d'Estudios Arabes de Granada. Va estar la primer directora d'o Museu Arqueolochico d'esta ciudat, asinas como la primer muller estudiant y profesora en a Facultat de Filosofía y Letras d'a Universidat de Granada.
11	1	2022	20220111	11 de chinero de 1906. Naixe lo quimico Albert Hofmann. Describió la estructura d'a quitina y amostró los efectos psicotropicos d'o LSD mientres estudiaba los alcaloides d'o remoyuelo
12	1	2022	20220112	12 de chinero de 1916. Naixe la quimica y inventora Ruth Rogan Benerito. Gran parte d'o suyo treballo va estar centrau en a industria textil, como lo estudio d'o desgaste y lavau de telas de cotón.
13	1	2022	20220113	13 de chinero de 1900. Naixe la estatistica Gertrude Mary Cox. Investigadora en disenyo experimental, ye conoixida per la publicación d'o libro Experimental Designs, chunto a William G. Cochran.
14	1	2022	20220114	14 de chinero de 1827. Naixe lo cheografo, botanico y estatistico Piotr Semiónov-Tian-Xanski. Va dirichir la Sociedat Cheografica Rusa per mas de 40 anyos, y va incentivar la exploración de l'interior d'Asia.
15	1	2022	20220115	15 de chinero de 1850. Naixe la matematica Sofia Kovalevskaya. La suya aportación mas conoixida ye lo teorema de Cauchy-Kovalevskaya sobre equacions diferencials.
16	1	2022	20220116	16 de chinero de 1969. Los astronomos John Cocke y Michael Disney van identificar la component optica d'o pulsar d'o Cancro dende lo Steward Observatory d'Arizona (EUA).
17	1	2022	20220117	17 de chinero de 1955. Naixe la bioquimica Katalin Karikó. Chunto a l'immunologo Drew Weissman, desenrolló la tecnolochía que permite l'uso terapeutico d'o ARNm (per eixemplo, en as vacunas contra la COVID-19).
18	1	2022	20220118	18 de chinero de 1977. Se descubre que la bacteria Legionella pneumophila ye la causant d'a malotía lechionelosi, una forma de pneumonía.
19	1	2022	20220119	19 de chinero de 2006. La NASA lanza la sonda espacial New Horizons, que pasó per Plutón en chuliol de 2015.
20	1	2022	20220120	20 de chinero de 1910. Naixe la naturalista Joy Adamson. Ye conoixida per lo suyo libro Naixida libre, en o qual narraba la suya experiencia pa salvar a la leona Elsa en Kenya.
21	1	2022	20220121	21 de chinero de 1960. Muere Wu-Lien-Teh, lo medico que estió pionero en l'uso d'as caretas pa luitar contra una pandemia.
22	1	2022	20220122	22 de chinero de 1968. Lanzamiento de l'Apollo 5 con o primer modulo lunar no tripulau.
23	1	2022	20220123	23 de chinero de 1918. Naixe Gertrude Elion, farmacologa ganadora d'o Premio Nobel. Aduyó a desenvolver la zidovudina (AZT), la primera medecina contra lo SIDA.
24	1	2022	20220124	24 de chinero de 1950. Percy LeBaron Spencer recibe la patent d'o suyo revolucionario invento: lo forno microondas.
25	1	2022	20220125	25 de chinero de 2006. Descubren la especie Paedocypris progenetica. Esta carpa endemica de Sumatra se convirtió en o vertebrado mas chicot d'o mundo que se conoixeba dica alavez: los eixemplars mas grans no superan los 10,3 mm.
26	1	2022	20220126	26 de chinero de 1926. John Logie Baird amuestra lo primer sistema de televisión en funcionamiento.
27	1	2022	20220127	27 de chinero de 2013. Lo asteroide 274301 d'o cinturón principal d'o sistema solar recibe oficialment lo nombre Wikipedia.
28	1	2022	20220128	28 de chinero de 1754. Sir Horace Walpole cunya la parola serendipia. Este termen designa una troballa valiosa que se fa de traza accidental u casual como, per eixemplo, lo descubrimiento d'a penicilina.
29	1	2022	20220129	29 de chinero de 1953. Muere la farmaceutica Manuela Barreiro Pico. Estió pionera en estar la primera muller matriculada en a Universidade de Santiago de Compostela en 1896. Dimpués de titular-se, habió d'insistir pa obtener lo permiso pa exercer la profesión, bella cosa que aconsiguió en 1901.
30	1	2022	20220130	30 de chinero de 1911. Naixe l'astronoma Marie Paris Pişmiş de Recillas. Va descubrir 20 cumulos ubiertos y 3 cumulos globulars, y va treballar en as primeras explicacions sobre la estructura espiral d'as galaxias.
31	1	2022	20220131	31 de chinero de 1862. L'optico Alvan Graham Clark, constructor de grans obchectivos pa telescopios refractors, descubrió la estrela nana blanca Sirio B.
1	2	2022	20220201	1 de febrero de 1888. Naixe la paleontologa y educadora Winifred Goldring. Ye conoixida per la suya descripción d'os estromatolitos.
2	2	2022	20220202	2 de febrero de 1897. Naixe la matematica Gertrude Blanch. Pionera en analisi numerica y computación, en 1938 se va convertir en directora tecnica d'o Mathematical Tables Project.
3	2	2022	20220203	3 de febrero de 2015. S'usan per primer vegada nanoparticlas biodegradables pa matar celulas cancerosas en cerebros animals. Asinas, s'aconsiguió prolongar las suyas vidas.
4	2	2022	20220204	4 de febrero de 1932. Se publica la Lei Fundacional per la qual se crean las Escuelas de Estudios Arabes de Madrid y de Granada, con a finalidat de protecher y fomentar los estudios arabes en Espanya.
5	2	2022	20220205	5 de febrero de 1907. Anuncian la creación d'o primer plastico sintetico: la baquelita.
6	2	2022	20220206	6 de febrero de 1894. Naixe la  farmaceutica Zoe Rosinach Pedrol. Va estar la primer espanyola doctorada en Farmacia, con a tesi titulada Bacilos difterico y pseudodifterico.
7	2	2022	20220207	7 de febrero de 1825. Naixe lo zoologo Karl August Möbius. Introdució la noción de biocenosi –conchunto d'organismos de qualsequier especie que convive en un determinau espacio–.
8	2	2022	20220208	8 de febrero de 2005. La localidat de Villanueva d'a Sierra celebra lo bicentenario d'a suya Fiesta de l'Arbol. Ye considerada la primer fiesta documentada en homenache a los arbols. Actualment, numerosos países celebran ya lo suyo Día de l'Arbol, recordando la suya importancia pa luitar contra l'efecto hibernadero u la erosión.
9	2	2022	20220209	9 de febrero de 2000. La Unión Europea autoriza la vacuna Porcilis Pesti. Esta medecina permite la immunización d'os cochins contra la peste porcina clasica.
10	2	2022	20220210	10 de febrero de 1917. Naixe la enfermera Elvira Dávila Ortiz. Va estar pionera en a profesión d'enfermería y en a transfusión de sangre en America Latina.
11	2	2022	20220211	11 de febrero de 1889. Naixe la paleontologa Ekaterina Vladimirovna Lermontova. Estió la responsable de crear la primer estratigrafía cambrica de Siberia y investigó per primer vegada los trilobites en l'antiga Unión Sovietica.
12	2	2022	20220212	12 de febrero de 1921. Naixe la paleontologa Asunción Linares. Va destacar en a suya labor docent y investigadera. Va dirichir 18 tesis doctorals y va publicar mas de 100 treballos, la mayoría sobre ammonites.
13	2	2022	20220213	13 de febrero de 2012. Se fa lo lanzamiento d'o satelite gallego Xatcobeo. La suya finalidat yera fer investigación en comunicacions y en enerchía fotovoltaica pa satelites.
14	2	2022	20220214	14 de febrero de 1862. Naixe la quimica Agnes Pockels, pionera en o campo d'a tensión superficial molecular y las monocapas.
15	2	2022	20220215	15 de febrero de 1905. Naixe la psiquiatra Nise da Silveira. Destaca per la suya luita contra las tecnicas que consideraba agresivas enta los pacients psiquiatricos.
16	2	2022	20220216	16 de febrero de 1880. Naixe la chenetista Kono Yasui. Dende 1945 va estudiar las plantas afectadas per la plevida radioactiva que va seguir a los bombardeos sobre Hiroshima y Nagasaki.​​​
17	2	2022	20220217	17 de febrero de 923. Muere lo historiador al-Tabari. Escribió un d'os mas influyents comentarios de l'Alcorán y una obra d'historia universal que sirvió como modelo d'a producción historiografica en arabe.
18	2	2022	20220218	18 de febrero de 1404. Naixe l'arquitecto y matematico Leon Battista Alberti. Lo suyo tractau sobre criptografía De Componendis Cyphris ye lo mas antigo conoixiu en Occidente. Analisa los cifraus monoalfabeticos y introduce lo primer eixemplo de tabla de freqüencias.
19	2	2022	20220219	19 de febrero de 901. Muere lo matematico y astronomo Thábit ibn Qurra. Fació destacaus descubrimientos en alchebra y cheometría. Antiparte d'as suyas obras orichinals, las suyas traduccions d'o griego enta l'arabe contribuyioron a lo renaiximiento d'a sciencia clasica
20	2	2022	20220220	20 de febrero de 1920. Naixe la quimica Zlata Bartl. En 1959 va crear lo condimento Vegeta, que se transformaría en un d'os ingredientes mas populars en la cocina de l'este d'Europa.
21	2	2022	20220221	21 de febrero de 1804. Remata la fabricación d'a primer locomotora a vapor autopropulsada, en Galas (Reino Uniu).
22	2	2022	20220222	22 de febrero de 1857. Naixe Heinrich Hertz, la primer persona en producir y detectar ondas de radio.
23	2	2022	20220223	23 de febrero de 1954. Encomienza la primer tongada de vacunación masiva contra la poliomielitis en a escuela de primaria Arsenal (Pittsburg). L'alumnau d'esta escuela recibió la vacuna Salk.
24	2	2022	20220224	24 de febrero de 1871. Se publica lo libro L'orichen de l'hombre, de Charles Darwin.
25	2	2022	20220225	25 de febrero de 1892. Naixe la microbiologa Emmy Klieneberger-Nobel. Estió pionera en o estudio de micoplasmas. Describió per primera vegada las diferencias entre estas y atras especies de bacterias. Tamién descubrió las denominadas bacterias con forma L, que carecen de paret celular.
26	2	2022	20220226	26 de febrero de 1935. Naixe la chenetista molecular Noreen Murray. Va colaborar en o desenrollo d'una vacuna contra la hepatitis B, que va estar la primer vacuna cheneticament modificada aprebada pa l'uso en personas.
27	2	2022	20220227	27 de febrero de 1930. Naixe la paleontologa Mary R. Dawson. En l'Artico, ella y lo suyo equipo descubrioron los primers fosils d'animals terrestres d'o Terciario y amostroron una rota de migración entre America y Europa, a lo mesmo tiempo que emparoron la teoría tectonica de placas. 
28	2	2022	20220228	28 de febrero de 1920. Naixe la cheomorfologa Marjorie Mary Sweeting. Especializada en o fenomeno karst, va adquirir grans conoixencias sobre diferents tipografías en os suyos viaches per totz es cabos, sobre tot a China.
1	3	2022	20220301	1 de marzo de 1960. Naixe la biologa molecular Ángela Nieto. Destaca per las suyas investigacions sobre la mobilidat celular, que han permitiu d'entender la manera d'alterar este proceso.
2	3	2022	20220302	2 de marzo de 1779. Naixe lo botanico y estadista Joel Roberts Poinsett. En a suya honor se va nombrar la poinsettia, la planta asociada con Nadal.
3	3	2022	20220303	3 de marzo de 1917. Naixe la fisica Sameera Moussa. Especialista en radiación atomica, treballó pa que l'uso medico d'a tecnolochía nuclear estase a l'alcanz de totas las personas.
4	3	2022	20220304	4 de marzo de 1906. Naixe Eleanor Josephine Macdonald, pionera en epidemiolochía y investigación d'o cancer. Estió una d'as primeras personas en proposar la ideya de que lo cancer yera una malotía prevenible.
5	3	2022	20220305	5 de marzo de 1914. Naixe la fisica nuclear He Zehui. Las suyas investigacions sobre fisica nuclear incluyen treballos pioners sobre la fisión y l'anihilación positrón-electrón.
6	3	2022	20220306	6 de marzo de 2014. Descubren un arrecife de coral vivo con una superficie de 28 km² en auguas d'Iraq.
7	3	2022	20220307	7 de marzo de 1917. Naixe la programadora Betty Snyder Holberton. Va estar una d'as seis programadoras orichinals d'a primera computadora dichital de proposito cheneral ENIAC. Tamién son famosas las suyas contribucions a lo luengache COBOL.
8	3	2022	20220308	8 de marzo de 1618. Johannes Kepler descubrió la lei harmonica, la tercera lei que leva lo suyo nombre. Lo suyo enunciau ye: Lo quadrau d'os periodos d'a orbita d'as planetas ye proporcional a lo cubo de la suya distancia meya a lo Sol.
9	3	2022	20220309	9 de marzo de 1911. Naixe Clara Rockmore, nombre estreitament ligau a lo theremín, lo traste musical electronico que va tanyer per muitos anyos y va aduyar a perfeccionar.
10	3	2022	20220310	10 de marzo de 1941. Naixe George P. Smith. Recibió lo Premio Nobel per la suya tecnica pa inducir la fabricación de proteínas per bacterias. Esta tecnica ha estau clau pa lo desenrollo d'enzimas y medecinas.
11	3	2022	20220311	11 de marzo de 1997. La Fundación Frontera Electronica concede lo Premio Pionero a Hedy Lamarr y George Antheil per haber desenrollau la primer versión d'o espectro ixamplau pa comunicacions inalambricas de largas distancias. Este invento se considera un precursor d'o wifi.
12	3	2022	20220312	12 de marzo de 1791. Muere l'arabista, bibliografo y bibliotecario Miguel Casiri. Ye autor d'a Bibliotheca Arabico-Hispana Escurialensis (lo catalogo d'os manuscritos arabes d'o Escorial).
13	3	2022	20220313	13 de marzo de 1941. Naixe la scientifica ambiental Donella Meadows. Va estar especialista en dinamica de sistemas y autora principal de l'informe Los limites d'o creiximiento. Proposó los conoixius como dotze puntos d'o cambio sistémico.
14	3	2022	20220314	14 de marzo de 1854. Naixe lo medico y bacteriologo Paul Ehrlich. Recibió un premio Nobel chunto a Ilya Mechnikov, en reconoixencia a los suyos treballos sobre immunolochía.
15	3	2022	20220315	15 de marzo de 1813. Naixe lo medico John Snow, considerau lo pai d'a epidemiolochía moderna. Va contrimostrar que lo consumo d'augua contaminada d'una fuent d'o Soho va causar la epidemia de colera de Londres de 1854.
16	3	2022	20220316	16 de marzo de 1789. Naixe lo fisico y matematico Georg Simon Ohm. Los suyos treballos sobre electricidat levoron a la clamada lei d'Ohm, que relaciona la intensidat d'una corrient electrica, la suya fuerza electromotriz y la suya resistencia.
17	3	2022	20220317	17 de marzo de 1805. Naixe lo baritono y profesor de canto Manuel Patricio García. Lo suyo interés per estudiar la voz humana lo va levar a inventar un traste pa examinar la larinche: lo laringoscopio.
18	3	2022	20220318	18 de marzo de 1964. Alexei Leonov realiza lo primer paseo espacial en a misión sovietica Voskhod 2.
19	3	2022	20220319	19 de marzo de 1900. Naixe lo fisico y quimico Frédéric Joliot-Curie, esposo de Irène Joliot-Curie. Debant d'a insistencia d'a suya suegra, Marie Skłodowska-Curie, se doctoró en 1930. Cinco anyos dimpués, Irène y Frédéric recibioron lo Premio Nobel per los suyos treballos en a sintesi de nuevos elementos radioactivos.
20	3	2022	20220320	20 de marzo de 1987. Se preseenta la zidovudina u AZT. Estió la primer medecina antirretroviral indicada pa personas infectadas per VIH.
21	3	2022	20220321	21 de marzo de 1946. Marguerite Perey desfiende la suya tesi doctoral, titulada L'elemento 87: Actinio K. La suya zaguera frase meteba nombre a l'elemento que acababa de descubrir: lo francio.
22	3	2022	20220322	22 de marzo de 1394. Naixe lo sultán, astronomo y matematico Ulugh Beg. Construyió l'observatorio astronomico Gurjani Zij, an que instaló trastes de gran grandaria y precisión: entre ells, un immenso sextante astronomico de tres pisos d'altura, un d'os mas grans nunca construyiu.
23	3	2022	20220323	23 de marzo de 1840. John William Draper realiza la que ye considerada como primera fotografía exitosa d'un astro. Va captar la luna con un daguerrotipo y un telescopio reflector de 13 pulgadas. Lo tiempo d'exposición va estar de 20 minutos.
24	3	2022	20220324	24 de marzo de 2009. Se celebra lo primer Día de Ada Lovelace, una celebración internacional sobre los logros d'as mullers en sciencia, tecnolochía, enchenyería y matematicas (STEM).
25	3	2022	20220325	25 de marzo de 2018. Investigadors d'a Universidat de Barcelona y d'o IGME descubren la primera evidencia de conducta de festeyo sexual en colembolos de fa 105 millons d'anyos. Este grupo d'artropodos ye proximo a los insectos.
26	3	2022	20220326	26 de marzo de 1902. Naixe Marion Cameron Gray, matematica que dio nombre a lo grafo de Gray.
27	3	2022	20220327	27 de marzo de 2014. Gracias a las campanyas de vacunación, s'aconsigue erradicar la poliomielitis d'o sudeste asiatico.
28	3	2022	20220328	28 de marzo de 1927. Naixe la zoologa Theo Colborn. Estió especialista en salut ambiental y conoixida fundamentalment per los suyos estudios sobre disruptors endocrinos.
29	3	2022	20220329	29 de marzo de 2008. A las 11 horas, naixe legalment de l'Asociación Meteorolochica d'o Sudeste (AMETSE). Se tracta d'un d'os primers retz d'aficionaus a la sciencia meteorolochica d'Espanya.
30	3	2022	20220330	30 de marzo de 1811. Naixe Robert Bunsen, inventor d'o cremador Bunsen de conchunta con o suyo estudiant Henry Roscoe y lo tecnico Peter Desaga. Este cremador se sigue fendo servir en quasi totz los laboratorios d'o mundo.
31	3	2022	20220331	31 de marzo de 1927. Naixe la astrofisica Joan Feynman. Ye conoixida per contribuyir a la comprensión de l'orichen d'as auroras, y per descubrir un metodo pa predecir los ciclos de tacas solars.
1	4	2022	20220401	1 d'abril de 1885. Lo medico Jaime Ferrán empecipia a inocular en Valencia la suya vacuna contra lo colera pa mirar de frenar la epidemia que s'estendeba per la ciudat. Estió la primera vacuna contra esta malotía.
2	4	2022	20220402	2 d'abril de 1647. Naixe la naturalista y pintora Maria Sibylla Merian. Va estar precursora d'a entomolochía moderna gracias a las suyas minuciosas observacions y a las suyas descripcions –ilustradas per ella mesma– d'a metamorfosi d'as mariposas.
3	4	2022	20220403	3 d'abril de 1973. Martin Cooper, investigador de Motorola, fa la primera gritada telefonica a traviés d'un telefono mobil.
4	4	2022	20220404	4 d'abril de 1785. Lo cheologo James Hutton ofreix la suya primer lectura publica d'a Teoría d'a Tierra, una d'as contribucions fundamentals d'a Cheolochía.
5	4	2022	20220405	5 d'abril de 1925. Naixe la chenetista Janet Davison Rowley. Especializada en chenetica humana, identificó per primer vegada la translocación cromosomica como la causa d'a leucemia y atros cancers.
6	4	2022	20220406	6 d'abril de 1732. Naixe lo botanico, matematico, astronomo y medico José Celestino Mutis. Va dirichir la Reyal Expedición Botanica d'o Nuevo Reino de Granada (que duró 30 anyos) y va estudiar las propiedatz medicas d'a quinina.
7	4	2022	20220407	7 d'abril de 1827. Lo quimico britanico John Walker vende la primer caixeta de mistos, que heba inventau l'anyo anterior.
8	4	2022	20220408	8 d'abril de 1917. Naixe la chenetista Irene Ayako Uchida. Va contribuyir a la identificación d'a relación entre los rayos X realizaus a mullers embrazadas y qualques malotías conchenitas.
9	4	2022	20220409	9 d'abril de 1903. Naixe la fisica Marion Amelia Spence Ross. Ye conoixida per lo suyo treballo en cristalografía de rayos X y dinamica de fluyius.
10	4	2022	20220410	10 d'abril de 1922. Naixe la microbiologa Nancy Fannie Millis. Va introducir tecnolochías de fermentación en Australia y va crear lo primer curso pa la ensenyanza d'a microbiolochía aplicada en una universidat australiana.
11	4	2022	20220411	11 d'abril de 1755. Naixe lo medico James Parkinson. Descubrió la paralisi achitant u malotía de Parkinson. Per ixo, en esta data se commemora lo Día Mundial d'o Parkinson.
12	4	2022	20220412	12 d'abril de 1925. Naixe la enchenyera informatica Evelyn Berezin. Ye conoixida como la mai d'os procesadors de texto, ya que va desenrollar la ideya d'un programa pa almagazenar y editar textos.
13	4	2022	20220413	13 d'abril de 2009. Feneix l'arabista Julio Cortés Soroa. Estió l'autor d'una d'as millors traduccions de l'Alcorán a lo castellano y d'un diccionario arabe-espanyol que ye considerau una d'as obras capitals d'a lexicografía bilingüe.
14	4	2022	20220414	14 d'abril de 1198. Naixe l'intelectual andalusí Ibn Rushd, conoixiu como Averroes. Entre las suyas obras destacan los comentarios d'a obra d'Aristotil y lo Libro d'as cheneralidatz d'a medicina.
15	4	2022	20220415	15 d'abril de 1874. Naixe lo chenetista y botanico George Harrison Shull. Cautivó nuevas variedatz puras de panizo y dimpués las cruzó. Amostró que la descendencia hibrida yera mas vigorosa y predecible, ideyal pa lo cautivo comercial.
16	4	2022	20220416	16 d'abril de 1955. Lo filologo Jacques Perret inventa la parola ordinador –d'o francés ordinateur– en una carta endrezada a la interpresa IBM.
17	4	2022	20220417	17 d'abril de 1942. Naixe la vulcanologa Katia Krafft. Los suyos reportaches graficos aduyoron a lo desenrollo d'o estudio d'os volcans y a convencer a la población d'a necesidat d'evacuar zonas potencialment periglosas.
18	4	2022	20220418	18 d'abril de 1955. Muere lo fisico Albert Einstein. Va desenrollar la teoría d'a relatividat y va deducir la equación de fisica mas famosa d'a historia: E=mc².
19	4	2022	20220419	19 d'abril de 1870. Naixe la cirurchana Vera Gedroitz. Las suyas operacions per medio de laparotomía mientres la guerra ruso-chaponesa tenioron un alto grau d'exito. Per ixo, l'exercito ruso adoptó este metodo pa lo tractamiento d'a feridas abdominals penetrants.
20	4	2022	20220420	20 d'abril de 1887. Naixe la fitopatologa y micologa Margaret Newton. Va fer investigacions pioneras sobre la royuela (Puccinia graminis), en particular per lo suyo efecto sobre lo trigo.
21	4	2022	20220421	21 d'abril de 1830. Naixe la filosofa y scientifica Clémence Augustine Royer. Se le debe la primer traducción a lo francés de L'orichen d'as especies, de Charles Darwin. D'esta traza, introdució lo darwinismo en Francia.
22	4	2022	20220422	22 d'abril de 1992. Muere l'horticultor y botanico Walther Haage, especialista en cactus. Va financiar expedicions pa mirar nuevos cactus, va realizar hibridacions y va publicar guías pa lo cudiau d'estas plantas.
23	4	2022	20220423	23 d'abril de 1941. Naixe l'enchenyero Ray Tomlinson, inventor d'o correu electronico.
24	4	2022	20220424	24 d'abril de 1787. Naixe Mateo Orfila, medico y quimico espanyol considerau lo pai d'a toxicolochía scientifica.
25	4	2022	20220425	25 d'abril de 1953. Watson y Crick publican la estructura de l'ADN en a revista Nature, per lo qual recibioron lo Premio Nobel en 1962. La suya colaboradora, la fisica Rosalind Franklin, que no estió laureada per haber feneixiu en 1958, tampoco no estió mencionada en os suyos discursos d'acceptación.
26	4	2022	20220426	26 d'abril de 2016. La bioquimica espanyola Margarita Salas inaugura en o Museu Didactico y Interactivo de Sciencias d'a Vega Baja de Segura (MUDIC-VBS-CV) la sala que leva lo suyo nombre.
27	4	2022	20220427	27 d'abril de 1923. Naixe la quimica Shen Tianhui. La suya investigación se centró en l'analisi de minas de tierras raras y molibdeno, y en a fabricación de silicio superpuro con triclorosilano.
28	4	2022	20220428	28 d'abril de 1854. Naixe la fisica y enchenyera Hertha Ayrton. Ye conoixida per lo suyo treballo sobre arcos electricos y ondas en arena y augua.
29	4	2022	20220429	29 d'abril de 2016. Dan a conoixer lo OceanOne, un robot humanoide capable de mover-se en o fondo marino per medio de l'uso de pulsadors.
30	4	2022	20220430	30 d'abril de 1879. Lo fisico J. J. Thomson anuncia lo descubrimiento de l'electrón, la primer particla subatomica en estar descubierta.
1	5	2022	20220501	1 de mayo de 1956. Joe Hin Tjio (Estación Experimental d'Aula Dei, CSIC) y Albert Levan (Universidat de Lund, Suecia) publican lo numero exacto de cromosomas d'a especie humana (46) en a revista Hereditas.
2	5	2022	20220502	2 de mayo de 1800. Se fa la primer electrolisi de l'augua per los quimicos William Nicholson y Anthony Carlisle.
3	5	2022	20220503	3 de mayo de 1849. Naixe la pionera de l'automoción Bertha Ringer (dimpués Benz). Inventó las pastillas de freno y atrayió l'atención mundial sobre la companyía Benz Patent-Motorwagen en guiar un auto mientres una distancia larga (105 km).
4	5	2022	20220504	4 de mayo de 2012. La Enciclopedia Mecanica inventada per la mayestra Ángela Ruiz Robles dentra en a exposición permanent d'o Museu Nacional de Sciencia y Tecnolochía (MUNCYT). Este precursor d'o libro electronico incluyiba una fuerte perspectiva d'atención a la diversidat, con a posibilidat de montar audios y lupas pa l'alumnau con problemas d'acceso.
5	5	2022	20220505	5 de mayo de 1892. Naixe la arqueologa Annie Elizabeth Dorothy Garrod. Treballó en numbrosos chacimientos prehistoricos de Gran Bretanya, Chibraltar, la rechión d'o Kurdistán, Orient Proximo y Libano.
6	5	2022	20220506	6 de mayo de 1882. Naixe la zoologa y ecologa Ann Haven Morgan. Va investigar en limnolochía, hibernación d'animals y atros afers relacionaus con a ecolochía y lo medio ambient.
7	5	2022	20220507	7 de mayo de 1899. Naixe la bioquimica Arda Alden Green. Fació importants descubrimientos sobre la serotonina y la bioluminiscencia.
8	5	2022	20220508	8 de mayo de 1926. Naixe lo naturalista britanico David Attenborough, famoso presentador de documentals de divulgación scientifica.
9	5	2022	20220509	9 de marzo de 1945. Naixe lo quimico y virologo Luis Enjuanes. Ye reconoixiu per dirichir lo laboratorio de coronavirus d'o Centro Nacional de Biotecnolochía (CNB, CSIC).
10	5	2022	20220510	10 de mayo de 1946. Naixe la etologa Birutè Galdikas. La suya especialidat ye la primatolochía, concretament, los arangutans.
11	5	2022	20220511	11 de mayo de 1881. Naixe Theodore von Kármán, pai de l'aerodinamica moderna y d'a propulsión espacial con combustible liquido.
12	5	2022	20220512	12 de mayo de 1977. Naixe la matematica Maryam Mirzakhani. Va estar la primer muller en recibir la Medalla Fields, lo maximo gualardón que atorga la comunidat matematica internacional.
13	5	2022	20220513	13 de mayo de 1883. Naixe lo medico Georgios Papanicolaou. Desenrolló una preba pa la detección temprana de cancer en o cuello uterino: la preba de Papanicolaou u citolochía vachinal.
14	5	2022	20220514	14 de mayo de 1796. Lo nino James Phipps se convierte en a primera persona vacunada d'a historia. Edward Jenner le va administrar la vacuna que heba desenrollau contra la picueta.
15	5	2022	20220515	15 de mayo de 1857. Naixe la astronoma Williamina Fleming. Descubrió la famosa nebulosa Cabeza de Caballo, amás de buena cosa de novas, nebulosas gasiosas y estrelas variables.
16	5	2022	20220516	16 de mayo de 1954. Naixe la oceanografa Cindy Lee Van Dover. Va estar la primera muller en pilotar lo submarino Alvin, lo mas important en a historia d'a exploración oceanica.
17	5	2022	20220517	17 de mayo de 2014. Descubren en Archentina lo dinosaurio Patagotitan mayorum, lo mas gran conoixiu dica lo momento, con 40 m de largo, 20 m d'altura y 77 toneladas de peso.
18	5	2022	20220518	18 de mayo de 1850. Naixe Oliver Heaviside. Va desenrollar metodos matematicos pa resolver equacions diferencials.
19	5	2022	20220519	19 de mayo de 1804. Lo periodico El Regañón General publica la orden de l'alcalde de León de vacunar contra la picueta en o suyo districto. Pa vencer la desconfianza d'a población y amostrar que la vacuna yera segura, l'alcalde y lo cirurchano Antonio José Fernández facioron una chicota chira per las aldeas acompanyando a personas ya vacunadas, que amás feban de portadoras d'a vacuna.
20	5	2022	20220520	20 de mayo de 1873. Levi Strauss y Jacob Davis patentan lo proceso de meter reblons en os puntos de tensión d'os pantalons de treballo, dando-les gran resistencia. Naixen asinas los famosos vaquers azuls.
21	5	2022	20220521	21 de mayo de 1799. Naixe la paleontologa Mary Anning. Identificó lo primer esqueleto de ictiosauro y trobó los dos primers de plesiosauros, asinas como lo primero de pterosaurio difuera d'Alemanya.
22	5	2022	20220522	22 de mayo de 1909. Naixe la ilustradora botanica Margaret Mee. Va estar una d'as primeras ecolochistas en sensibilizar sobre l'impacto d'a minería a gran escala y la deforestación d'a cuenca de l'Amazonas.
23	5	2022	20220523	23 de mayo de 1922. Naixe la fisica y quimica Esther M. Conwell. Estudió las propiedatz de semiconductors y conductors organicos, y especialment lo transporte de electrons.
24	5	2022	20220524	24 de mayo de 1032. Sieglos antes d'a invención d'o telescopio, Ibn Sina (Avicena) va observar y va describir per primer vegada lo transito de Venus debant d'o Sol, un raro fenomeno astronomico.
25	5	2022	20220525	25 de mayo de 2016. Atorgan lo Premio Princesa d'Asturias a Mary Beard, experta en o estudio d'a civilización romana. La suya gran labor divulgadera ha permitiu d'acercar los clasicos a lo gran publico.
26	5	2022	20220526	26 de mayo de 1689. Naixe Mary Wortley Montagu, intelectual y precursora d'a inoculación contra la picueta, tecnica que va observar en Turquía y que va importar ta Anglaterra trenta anyos antes d'os estudios d'Edward Jenner.
27	5	2022	20220527	27 de mayo de 1332. Naixe Ibn Khaldun. Considerau lo precursor d'a sociolochía, l'antropolochía y atras sciencias socials, ye conoixiu principalment per la suya Muqaddima u "Introducción" a la suya obra d'historia universal, en a qual exposa la suya filosofía d'a historia.
28	5	2022	20220528	28 de mayo de 1955. Naixe Dan S. Tawfik, pionero en o estudio d'os factors que posibilitan la evolución a nivel molecular, como la estabilidat u la promiscuidad d'as enzimas.
29	5	2022	20220529	29 de mayo de 1929. Naixe lo fisico teorico Peter Higgs, qui da nombre a lo bosón de Higgs. Esta particla elemental no tien espín, carga electrica ni color y se desintegra rapidament: la suya vida meya ye d'alredol d'un zeptosegundo.
30	5	2022	20220530	30 de mayo de 1928. Naixe Nina Georgievna Vinogradova. Va descubrir cómo se distribuyen las especies animals en as auguas fondas y va crear lo primer mapa zoocheografico de l'oceano abisal.
31	5	2022	20220531	31 de mayo de 1912. Naixe la fisica Chien-Shiung Wu. Contrimostró que lo principio d'a paridat no se cumple en a naturaleza.
1	6	2022	20220601	1 de chunyo de 1905. Naixe l'albeitar Max Sterne. En 1935 preparó una vacuna atenuada contra lo carbunclo bacteridiano u antrax, malotía infecciosa causada per la bacteria Bacillus anthracis.
2	6	2022	20220602	2 de chunyo de 1882. Naixe la cheologa Ebba Hult de Geer. Chunto a Gerard de Geer, va usar archila depositada en varvas de lagos glacials como evidencia de climas antigos (paleoclimatolochía). Esto va permitir d'establir una historia climatica global.
3	6	2022	20220603	3 de chunyo de 1844. Naixe lo matematico y historiador Paul Mansion. Fació publicacions sobre historia d'a sciencia y tradució a lo francés textos de famosos matematicos, como Riemann, Plücker y Clebsch.
4	6	2022	20220604	4 de chunyo de 1905. Naixe lo filologo y arabista Emilio García Gómez, primer director d'a Escuela de Estudios Arabes de Granada. Va recibir lo Premio Principe d'Asturias de Comunicación y Humanidatz en 1992.
5	6	2022	20220605	5 de chunyo de 1949. Naixe la biologa Susan Lindquist. Ye conoixida per lo suyo treballo sobre lo estudio d'o plegamiento d'as proteínas.
6	6	2022	20220606	6 de chunyo de 2016. La astrofisica Rosemary Wyse recibe lo Premio Brouwer per lo suyo treballo sobre galaxias de disco.
7	6	2022	20220607	7 de chunyo de 1933. Naixe Tsuneko Okazaki, una d'as primeras universitarias niponas. Chunto a lo suyo esposo Reiji, aportó grans abances en o estudio de l'ADN, como lo descubrimiento d'os fragmentos de Okazaki.
8	6	2022	20220608	8 de chunyo de 1637. René Descartes publica Discurso d'o metodo, un d'os treballos fundamentals en o desenrollo d'a sciencia.
9	6	2022	20220609	9 de chunyo de 1903. Naixe la bioquimica Sarah Ratner. Las suyas contribucions a lo estudio d'o metabolismo d'o nitrocheno aduyoron a comprender los trastornos en a sintesi de urea en personas.
10	6	2022	20220610	10 de chunyo de 940. Naixe l'astronomo y matematico Abú al-Wafá Buzjani. Ye conoixiu mas que mas per las suyas aportacions a la trigonometría plana y esferica.
11	6	2022	20220611	11 de chunyo de 1896. Naixe la parasitologa Eloise Blaine Cram. Estudió las lembrices intestinals y estió pionera en o control d'a esquistosomiasi, una malotía endemica en rechions tropicals, debida a lo parasito Schistosoma.
12	6	2022	20220612	12 de chunyo de 1908. S'estrena Rotherhithe, lo tunel subaquatico de fierro mas gran d'o mundo, que pasa baixo lo riu de Tamisa (Londres).
13	6	2022	20220613	13 de chunyo de 2012. S'anuncia lo mapeyo d'a composición d'o microbioma humano. Este resultau d'o Prochecto Microbioma Humano (HMP) s'aconsiguió per medio de tecnicas de seqüenciación de chenoma y 242 personas voluntarias.
14	6	2022	20220614	14 de chunyo de 1897. Naixe Marcelino Pascua, una d'as principals figuras d'a salut publica, epidemiolochía y bioestatistica espanyolas, y un d'os fundadors y alto directivo d'a OMS.
15	6	2022	20220615	15 de chunyo de 2021. La I edición d'os Premios CSIC-Fundación BBVA de Comunicación Scientifica atorgó lo gualardón en a categoría d'investigadors a Alfredo Corell, Margarita del Val, José Antonio López Guerrero, Ignacio López-Goñi y Antoni Trilla, per estar la voz d'a sciencia en a pandemia per coronavirus y transmitir conoiximiento en un luengache accesible pa lo publico cheneral.
16	6	2022	20220616	16 de chunyo de 2020. Muere l'arabista Federico Corriente, especialista en lexicografía y dialectolochía andalusí. Va estar pionero d'os estudios lingüisticos sobre la luenga arabe en Espanya, asinas como d'a semitica comparada.
17	6	2022	20220617	17 de chunyo de 1543. L'inventor Blasco de Garay fa una exhibición en o puerto de Barcelona. Este marino heba creau una maquina con ruedas de palas que, movida per chent, actuaba como motor de barcos.
18	6	2022	20220618	18 de chunyo de 2013. Desenrollan hologramas 3D d'alta definición pa amostrar anatomía a estudiants de medicina.
19	6	2022	20220619	19 de chunyo de 1896. Naixe la fisica y quimica Sonia Cotelle. Investigó sobre lo polonio y sobre l'actinio en colaboración con Marie Skłodowska-Curie. Determinó la semivida d'o ionio (antigo nombre d'o torio-230).
20	6	2022	20220620	20 de chunyo de 1894. Naixe lo quimico y inventor Lloyd Augustus Hall. Va contribuyir a la sciencia d'a conservación d'os alimentos con patents de nuevos metodos d'esterilización, curau de carnes u uso de antioxidants.
21	6	2022	20220621	21 de chunyo de 1809. Naixe Pascual de Gayangos. Escribió numbrosos treballos sobre arabismo, historia d'a literatura, catalogación y bibliografía. La suya obra capital estió la traducción a l'anglés d'a Historia d'as dinastías musulmanas en Espanya, d'al-Maqqari.
22	6	2022	20220622	22 de chunyo de 1850. Naixe Fannie Hesse, microbiologa y descubridora de l'agar-agar como achent chelificant d'os medios de cautivo en microbiolochía.
23	6	2022	20220623	23 de chunyo de 1836. Naixe Francisco Codera y Zaidín. Ye considerau lo fundador d'a escuela moderna d'arabistas espanyols. De conchunta con un grupo de colaboradors publicó bellas quantas fuents andalusíes ineditas dica alavez.
24	6	2022	20220624	24 de chunyo de 2012. Muere George lo Solitario, sin deixar descendencia. Ye considerau lo zaguer eixemplar de tartuga chigant de Pinta (Chelonoidis abingdonii), especie que habitaba las islas Galapagos.
25	6	2022	20220625	25 de chunyo de 1498. Un emperador chino presentó lo primer cepillo de dients feito con cerras. Estas s'extrayeban d'o cuello de cochins y se cusiban a uns mangos de bambú u de ueso. Los mercaders trayioron este invento ta Europa.
26	6	2022	20220626	26 de chunyo de 2013. Lo transbordador espacial Shenzhou 10 de China torna a salvo t'a Tierra dimpués de complir la misión tripulada mas larga de China dica hue.
27	6	2022	20220627	27 de chunyo de 1859. Lo quimico francés Edmond Fremy publica lo suyo treballo "Cuticla d'os vechetals", an se describe per primera vegada la cutina. Ye lo poliester natural mas común.
28	6	2022	20220628	28 de chunyo de 1909 y 1995. Naixe y feneixe, respectivament, lo medico y investigador Francisco Grande Covián. Ye considerau lo primer experto en nutrición d'Espanya.
29	6	2022	20220629	29 de chunyo de 1893. Naixe Prasanta Chandra Mahalanobis. Destacó en l'aria d'a estatistica aplicada y introdució la distancia de Mahalanobis, una mida de distancia estatistica muito util perque determina la semellanza entre dos variables aleatorias multidimensionals.
30	6	2022	20220630	30 de chunyo de 1933. Mary Calder, paleobotanica que va estudiar plantas fosils carboniferas y churasicas, recibe lo suyo doctorau d'a Universidat de Glasgow.
1	7	2022	20220701	1 de chuliol de 1858. Charles Darwin y Alfred Russel Wallace presentan la comunicación que estableix los principios d'a teoría d'a evolución per medio d'a selección natural.
2	7	2022	20220702	2 de chuliol de 1911. Naixe la epidemiologa, virologa y pediatra Dorothy M. Horstmann. Lo suyo treballo sobre la propagación sanguinia d'o poliovirus va aduyar a posar las bases pa la vacuna contra la poliomielitis.
3	7	2022	20220703	3 de chuliol de 1886. Naixe la naturalista Elsie Maud Wakefield. Publicó quasi 100 articlos sobre micolochía y fitopatolochía, an se describiban muitas especies vechetals nuevas.
4	7	2022	20220704	4 de chuliol de 1854. Naixe Victor Babeş, lo microbiologo rumano que va aislar per primer vegada lo protozoo Babesia.
5	7	2022	20220705	5 de chuliol de 2018. Se celebra lo primer Día de l'argüello LGTBIQA+ en as disciplinas de sciencia, tecnolochía, matematicas y enchenyería.
6	7	2022	20220706	6 de chuliol de 1973. Muere Laurens Hammond, inventor de l'organo Hammond. Este estrumento se basa en os principios de l'electromagnetismo y de l'amplificación a traviés de altavoces individuals.
7	7	2022	20220707	7 de chuliol de 1843. Naixe lo medico Camillo Golgi. Desenrolló metodos de tinción celular pa lo estudio d'as neuronas. Dio nombre a lo aparato de Golgi, un organulo present en as celulas eucariotas.
8	7	2022	20220708	8 de chuliol de 1925. Naixe la especialista en sciencia d'os alimentos Alina Surmacka Szczesniak. Va desenrollar lo Sensory Texture Profile Analysis, que analisa, quantifica y coloca en orden correcto totas las propiedatz texturals percibidas dende la colocación d'un alimento en a boca dica que se inchiere la suya zaguer particla.
9	7	2022	20220709	9 de chuliol de 1933. Naixe lo neurologo y divulgador Oliver Sacks, autor de numbrosos libros sobre casos de pacients con malotías neurolochicas (beluns adaptaus a lo cine), como Despertars.
10	7	2022	20220710	10 de chuliol de 1960. Naixe la microbiologa M. Cruz Martín, experta en l'aplicación de tecnicas moleculars en arias como la microbiolochía clinica, la seguranza alimentaria y la biotecnolochía. Va estar una pionera en a edición de chenomas bacterianos.
11	7	2022	20220711	11 de chuliol de 1881. Naixe l'astronoma Isabel Martin Lewis. Treballó como "calculadora astronomica" pa Simon Newcomb, con qui adquirió gran experiencia sobre eclixes. Desenrolló metodos pa determinar eclixes y predecir ocultacions lunars.
12	7	2022	20220712	12 de chuliol de 1898. Naixe la botanica Bea Schol-Schwarz. Especializada en fitopatolochía, va estar una d'as descubridoras de la causa d'a grafiosi: fongos d'o chenero Ophiostoma.
13	7	2022	20220713	13 de chuliol de 1944. Naixe lo escultor Ernő Rubik. Patentó lo cubo machico, un invento que se conoixe actualment como lo cubo de Rubik.
14	7	2022	20220714	14 de chuliol de 1805. Lo bispe de León escribe una circular a hespitals y parroquias a lo suyo cargo pedindo que colaboren en a vacunación contra la picueta. En una dura carta, acusaba d'homicidas a las familias que negaban la vacuna a las suyas fillas y fillos. Esta vacuna, la primera d'a historia, va aconseguir salvar millons de vidas y erradicar la malotía.
15	7	2022	20220715	15 de chuliol de 1928. Naixe lo microbiologo Carl Woese. Creó una nueva clasificación d'os sers vivos basada en l'ARN ribosomal y descubrió un nuevo dominio, que conoixemos como Archaea.
16	7	2022	20220716	16 de chuliol de 1904. Naixe lo bioquimico Harold Dadford West. Va estar lo primero en sintetizar l'aminoacido treonina.
17	7	2022	20220717	17 de chuliol de 1894. Naixe Georges-Henri Lemaître, lo fisico que proposó la teoría d'o Big Bang.
18	7	2022	20220718	18 de chuliol de 1921. Un bebé naixiu feba poco en París recibe la primera vacuna BCG contra la tuberculosi. Su mai heba muerto d'esta malotía dimpués d'o parto. Esta vacuna ye la mas antiga en uso y, dica hue, la principal arma pa erradicar esta malotía.
19	7	2022	20220719	19 de chuliol de 1921. Naixe la biofisica Rosalyn S. Yalow. Recibió lo Premio Nobel per lo desenrollo d'o radioimmunoasayo d'as hormonas peptidicas.
20	7	2022	20220720	20 de chuliol de 1804. Naixe lo biologo y paleontologo Richard Owen. Destaca per los suyos treballos en anatomía comparada y la suya definición d'o concepto d'homolochía en biolochía.
21	7	2022	20220721	21 de chuliol de 1932. Naixe la bioquimica Audrey Stevens Niyogi. Ye conoixida per aislar l'inhibidor que leva lo suyo nombre, una proteína que inhibe la ARN-polimerasa.
22	7	2022	20220722	22 de chuliol de 1922. Muere Jōkichi Takamine, descubridor d'o proceso d'extracción y cristalización de l'adrenalina, lo qual va permitir la suya comercialización. Se va convertir en un d'os primers farmacos d'uso masivo d'o sieglo XX.
23	7	2022	20220723	23 de chuliol de 1972. Se lanza lo primer d'os satelites Landsat, destinaus a la observación d'a superficie terrestre en alta resolución. La scientifica Valerie Thomas supervisó lo desenrollo d'os primers programas de procesamiento d'as imachens de Landsat.
24	7	2022	20220724	24 de chuliol de 2018. Un equipo d'o CSIC y lo IGME descubre una nueva falla en o mar de Alborán, en os limites entre las placas tectonicas euroasiatica y africana.
25	7	2022	20220725	25 de chuliol de 1956. Naixe la enchenyera quimica Frances Arnold. Ganó lo Premio Nobel de Quimica per desenrollar la evolución dirichida d'enzimas.
26	7	2022	20220726	26 de chuliol de 1886. Naixe la cristalografa y cheologa Mary Winearls Porter. Ye conoixida per las suyas contribucions a la cristalografía y las suyas publicacions sobre arquitectura romana antiga.
27	7	2022	20220727	27 de chuliol de 1982. Proposan lo termen SIDA (sindrome d'immunodeficiencia adquirida) pa nombrar lo conchunto de malotías causadas per lo VIH.
28	7	2022	20220728	28 de chuliol de 1923. Naixe la especialista en sciencias d'a computación Xia Peisu. Va desenrollar lo modelo 107, lo primer ordinador electronico multiproposito de China. Ye conoixida como la mai d'a computación en este país.
29	7	2022	20220729	29 de chuliol de 1936. Naixe la bioquimica Phoebe Starfield Leboy. Investigó sobre modificacions d'acidos nucleicos y recheneración de uesos con celulas mai adultas. Esto la posó en l'avantguardia d'a epichenetica y la medicina rechenerativa.
30	7	2022	20220730	30 de chuliol de 1886. Naixe la medica y reformadora social Muthulakshmi Reddi. Va recomendar la inspección medica sistematica de l'alumnau en as escuelas, va empentar la investigación en cancer y va emparar accions a favor d'a igualdat entre mullers y hombres.
31	7	2022	20220731	31 de chuliol de 2008. La NASA anuncia lo descubrimiento d'augua en a planeta Marte.
1	8	2022	20220801	1 d'agosto de 2001. Rita Levi-Montalcini, neurobiologa ganadora d'o Premio Nobel, ye nombrada senadora vitalicia en o parlamento italiano.
2	8	2022	20220802	2 d'agosto de 1904. Naixe l'arabista Salvador Vila Hernández. Va investigar sobre institucions y formularios notarials d'a Espanya musulmana. Va estar director d'a Escuela de Estudios Arabes (CSIC) y rector d'a Universidat de Granada.
3	8	2022	20220803	3 d'agosto de 1927. S'estableix una unión telefonica inalambrica entre Berlín y Buenos Aires.
4	8	2022	20220804	4 d'agosto de 1693. Data tradicionalment atribuyida a lo descubrimiento d'o champán per lo monche Dom Pérignon.
5	8	2022	20220805	5 d'agosto de 1969. La sonda espacial estausunidense Mariner 7 emite nuevas fotos d'a planeta Marte. Estioron las imachens mas claras obtenidas dica alavez.
6	8	2022	20220806	6 d'agosto de 1924. Naixe la bioquimica Winifred Watkins. Va investigar sobre la sciencia d'a sangre y los grupos sanguinios. Va recibir quantos premios per las suyas contribucions a la transfusión de sangre.
7	8	2022	20220807	7 d'agosto de 2015. Muere la farmacologa Frances Oldham Kelsey. Supervisora d'a Food and Drug Administration (EUA), se negó a autorizar la venda d'o farmaco talidomida en dubdar d'a suya seguranza.
8	8	2022	20220808	8 d'agosto de 2013. Preban una nueva vacuna contra la malaria con un indiz d'eficacia de dica lo 100%.
9	8	2022	20220809	9 d'agosto de 1794. Naixe lo zoologo Achille Valenciennes. Los suyos estudios sobre los parasitos de sers humans representan una important contribución a la parasitolochía.
10	8	2022	20220810	10 d'agosto de 1937. George Beauchamp recibe la suya patent d'a guitarra electrica. Encara que lo nombre oficial yera Rickenbacker Electro A-22, esta guitarra se va conoixer como la sartana.
11	8	2022	20220811	11 d'agosto de 2020. Se rechistra Gam-COVID-Vac, mas conoixida como Sputnik V. Se tracta d'a primera vacuna frent a la COVID-19 en estar autorizada en o mundo.
12	8	2022	20220812	12 d'agosto de 1990. La paleontologa Sue Hendrickson descubre a Sue, lo especimen mas gran y millor conservau de Tyrannosaurus rex que s'ha trobau nunca.
13	8	2022	20220813	13 d'agosto de 2008. Muere la bioquimica Anna Macleod. En 1975 estió nombrada la primera profesora d'o mundo d'elaboración de cerveza.
14	8	2022	20220814	14 d'agosto de 1991. Lo fisico Paul Ginsparg lanza un boletín electronico pa l'intercambio d'articlos encara no publicaus en un subcampo de fisica teorica d'alta enerchía. Hue ye lo conoixiu reposte arXiv.
15	8	2022	20220815	15 d'agosto de 2017. Francisco Juan Martínez Mojica, Emmanuelle Charpentier, Jennifer Doudna, Luciano Marraffini y Feng Zhang reciben lo Premio d'o Centro Medico Albany. Este gualardón ye un d'os mas prestichiosos en medicina y investigación biomedica y reconoixió lo suyo papel en o desenrollo d'as tecnolochías CRISPR pa edición d'o chenoma.
16	8	2022	20220816	16 d'agosto de 1849. Naixe lo quimico Johan Kjeldahl. Va desenrollar un metodo d'analisi pa determinar la cantidat de nitrocheno en compuestos organicos. Se diz metodo Kjeldahl en a suya honor.
17	8	2022	20220817	17 d'agosto de 1970. Se fa lo lanzamiento de Venera 7, lo primer vehíclo espacial que transmitió con exito datos dende la superficie d'unatra planeta (Venus).
18	8	2022	20220818	18 d'agosto de 1987. Apreban la primer preba en personas d'una vacuna candidata contra lo virus d'a immunodeficiencia humana (VIH).
19	8	2022	20220819	19 d'agosto de 1839. Louis Daguerre anuncia la invención d'o proceso fotografico denominau daguerrotipo, lo primero que permitió la fixación permanent d'una imachen.
20	8	2022	20220820	20 d'agosto de 1911. Naixe la virologa Isabel Morgan. Va participar en o desenrollo d'una vacuna que protecheba a monos contra la poliomielitis, un paso clau en a corrida pa erradicar esta malotía.
21	8	2022	20220821	21 d'agosto de 1874. Naixe Eleanor Davies-Colley, una d'as primeras cirurchanas en operar en o Reino Uniu y fundadora d'o Hespital de Mullers y Ninos d'o Sud de Londres.
22	8	2022	20220822	22 d'agosto de 1934. Naixe lo fisico y astronomo Samuel Pierpont Langley. Va inventar lo bolometro, que mide la cantidat total de radiación electromagnetica que viene d'un obchecto en totas las longarias d'onda.
23	8	2022	20220823	23 d'agosto de 1917. Naixe la bioquimica y farmacologa Marjorie Horning. Fue pionera en cromatografía en desenvolver nuevas tecnicas pa lo estudio d'o metabolismo d'os farmacos.
24	8	2022	20220824	24 d'agosto de 2006. La Unión Astronomica Internacional apreba la nueva definición de planeta. En excluyir a Plutón, las planetas d'o sistema solar van reducir lo suyo numero de nueu a ueito.
25	8	2022	20220825	25 d'agosto de 1858. Se descubre lo tresoro de Guarrazar, una d'as mayors troballas arqueolochicas vinculadas a los visigodos. Entre atras piezas, destacan las magnificas coronas votivas.
26	8	2022	20220826	26 d'agosto de 865. Naixe lo medico y escritor Abū Bakr Muhammad ibn Zakarīyā al-Rāzī, conoixiu como al-Razi. Va escribir al-Hawi, una colosal enciclopedia medica, y va fer la primer destilación d'o petrolio pa obtener querosenos. Se le considera lo descubridor de l'acido sulfurico y de l'etanol, asinas como de l'uso d'este zaguero en medicina.
27	8	2022	20220827	27 d'agosto de 1947. Naixe la virologa Flossie Wong-Staal. Estió la primer persona en clonar lo virus d'immunodeficiencia humana (VIH) y determinar la función d'os suyos chens, un paso clau pa contrimostrar que yera la causa d'o SIDA.
28	8	2022	20220828	28 d'agosto de 1927. Naixe la bioquimica Betty Twarog. Va estar la primera persona en trobar serotonina en o cerebro de mamifers.
29	8	2022	20220829	29 d'agosto de 1914. Naixe lo fisico-quimico Bernard Vonnegut. Descubrió que lo yoduro de plata puede fer-se servir como achent de nucleación pa sembrar boiras.
30	8	2022	20220830	30 d'agosto de 1919. Naixe lo microbiologo Maurice Hilleman. Va desenrollar bellas 40 vacunas, belunas tant relevants como las d'o sarrampión, los chordos, la hepatitis A, la hepatitis B, la varicela, la meninchitis, la pneumonía y la Haemophilus influenzae.
31	8	2022	20220831	31 d'agosto de 1909. Sahachiro Hata inchectó arsfenamina a un conello con sifilis: a l'atro'l día, yera curau. S'aconsiguió asinas un d'as primeras medecinas pa curar una malotía infecciosa d'alta mortalidat.
1	9	2022	20220901	1 de setiembre de 1979. La sonda Pioneer 11 se convierte en a primera que visita la planeta Saturno, la qual sobrevuela dende 21.000 kilometros.
2	9	2022	20220902	2 de setiembre de 2020. Scientificas d'a Universidat de Toronto troban microfibras azuls procedents de ropa vaquera en l'augua de l'Ártico. Tamién van revelar que un solo vaquero libra alredol de 50.000 particlas diminutas per lavau.
3	9	2022	20220903	3 de setiembre de 1992. Muere la botanica Barbara McClintock. Recibió lo Premio Nobel per los suyos descubrimientos en o campo d'a transposición chenetica.
4	9	2022	20220904	4 de setiembre de 1939. Alan Turing prencipia a treballar en Bletchley Park, an van descifrar los codigos secretos alemans en a Segunda Guerra Mundial.
5	9	2022	20220905	5 de setiembre de 2012. L'astronauta Akihiko Hoshide prenió lo suyo famoso selfi mientres orbitaba arredol d'a Tierra en a Estación Espacial Internacional. La foto, en a quala se veye lo Sol a lo fondo, se fació viral en retz socials.
6	9	2022	20220906	6 de setiembre de 1929. Naixe la fisica Ljubov Rebane. Va introducir la espectroscopía per laser en a ensenyanza, y va formar tota una cheneración d'especialistas en a materia.
7	9	2022	20220907	7 de setiembre de 1936. Muere lo zaguer tigre de Tasmania. Lo suyo nombre yera Benjamin, pero se sospeita que yera una fembra. Cada 7 de setiembre, Australia commemora lo Día d'as Especies Menazadas.
8	9	2022	20220908	8 de setiembre de 1954. Lo medico y virologo Jonas Salk presenta la suya vacuna contra la poliomielitis. Va estar fundamental en a erradicación d'esta malotía altament mortal.
9	9	2022	20220909	9 de setiembre de 1947. Se rechistra lo primer caso d'una error informatica: una pola atrapada en o relé de l'ordinador Mark II d'a Universidat d'Harvard.
10	9	2022	20220910	10 de setiembre de 1926. Naixe lo microbiologo Thomas Brock. Va estudiar las bacterias que viven a muit alta temperatura en Yellowstone. Lo suyo treballo va estar base pa lo desenrollo d'a reacción en cadena d'a polimerasa (PCR).
11	9	2022	20220911	11 de setiembre de 1884. Naixe lo fisico Harvey Fletcher. Realizó numerosas contribucions en acustica y se le atribuye la invención de l'audifono.
12	9	2022	20220912	12 de setiembre de 1957. La revista The New England Journal of Medicine publica los resultaus d'os 6 primers trasplants de medula osia, una tecnica que permite de tractar la leucemia u lo mieloma multiple. Lo suyo autor, E. Donnall Thomas, va recibir lo Premio Nobel en 1990.
13	9	2022	20220913	13 de setiembre de 1853. Naixe lo bacteriologo Hans Christian Gram. Desenrolló la tinción de Gram, una tinción diferencial emplegada pa visualizar y diferenciar bacterias.
14	9	2022	20220914	14 de setiembre de 1912. Naixe la bioquimica Kamala Sohonie. Va investigar los efectos d'as vitaminas y las valors nutritivas d'as legumbres, l'arroz y atros alimentos consumius per los sectors mas pobres d'a India.
15	9	2022	20220915	15 de setiembre de 1830. S'inaugura la primer linia de ferrocarril interurbana d'o mundo (Liverpool-Manchester).
16	9	2022	20220916	16 de setiembre de 2015. Dentro d'o prochecto SISMOSIMA, Raúl Pérez (IGME) desciende ta la sima d'o Vapor, la mas calient d'o mundo. Esta sima d'Alhama de Murcia ye sobre la falla que va causar lo tierratremol de 2011 en Lorca.
17	9	2022	20220917	17 de setiembre de 1801. Naixe l'orientalista y lexicografo Edward William Lane. Ye conoixiu per la suya descripción d'a vida en Echipto y per lo suyo Arabic-English Lexicon, un d'os millors diccionarios d'arabe enta una luenga europea.
18	9	2022	20220918	18 de setiembre de 1982. Muere lo paleontologo y antropologo Pei Wenzhong. Va estar responsable d'a excavación que va trobar l'Homo erectus pekinensis en 1929, una troballa clau pa emparar la Teoría d'a evolución.
19	9	2022	20220919	19 de setiembre de 1915. Naixe la anatomopatologa Elizabeth Stern. Fue una d'as primeras personas en especializar-se en citopatolochía, la disciplina que estudia las alteracions d'as celulas extrayidas de distintas zonas d'o cuerpo.
20	9	2022	20220920	20 de setiembre de 1952. Se publican los resultaus de l'experimento d'Alfred Hershey y Martha Chase. Este informe confirmaba que l'ADN ye la base d'o material chenetico (y no pas las proteínas).
21	9	2022	20220921	21 de setiembre de 1895. Naixe Juan de la Cierva, l'enchenyero y aviador que inventó l'autochiro, lo precursor de l'helicoptero.
22	9	2022	20220922	22 de setiembre de 1896. Naixe la bioquimica Dorothy M. Needham. Ye conoixida sobre tot per lo suyo treballo sobre la bioquimica d'o musclo.
23	9	2022	20220923	23 de setiembre de 1869. Naixe Mary Mallon, conoixida como María Tifoidea. Estió identificada como la primer portadora asintomatica de bacterias causants d'a fiebre tifoidea. Vivió la resta d'a suya vida en quarantena.
24	9	2022	20220924	24 de setiembre de 2000. Se commemora lo primer Día Mundial d'a Investigación en Cancer. Lo suyo obchectivo ye crear consciencia y mobilizar la sociedat pa abanzar en a prevención y lo control d'esta malotía.
25	9	2022	20220925	25 de setiembre de 1893. Naixe la fisiologa Elizabeth M. Bright.  Chunto a l'oceanografo Alfred C. Redfield, estudió los efectos d'a radiación en qualques animals como lo Nereis, un cuco marino.
26	9	2022	20220926	26 de setiembre de 1940. Naixe la bioquimica Louise Napier Johnson. Va investigar,  con a tecnica de cristalografía de rayos X, la enzima glucocheno fosforilasa.
27	9	2022	20220927	27 de setiembre de 1962. La biologa marina Rachel Carson publica lo libro Silent Spring, que fació cambiar l'actitut sobre l'uso indiscriminau de pesticidas.
28	9	2022	20220928	28 de setiembre de 1895. Muere lo quimico Louis Pasteur, inventor d'a pasteurización. Este metodo permite lo control d'os microorganismos en liquidos, como la leit.
29	9	2022	20220929	29 de setiembre de 1511. Naixe lo teologo y scientifico Miguel Servet, conoixiu per la suya descripción d'a circulación pulmonar. Estió arrestado en Suiza y condenau a morir en a foguera en 1543.
30	9	2022	20220930	30 de setiembre de 1886. Naixe l'albeitar y biologo Gaston Ramon. Lo suyo treballo va estar clau pa lo desembolique de vacunas eficaces frent a la difteria y lo tetanos.
1	10	2022	20221001	1 d'octubre de 1912. Naixe la matematica y educadora Kathleen Ollerenshaw. Estió especialista en quadraus machicos, an que la suma d'os numeros per columnas, ringleras y diagonals principals ye la mesma.
2	10	2022	20221002	2 d'octubre de 1846. Naixe la medica y educadora Eliza Maria Mosher. Va estar pionera en medicina postural y sistemas anatomicos: va disenyar asientos pa tramvías u una siella anatomica pa guarderías.
3	10	2022	20221003	3 d'octubre de 2005. Los medicos Marshall y Warren ganan lo Premio Nobel per descubrir que la bacteria Helicobacter pylori causa las ulceras gastricas. Debant d'o scepticismo d'a comunidat scientifica, Marshall contrimostró la suya hipotesi inoculando-se ell mesmo con esta bacteria.
4	10	2022	20221004	4 d'octubre de 1971. S'adopta lo mol –unidat con a qual se mide la cantidat de substancia– como mesura quimica, y s'anyade a las seis unidatz basicas d'o Sistema Internacional d'Unidatz (SI).
5	10	2022	20221005	5 d'octubre de 1958. Naixe l'astrofisico y divulgador scientifico Neil deGrasse Tyson. Los suyos libros han acercau las sciencias espacials a lo gran publico.
6	10	2022	20221006	6 d'octubre de 1907. Naixe la embriologa Salome Gluecksohn Waelsch. Ye considerada una d'as fundadoras d'a chenetica d'o desenrollo.
7	10	2022	20221007	7 d'octubre de 1952. Se publicó la patent US #2,612,994, d'os inventors Joseph Woodland y Bernard Silver: yera la d'un primitivo codigo de barras.
8	10	2022	20221008	8 d'octubre de 2015. La NASA anuncia que New Horizons ha detectau augua conchelada y un ciel azul en Plutón.
9	10	2022	20221009	9 d'octubre de 1410. Primera mención a lo reloch astronomico de Praga. Lo suyo quadrant astronomico tiene forma d'astrolabio y amuestra las 24 horas d'o día, las posicions d'o Sol y d'a Luna en o ciel y atros detalles astronomicos.
10	10	2022	20221010	10 d'octubre de 1865. John Wesley Hyatt patenta lo celuloide, un plastico utilizau pa producir las cintas de cine.
11	10	2022	20221011	11 d'octubre de 1910. Naixe lo matematico Cahit Arf. Desenrolló buena cosa de conceptos que levan lo suyo nombre, como l'aniello d'Arf, los semigrupos d'Arf, l'invariant de Arf u lo teorema de Hasse-Arf.
12	10	2022	20221012	12 d'octubre de 1889. Naixe Jorge Loring Martínez. Va inventar nuevos aeroplanos y va fundar CETA, la primer aerolinia espanyola pa lo transporte de pasachers.
13	10	2022	20221013	13 d'octubre de 1986. Arriban a Espanya las restas mortals d'o scientifico Pío del Río Hortega, feneixiu en l'exilio en Archentina en 1945. Ye conoixiu per descubrir la microglía, una mena de celula d'o sistema nervioso.
14	10	2022	20221014	14 d'octubre de 1100. Muere Ibn al-Zarqalluh (Azarquiel), lo mas important astronomo andalusí. Las suyas obras, traducidas a lo latín per Gerardo de Cremona, van tener amplia difusión en a Europa medieval.
15	10	2022	20221015	15 d'octubre de 1949. Christopher Polge comunica que lo glicerol permite la conchelación d'espermatozoides, anuncio que marcó l'inicio d'as tecnicas de reproducción asistida.
16	10	2022	20221016	16 d'octubre de 2012. L'astrofisico Xavier Dumusque y colaboradors anuncian lo descubrimiento d'a planeta extrasolar Alpha Centauri Bb. Se troba en o sistema estelar triple Alfa Centauri.
17	10	2022	20221017	17 d'octubre de 1934. Muere Santiago Ramón y Cajal, lo primer Premio Nobel espanyol en Sciencias. Lo gualardón se le concedió per lo suyo estudio sobre la estructura d'o sistema nervioso.
18	10	2022	20221018	18 d'octubre de 1872. Naixe la medica Laura Rodríguez Dulanto. En 1900 se va convertir en a primer muller en obtener lo titol de medica cirurchana d'o Perú​. La suya iniciativa va ubrir lo camín a atras mullers d'o país.
19	10	2022	20221019	19 d'octubre de 1862. Naixe l'inventor Auguste Lumière. Chunto a lo suyo chirmán Louis, creó lo cinematografo, una maquina pionera capable de filmar y prochectar imachens en movimiento.
20	10	2022	20221020	20 d'octubre de 1900. S'inaugura lo Boston Symphony Hall, la primer sala de conciertos disenyada emplegando parametros acusticos. Considerada una d'as millors d'o mundo, lo suyo disenyador va estar lo fisico Wallace Clement Sabine.
21	10	2022	20221021	21 d'octubre de 2016. LETIPharma presenta la vacuna contra la leishmaniosi canina (LetiFend), basada en una proteína recombinant y que permite de distinguir vacunaus d'infectaus. Esta zoonosi afecta a cans y humanos.
22	10	2022	20221022	22 d'octubre de 1951. Se crea la Chunta d'Enerchía Nuclear a partir d'a Chunta d'Investigacions Atomicas. Encomienza la investigación de materials radioactivos en Espanya.
23	10	2022	20221023	23 d'octubre de 2022. Se celebra lo Día d'o Mol, entre las 06:02 (06:02 AM) y las 18:02 (06:02 PM).
24	10	2022	20221024	24 d'octubre de 2010. Enrique Peñalver (IGME) y Jean Gaudant (Museo Nacional d'Historia Natural de Francia) descubren un nuevo peix de fa 10 millons d'anyos. Se va nombrar como Aphanius bicorbensis en honor d'a población de Bicorb (Valencia).
25	10	2022	20221025	25 d'octubre de 1921. Naixe la biologa Marian Koshland. Descubrió que las diferencias en os aminoacidos d'os anticuerpos explican la eficiencia y eficacia con a qual combaten los invasors externos.
26	10	2022	20221026	26 d'octubre de 1920. Naixe la astronoma Sarah Lee Lippincott. Ha estau pionera en l'uso d'a astrometría pa determinar lo caracter d'as estrelas binarias y la busqueda de planetas extrasolars.
27	10	2022	20221027	27 d'octubre de 1953. Muere l'agronoma y fisiologa vechetal Winifred Elsie Brenchley. Lo suyo treballo en a Estación Experimental de Rothamsted permitió, entre atros, d'amillorar la tecnica de cautivo de plantas en hidroponía.
28	10	2022	20221028	28 d'octubre de 2011. La NASA lanza lo satelite Suomi NPP con a misión de realizar observacions climatolochicas d'a Tierra.
29	10	2022	20221029	29 d'octubre de 1933. Muere Albert Calmette, descubridor d'una forma atenuada de Mycobacterium tuberculosis (bacilo de Calmette-Guerin) que s'emplegó en a vacuna pa la tuberculosi.
30	10	2022	20221030	30 d'octubre de 1929. Naixe la matematica Regina Iosifovna Tyxkevich. Especialista en teoría de grafos, ye coinventora d'a noción de grafos dividius.
31	10	2022	20221031	31 d'octubre de 2002. Lo Vaticano rehabilita a Galileo 359 anyos dimpués d'haber estau condenau.
1	11	2022	20221101	1 de noviembre de 1945. Naixe la fisica quimica Milliana Kroumova Kaisheva. Ye conoixida per lo suyo treballo en electroquimica y quimica de coloides.
2	11	2022	20221102	2 de noviembre de 2010. Descubren la primer cinta sonora en espanyol en a Biblioteca d'o Congreso d'os EUA. En ella, Concha Piquer interpreta quantas cancions, como una jota, un cuplet u un fado.
3	11	2022	20221103	3 de noviembre de 1854. Naixe Jōkichi Takamine, inventor d'a Taka-diastasa, la primer enzima industrializada. S'obtenió d'o fongo Aspergillus y permitiba d'accelerar la fermentación de bebidas alcolicas y de facilitar las dichestions pesadas.
4	11	2022	20221104	4 de noviembre de 1942. Naixe la medica y inventora Patricia Bath. Va estar la primer muller afroamericana en recibir una patent con finalidatz medicas. Lo suyo Laserphaco Probe s'usa pa tractar las cataractas.
5	11	2022	20221105	5 de noviembre de 1927. Naixe lo estatistico Hirotsugu Akaike. Formuló lo criterio d'información de Akaike (AIC), muito emplegau pa medir la calidat relativa d'un modelo estatistico.
6	11	2022	20221106	6 de noviembre de 1988. Naixe la scientifica d'a computación Alexandra Elbakyan. En 2011 va crear Sci-Hub, un puesto web que permite l'acceso gratuito a multitut d'articlos scientificos.
7	11	2022	20221107	7 de noviembre de 1905. Leonardo Torres Quevedo fa la primer demostración d'o telekino, un automata controlau a distancia. Estió una fita d'a enchenyería en estar lo primer aparato con radiodirección d'a historia.
8	11	2022	20221108	8 de noviembre de 1968. Muere la quimica y farmaceutica Chika Kuroda. Va contribuyir a desenrollar lo farmaco antihipertensivo Kerutin C, en estudiar la pigmentación d'a piel de cebolla y extrayer-ne cristals de quercetina.
9	11	2022	20221109	9 de noviembre de 1910. Naixe la medica Eugenia Sacerdote de Lustig. Estió la primer persona en vacunar-se contra la poliomielitis en Archentina, inoculando-se en publico ella mesma y a los suyos fillos pa convencer a la población d'os beneficios d'a vacuna.
10	11	2022	20221110	10 de noviembre de 1887. Naixe Elisa Leonida Zamfirescu, la primer enchenyera rumana y una d'as primeras d'o mundo. Va dirichir los laboratorios de l'Instituto Cheolochico de Rumanía.
11	11	2022	20221111	11 de noviembre de 2006. Muere Esther Lederberg, descubridora d'o fago lambda, que infecta a E. coli. Per esta troballa, clau pa lo desenrollo d'a enchenyería chenetica, ye considerada la mai d'esta disciplina.
12	11	2022	20221112	12 de noviembre de 1910. Naixe lo matematico Hua Luogeng. Encara que nunca no va tener una educación universitaria formal, lo suyo talento matematico le va permitir d'escribir numbrosos articlos que s'han convertiu en clasicos.
13	11	2022	20221113	13 de noviembre de 1715. Naixe la medica Dorothea Erxleben. S'inspiró en Laura Bassi pa luitar per lo suyo dreito a practicar la medicina y se convirtió en a primer muller en obtener un doctorau en esta disciplina en Alemanya.
14	11	2022	20221114	14 de noviembre de 1889. Naixe lo escritor Taha Hussein, fundador de l'Instituto Echipcio de Estudios Islamicos en Madrid. Este centro fomenta la investigación en os campos d'a cultura arabe, andalusí y hispana y actúa como puent d'entendimiento entre las dos marguins d'o Mediterranio.
15	11	2022	20221115	15 de noviembre de 1313. Naixe lo medico, escritor y politico andalusí Ibn al-Khatib. Escribió mas de 70 obras, que incluyen un tractau sobre la epidemia de peste. Los suyos poemas adornan l'Alhambra de Granada.
16	11	2022	20221116	16 de noviembre de 2015. La matematica afroamericana Katherine Johnson recibe la Medalla d'a Libertat de mans de Barack Obama. Los suyos calculos de mecanica orbital van estar fundamentals pa l'exito d'a NASA.
17	11	2022	20221117	17 de noviembre de 1881. Naixe la informatica astronomica y sismologa Ethel Bellamy. Aduyó a catalogar la posición d'alredol d'un millón d'estrelas dende lo Observatorio Radcliffe d'Oxford.
18	11	2022	20221118	18 de noviembre de 1906. Naixe la fisica teorica Wang Ming-chen. Ye reconoixida per los suyos treballos sobre procesos estocasticos y movimiento browniano.
19	11	2022	20221119	19 de noviembre de 1887. Naixe lo bioquimico James Batcheller Sumner. Recibió lo Premio Nobel per desenrollar metodos pa cristalizar enzimas en forma pura. Gracias a ells sabemos que las enzimas son proteínas.
20	11	2022	20221120	20 de noviembre de 1885. Naixe la enchenyera Olive Wetzel Dennis. Los suyos disenyos revolucionarios van cambiar la naturaleza d'os viaches en ferrocarril.
21	11	2022	20221121	21 de noviembre de 1932. S'inaugura la Escuela de Estudios Arabes de Granada. Lo suyo primer director estió l'arabista Emilio García Gómez. En 1939 s'integró en o CSIC.
22	11	2022	20221122	22 de noviembre de 1864. Naixe la medica Rukhmabai. Va estar una d'as primeras medicas d'a India colonial. Va dirichir lo Hespital de Mullers de Surat y va establir la Sociedat d'a Cruz Roya en Rajkot.
23	11	2022	20221123	23 de noviembre de 1924. Edwin Hubble publica lo suyo descubrimiento de que Andromeda yera una galaxia (no pas una nebulosa). Esto contrimostraba que la Vía Lactia no yera la sola galaxia de l'universo.
24	11	2022	20221124	24 de noviembre de 1895. Naixe la cheologa y paleontologa Esther Applin. Va estar pionera en l'uso de microfosils pa datar las formacions rocosas. Esta información se va fer servir pa buscar petrolio en o golfo de Mexico.
25	11	2022	20221125	25 de noviembre de 2008. Lo Premio Nobel de Fisica George Smoot inaugura lo Museu Didactico y Interactivo de Sciencias d'a Vega Baja del Segura d'a Comunitat Valenciana (MUDIC-VBS-CV).
26	11	2022	20221126	26 de noviembre de 1894. Naixe lo matematico Norbert Wiener. Ye considerau lo fundador d'a cibernetica como una nueva sciencia.
27	11	2022	20221127	27 de noviembre de 1911. Naixe la pediatra Fe Villanueva del Mundo. Destacó per lo suyo treballo pionero sobre malotías infecciosas en as comunidatz filipinas.
28	11	2022	20221128	28 de noviembre de 1991. Muere la bioquimica Lu Gwei-djen. Experta en a historia d'a sciencia y la tecnolochía en China, tamién va estar medica especializada en nutriolochía.
29	11	2022	20221129	29 de noviembre de 1920. Naixe lo quimico textil  Joseph Shivers. Ye conoixiu mas que mas per lo suyo paper en o desenrollo d'o Spandex u elastano, una fibra de gran elasticidat y resistencia.
30	11	2022	20221130	30 de noviembre de 1803. Zarpa dende A Coruña la Real Expedición Filantrópica de la Vacuna, dirichida per Francisco Javier Balmis. En a corveta María Pita viachaban la enfermera Isabel Zendal y 22 popillos que levarían la vacuna per tot lo mundo.
1	12	2022	20221201	1 d'aviento de 2007. Muere June Almeida, la virologa pionera en nuevos metodos d'identificación y captación d'imachens de virus. Estió la primera persona en veyer un coronavirus en o microscopio.
2	12	2022	20221202	2 d'aviento de 2012. Muere lo disenyador industrial Gabriel Lluelles. Va inventar la Minipimer, una d'as primeras batedoras de man, que lo suyo nombre se gosa fer servir pa denominar a esta mena de trastes.
3	12	2022	20221203	3 d'aviento de 1930. Naixe Sara Rietti, la primera quimica nuclear archentina. Estudió los hidruros de boro (a los quals clamaba los suyos boranos), que s'utilizan en a industria aeroespacial.
4	12	2022	20221204	4 d'aviento de 1927. Naixe la neuropediatra Isabelle Rapin. Va estar un referent scientifico en o estudio d'os trastornos d'o espectro autista.
5	12	2022	20221205	5 d'aviento de 1822. Naixe la naturalista y educadora Elizabeth Cabot Agassiz. Realizó expedicions scientificas chunto a lo suyo esposo Louis, con o qual fundó lo laboratorio marino Anderson School of Natural History.
6	12	2022	20221206	6 d'aviento de 1877. Thomas Edison fa la primer gravación en un cilindro de fonografo. Este aparato podeba tanto gravar como reproducir lo son.
7	12	2022	20221207	7 d'aviento de 1921. Naixe Valerie Hunter Gordon. Inventó lo Paddi, un sistema doble de baldenyos d'un solo uso y de cubierta lavable (lo primer d'este tipo), y lo Nikini, un antecedent d'as compresas hichienicas.
8	12	2022	20221208	8 d'aviento de 1920. Naixe la farmaceutica Ester de Camargo Fonseca Moraes. Va estar pionera en a implantación d'a toxicolochía en Brasil, an que va establir un laboratorio antidopache.
9	12	2022	20221209	9 d'aviento de 1748. Naixe lo quimico Claude Louis Berthollet. Estudió las propiedatz decolorants d'o cloro y desenrolló un metodo pa emblanquir telas fendo servir una solución d'hipoclorito de sodio: la leixiva.
10	12	2022	20221210	10 d'aviento de 2017. Investigadors d'o IGME y la Universidat d'Oxford describen una nueva caparra: la Deinocroton draculi u caparra terrible de Dracula. Parasitaba los dinosauros en os suyos niedos u cerca d'ells.
11	12	2022	20221211	11 d'aviento de 1913. Otto Rohm patenta lo primer deterchent con enzimas: Burnus. Prenió la ideya d'a suya esposa, qui suchirió que los extractos que disuelven la graixa antes de tanyar las piels podrían disolver tamién las tacas en telas. Hue, totz los deterchents levan enzimas.
12	12	2022	20221212	12 d'aviento de 1927. Naixe Robert Noyce, l'enchenyero que va inventar lo microchip. Yera apodau l'alcalde de Silicon Valley.
13	12	2022	20221213	13 d'aviento de 1204. Muere l'influyent filosofo sefardí Ibn Maymun (Maimonides). Destacó en os campos d'a medicina y l'astronomía, y estió un referent pa la sciencia y la filosofía d'a epoca.
14	12	2022	20221214	14 d'aviento de 1546. Naixe l'astronomo Tycho Brahe. Ye considerau un d'os mas grans observadors d'o ciel antes d'a invención d'o telescopio.
15	12	2022	20221215	15 d'aviento de 1935. Naixe la astronoma Tamara Smirnova. Descubrió 135 asteroides, amás d'a cometa periodica 74P/Smirnova-Chernykh, chunto a l'astronomo Nikolai Chernykh.
16	12	2022	20221216	16 d'aviento de 1901. Naixe la antropologa Margaret Mead. Va posar en dubda la visión biolochicista que prevaleba en as sciencias socials, seguntes la qual s'establiba una división d'o treballo familiar per suposadas diferencias innatas entre lo comportamiento productivo d'hombres y expresivo de mullers.
17	12	2022	20221217	17 d'aviento de 1813. Muere l'agronomo y hichienista Antoine Parmentier. Gracias a lo suyo treballo, s'anuloron las leis que prohibiban lo cautivo d'as trunfas. Dica alavez, quasi totz los países europeus consideraban que las trunfas no yeran comestibles. 
18	12	2022	20221218	18 d'aviento de 1926. Gilbert N. Lewis usa per primer vegada lo termen fotón pa describir lo comportamiento corpuscular d'a luz.
19	12	2022	20221219	19 d'aviento de 2016. S'inicia PanAfGeo, lo mayor prochecto internacional desenrollau entre los servicios cheolochicos europeus y africanos. En ell participa l'IGME.
20	12	2022	20221220	20 d'aviento de 1900. La cometa 21P/Giacobini-Zinner va estar alufrada per primer vegada. En 1985 se va convertir en a primer cometa en estar visitada per una nau espacial.
21	12	2022	20221221	21 d'aviento de 2018. S'estudia per primer vegada la influencia d'o cambio climatico sobre lo chelo submarino. Esta investigación se fa en o marco d'o prochecto EXPLOSEA, liderado per l'IGME.
22	12	2022	20221222	22 d'aviento de 1943. Muere Beatrix Potter. Amás d'escritora y ilustradora de cuentos infantils, va estar una d'as primeras personas en cautivar fongos a partir d'as suyas esporas. Va postular que lo mogo u floridura ye un estadio mas d'o creiximiento d'os fongos, y no pas un organismo diferent.
23	12	2022	20221223	23 d'aviento de 1805. Muere la escritora y anatomista Geneviève Charlotte Thiroux d’Arconville. Ye conoixida per los suyos estudios sobre la putrefacción, que recopiló en o suyo Essai pour servir à l’histoire de la putréfaction (1766).
24	12	2022	20221224	24 d'aviento de 1891. Naixe Marguerite Thomas Williams, la primer cheologa afroamericana en doctorar-se en os EUA, quan los dreitos d'a población negra ni sisquiera yeran reconoixius. La suya tesi va demostrar que l'actividat humana como modeladora d'o paisache yera ligada a las trachicas inundacions sufiertas en o río Anacostia.
25	12	2022	20221225	25 d'aviento de 1938. Muere lo escritor de sciencia ficción Karel Čapek. Popularizó la parola robot en a suya obra de teatro R. U. R. (1920).
26	12	2022	20221226	26 d'aviento de 1791. Naixe lo matematico Charles Babbage. Va disenyar la primer maquina de calculo programable. Encara que no se va poder construyir, hue se considera predecesora d'os ordinadors.
27	12	2022	20221227	27 d'aviento de 2020. Araceli Hidalgo, de 96 anyos, se convierte en a primera persona vacunada frent a la COVID-19 en Espanya.
28	12	2022	20221228	28 d'aviento de 1957. Empecipian a emplegar la vacuna Salk en Espanya. Va estar la primer vacuna efectiva contra la poliomielitis.
29	12	2022	20221229	29 d'aviento de 1952. Se mete a la venda lo primer audifono con transistor. Lo suyo coste yera de 300 dolars.
30	12	2022	20221230	30 d'aviento de 1924. Naixe la enchenyera aeroespacial Yvonne Madelaine Brill. Va patentar un sistema de propulsión con hidrazina pa mantener un satelite en orbita cheoestacionaria fixa per mas tiempo que atros metodos.
31	12	2022	20221231	31 d'aviento de 1909. Mónico Sánchez patenta lo primer aparato portatil de rayos X y corrients d'alta freqüencia.
