dia	mês	ano	personagem	texto
1	1	2022	20220101	1 de janeiro de 2021. Uma equipe de pesquisa do IGME publica na revista Science o primeiro mapa mundial de afundamento de terra - subsidência - causada pela extração de águas subterrâneas.
2	1	2022	20220102	2 de janeiro de 1959. A União Soviética lança a sonda Luna 1. Foi o primeiro artefato enviado à Lua.
3	1	2022	20220103	3 de janeiro de 1895. Nasce o químico Josep Pascual Vila, notável por suas contribuições no campo da química orgânica.
4	1	2022	20220104	4 de janeiro de 1894. Nasce Évariste Lévi-Provençal, o primeiro professor de Língua e Civilização Árabe na Universidade de Sorbonne. Suas investigações foram essenciais para o estudo do Ocidente islâmico medieval (Magreb e al-Andalus).
5	1	2022	20220105	5 de janeiro de 1955. Nasce a geóloga planetária Adriana Ocampo, diretora do Programa Científico da NASA. Ele foi responsável pela missão da sonda espacial Juno a Júpiter e a missão New Horizons a Plutão.
6	1	2022	20220106	6 de janeiro de 1921. Nasce a bioquímica Marianne Grunberg-Manago. Junto com Severo Ochoa, ele descobriu a enzima polinucleotídeo fosforilase, ferramenta chave para decifrar o código genético.
7	1	2022	20220107	7 de janeiro de 2015. Uma equipe de pesquisa da Universidade Tarbiat Modares produz uma membrana cerâmica impermeável com alta resistência térmica.
8	1	2022	20220108	8 de janeiro de 2001. A pediatra Helen Rodríguez Trías recebe a Medalha Presidencial dos Estados Unidos por seu trabalho para melhorar a saúde pública de mulheres e crianças em populações de baixa renda e minorias.
9	1	2022	20220109	9 de janeiro de 1975. Descoberto local de hibernação da borboleta monarca. Essas bonitas e longevas borboletas migram no outono do Canadá para as florestas de abetos no México.
10	1	2022	20220110	10 de janeiro de 1897. Nasce Joaquina Eguaras, pesquisadora da Escola de Estudos Árabes de Granada. Foi a primeira diretora do Museu Arqueológico desta cidade, bem como a primeira aluna e professora da Faculdade de Filosofia e Letras da Universidade de Granada.
11	1	2022	20220111	11 de janeiro de 1906. Nasce o químico Albert Hofmann. Ele descreveu a estrutura da quitina e demonstrou os efeitos psicotrópicos do LSD enquanto estudava os alcalóides do ergot.
12	1	2022	20220112	12 de janeiro de 1916. Nasceu a química e inventora Ruth Rogan Benerito. Grande parte de seu trabalho foi voltado para a indústria têxtil, como o estudo do uso e lavagem de tecidos de algodão.
13	1	2022	20220113	13 de janeiro de 1900. Nasce a estatística Gertrude Mary Cox. Pesquisadora em design experimental, é conhecida pela publicação do livro Experimental Designs, juntamente com William G. Cochran.
14	1	2022	20220114	14 de janeiro de 1827. Nasceu o geógrafo, botânico e estatístico Pyotr Semionov-Tian-Shansky. Ele dirigiu a Sociedade Geográfica Russa por mais de 40 anos e incentivou a exploração do interior da Ásia.
15	1	2022	20220115	15 de janeiro de 1850. Nasce a matemática Sofia Kovalevskaya. Sua contribuição mais conhecida é o teorema de Cauchy-Kovalevskaya sobre equações diferenciais.
16	1	2022	20220116	16 de janeiro de 1969. Os astrônomos John Cocke e Michael Disney identificaram o componente óptico do Pulsar na Nebulosa do Caranguejo a partir do Steward Observatory no Arizona (EUA).
17	1	2022	20220117	17 de janeiro de 1955. Nasce a bioquímica Katalin Karikó. Junto com o imunologista Drew Weissman, desenvolveu a tecnologia que permite o uso terapêutico do mRNA (por exemplo, em vacinas contra a COVID-19).
18	1	2022	20220118	18 de janeiro de 1977. É descoberto que a bactéria Legionella pneumophila é a causa da doença da legionelose, uma forma de pneumonia.
19	1	2022	20220119	19 de janeiro de 2006. A NASA lança a sonda espacial New Horizons, que passou por Plutão em julho de 2015.
20	1	2022	20220120	20 de janeiro de 1910. Nasceu a naturalista Joy Adamson. Ela é conhecida por seu livro Born Free, no qual narrou sua experiência para salvar a leoa Elsa no Quênia.
21	1	2022	20220121	21 de janeiro de 1960. Morre Wu-Lien-Teh, o médico pioneiro no uso de máscaras para combater uma pandemia
22	1	2022	20220122	22 de janeiro de 1968. Lançamento da Apollo 5 com o primeiro módulo lunar não tripulado.
23	1	2022	20220123	23 de janeiro de 1918. Nasceu Gertrude Elion, farmacologista ganhadora do Prêmio Nobel. Ele ajudou a desenvolver a zidovudina (AZT), a primeira droga contra a AIDS.
24	1	2022	20220124	24 de janeiro de 1950. Percy LeBaron Spencer recebe uma patente para sua invenção revolucionária: o forno de microondas.
25	1	2022	20220125	25 de janeiro de 2006. Descobertas espécies de Paedocypris progenetica. Esta carpa endêmica de Sumatra tornou-se o menor vertebrado do mundo conhecido até agora: os maiores espécimes não excedem 10,3 mm.
26	1	2022	20220126	26 de janeiro de 1926. John Logie Baird mostra o primeiro sistema de televisão em funcionamento.
27	1	2022	20220127	27 de janeiro de 2013. O asteróide 274301 no cinturão principal do sistema solar é oficialmente chamado de Wikipedia.
28	1	2022	20220128	28 de janeiro de 1754. Sir Horace Walpole cunha a palavra serendipidade. Este termo designa uma descoberta valiosa que ocorre acidentalmente ou por acaso, como a descoberta da penicilina.
29	1	2022	20220129	29 de Janeiro de 1953. Morre a farmacêutica Manuela Barreiro Pico. Ela foi pioneira ao ser a primeira mulher a se matricular na Universidade de Santiago de Compostela em 1896. Depois de se formar, teve que insistir para obter permissão para exercer a profissão, algo que conseguiu em 1901.
30	1	2022	20220130	30 de janeiro de 1911. Nasce a astrônoma Marie Paris Pişmiş de Recillas. Ele descobriu 20 aglomerados abertos e 3 aglomerados globulares e trabalhou nas primeiras explicações da estrutura espiral das galáxias.
31	1	2022	20220131	31 de janeiro de 1862. O oculista Alvan Graham Clark, construtor de grandes objetivas para telescópios refratores, descobriu a anã branca Sirius B.
1	2	2022	20220201	1 de fevereiro de 1888. Nasceu a paleontóloga e educadora Winifred Goldring. Ela é conhecida por sua descrição de estromatólitos.
2	2	2022	20220202	2 de fevereiro de 1897. Nasce a matemática Gertrude Blanch. Pioneira em análise numérica e computação, em 1938 tornou-se diretora técnica do Mathematical Tables Project.
3	2	2022	20220203	3 de fevereiro de 2015. Nanopartículas biodegradáveis ​​são usadas pela primeira vez para matar células cancerosas em cérebros de animais. Com isso, há o prolongamento de suas vidas.
4	2	2022	20220204	4 de fevereiro de 1932. É publicada a Lei de Fundação que cria as Escolas de Estudos Árabes de Madri e Granada, com o objetivo de proteger e promover os estudos árabes na Espanha.
5	2	2022	20220205	5 de fevereiro de 1907. Anunciada a criação do primeiro plástico sintético: a baquelite.
6	2	2022	20220206	6 de fevereiro de 1894. Nasce a farmacêutica Zoe Rosinach Pedrol. Foi a primeira doutora espanhola em Farmácia, com a tese intitulada Difteria e bacilos pseudo-difteria.
7	2	2022	20220207	7 de fevereiro de 1825. Nasce o zoólogo Karl August Möbius. Ele introduziu a noção de biocenose –um conjunto de organismos de qualquer espécie que coexistem em um determinado espaço.
8	2	2022	20220208	8 de fevereiro de 2005. A cidade de Villanueva de la Sierra celebra o bicentenário de sua Festa da Árvore. É considerado o primeiro festival documentado em homenagem às árvores. Atualmente, muitos países já comemoram seu Dia da Árvore, lembrando sua importância para combater o efeito estufa ou a erosão.
9	2	2022	20220209	9 de fevereiro de 2000. A União Européia autoriza a vacina Porcilis Pesti. Este medicamento permite a imunização de suínos contra a peste suína clássica.
10	2	2022	20220210	10 de fevereiro de 1917. Nasce a enfermeira Elvira Dávila Ortiz. Foi pioneira na profissão de enfermagem e na transfusão de sangue na América Latina.
11	2	2022	20220211	11 de fevereiro de 1889. Nasce a paleontóloga Ekaterina Vladimirovna Lermontova. Ela foi responsável por criar a primeira estratigrafia cambriana da Sibéria e primeiro investigou trilobites na antiga União Soviética.
12	2	2022	20220212	12 de fevereiro de 1921. Nasce a paleontóloga Asunción Linares. Ele se destacou em seu trabalho de ensino e pesquisa, dirigindo 18 teses de doutorado e publicando mais de 100 artigos, principalmente sobre amonites.
13	2	2022	20220213	13 de fevereiro de 2012. Lançamento do satélite galego Xatcobeo. Seu objetivo era realizar pesquisas em comunicações e energia fotovoltaica para satélites.
14	2	2022	20220214	14 de fevereiro de 1862. Nasce a química Agnes Pockels, pioneira no campo da tensão superficial molecular e monocamadas.
15	2	2022	20220215	15 de fevereiro de 1905. Nasce a psiquiatra Nise da Silveira. Destaca-se pela luta contra as técnicas que considerava agressivas aos pacientes psiquiátricos.
16	2	2022	20220216	16 de fevereiro de 1880. Nasce o geneticista Kono Yasui. A partir de 1945, ele estudou as plantas afetadas pela precipitação radioativa que se seguiu aos bombardeios de Hiroshima e Nagasaki.
17	2	2022	20220217	17 de fevereiro de 923. Morre o historiador al-Tabari. Ele escreveu um dos comentários mais influentes sobre o Alcorão e uma obra de história universal que serviu de modelo para a produção historiográfica em árabe.
18	2	2022	20220218	18 de fevereiro de 1404. Nasce o arquiteto e matemático Leon Battista Alberti. Seu tratado sobre criptografia De Componendis Cyphris é o mais antigo conhecido no Ocidente. Analisa cifras monoalfabéticas e apresenta o primeiro exemplo de tabela de frequência.
19	2	2022	20220219	19 de fevereiro de 901. Morre o matemático e astrônomo Thabit ibn Qurra. Ele fez descobertas notáveis ​​em álgebra e geometria. Além de suas obras originais, suas traduções do grego para o árabe contribuíram para o renascimento da ciência clássica.
20	2	2022	20220220	20 de fevereiro de 1920. Nasce a química Zlata Bartl. Em 1959 criou o tempero Vegeta, que se tornaria um dos ingredientes mais populares da culinária do Leste Europeu.
21	2	2022	20220221	21 de fevereiro de 1804. A fabricação da primeira locomotiva a vapor automotora termina no País de Gales (Reino Unido).
22	2	2022	20220222	22 de fevereiro de 1857. Nasce Heinrich Hertz, a primeira pessoa a produzir e detectar ondas de rádio.
23	2	2022	20220223	23 de fevereiro de 1954. A primeira vacinação em massa contra a poliomielite começa na Arsenal Elementary School (Pittsburgh). O corpo discente desta escola recebeu a vacina Salk.
24	2	2022	20220224	24 de fevereiro de 1871. É publicado o livro: "A origem do homem", de Charles Darwin.
25	2	2022	20220225	25 de fevereiro de 1892. Nasce a microbiologista Emmy Klieneberger-Nobel. Foi pioneira no estudo dos micoplasmas. Ele descreveu pela primeira vez as diferenças entre essas e outras espécies de bactérias. Ele também descobriu as chamadas bactérias em forma de L, que não possuem parede celular.
26	2	2022	20220226	26 de fevereiro de 1935. Nasce a geneticista molecular Noreen Murray, que ajudou a desenvolver uma vacina contra a hepatite B. Foi a primeira vacina geneticamente modificada aprovada para uso em pessoas.
27	2	2022	20220227	27 de fevereiro de 1930. Nasce a paleontóloga Mary R. Dawson. No Ártico, ela e sua equipe descobriram os primeiros fósseis de animais terrestres do Terciário e mostraram uma rota de migração entre as Américas e a Europa, apoiando a teoria das placas tectônicas.
28	2	2022	20220228	28 de fevereiro de 1920. Nasceu a geomorfologista Marjorie Mary Sweeting. Especializada no fenômeno cárstico, ela adquiriu grande conhecimento sobre diferentes tipos de letra em suas viagens pelo mundo, especialmente para a China.
1	3	2022	20220301	1 de março de 1960. Nasce a bióloga molecular Ángela Nieto. Ele se destaca por sua pesquisa sobre mobilidade celular, que possibilitou entender como alterar esse processo.
2	3	2022	20220302	2 de março de 1779. Nasce o botânico e estadista Joel Roberts Poinsett. A poinsétia, a planta associada ao Natal, foi nomeada em sua homenagem.
3	3	2022	20220303	3 de março de 1917. Nasce a física Sameera Moussa. Especialista em radiação atômica, ela trabalhou para tornar o uso médico da tecnologia nuclear acessível a todos.
4	3	2022	20220304	4 de março de 1906. Nasce Eleanor Josephine Macdonald, pioneira em epidemiologia e pesquisa do câncer. Ele foi uma das primeiras pessoas a apresentar a ideia de que o câncer era uma doença evitável.
5	3	2022	20220305	5 de março de 1914. Nasce o físico nuclear He Zehui. Sua pesquisa em física nuclear inclui trabalhos pioneiros sobre fissão e aniquilação pósitron-elétron.
6	3	2022	20220306	6 de março de 2014. Um recife de coral vivo com uma área de 28 km² é descoberto nas águas do Iraque.
7	3	2022	20220307	7 de março de 1917. Nasce a programadora Betty Snyder Holberton. Ela foi uma das seis programadoras originais do primeiro computador digital de uso geral ENIAC. Suas contribuições para a linguagem COBOL também são famosas.
8	3	2022	20220308	8 de março de 1618. Johannes Kepler descobriu a lei harmônica, a terceira lei que leva seu nome. Sua afirmação é: "O quadrado dos períodos da órbita dos planetas é proporcional ao cubo da distância média do Sol".
9	3	2022	20220309	9 de março de 1911. Nasce Clara Rockmore, cujo nome está intimamente ligado ao teremim, o instrumento musical eletrônico que ela tocou durante anos e ajudou a aperfeiçoar.
10	3	2022	20220310	10 de março de 1941. Nasce George P. Smith. Ele recebeu o Prêmio Nobel por sua técnica para induzir a fabricação de proteínas por bactérias. Esta técnica tem sido fundamental para o desenvolvimento de enzimas e drogas.
11	3	2022	20220311	11 de março de 1997. A Electronic Frontier Foundation concede o Prêmio Pioneiro a Hedy Lamarr e George Antheil por terem desenvolvido a primeira versão do espectro espalhado para comunicações sem fio de longa distância. Esta invenção é considerada um precursor do Wi-Fi.
12	3	2022	20220312	12 de março de 1791. Morre o arabista, bibliógrafo e bibliotecário Miguel Casiri. Ele é o autor da Bibliotheca Arabico-Hispana Escurialensis (o catálogo de manuscritos árabes de El Escorial).
13	3	2022	20220313	13 de março de 1941. Nasce a cientista ambiental Donella Meadows. Ela era especialista em dinâmica de sistemas e a principal autora do relatório "OS limites do conhecimento", onde são propostos os chamados doze pontos de mudança sistêmica.
14	3	2022	20220314	14 de março de 1854. Nasce o médico e bacteriologista Paul Ehrlich. Ele recebeu um Prêmio Nobel junto com Ilya Mechnikov, em reconhecimento ao seu trabalho em imunologia.
15	3	2022	20220315	15 de março de 1813. Nasce o médico John Snow, considerado o pai da epidemiologia moderna. Ele mostrou que o consumo de água contaminada de uma fonte do Soho causou a epidemia de cólera em Londres em 1854.
16	3	2022	20220316	16 de março de 1789. Nasce o físico e matemático Georg Simon Ohm. Seus trabalhos sobre eletricidade levaram à chamada lei de Ohm, que relaciona a intensidade de uma corrente elétrica, sua força eletromotriz e sua resistência.
17	3	2022	20220317	17 de março de 1805. Nasce o barítono e professor de canto Manuel Patricio García. Seu interesse em estudar a voz humana o levou a inventar um instrumento para examinar a laringe: o laringoscópio.
18	3	2022	20220318	18 de março de 1964. Alexei Leonov realiza a primeira caminhada espacial na missão soviética Voskhod 2.
19	3	2022	20220319	19 de março de 1900. Nasce o físico e químico Frédéric Joliot-Curie, marido de Irène Joliot-Curie. Por insistência de sua sogra, Marie Skłodowska-Curie, ela recebeu seu doutorado em 1930. Cinco anos depois, Irène e Frédéric receberam o Prêmio Nobel por seu trabalho na síntese de novos elementos radioativos.
20	3	2022	20220320	20 de março de 1987. A zidovudina ou AZT é introduzida. Foi o primeiro medicamento antirretroviral indicado para pessoas infectadas pelo HIV.
21	3	2022	20220321	21 de março de 1946. Marguerite Perey defende sua tese de doutorado, intitulada Elemento 87: Actínio K. Sua última frase nomeia o elemento que acabara de descobrir: frâncio.
22	3	2022	20220322	22 de março de 1394. Nasce o sultão, astrônomo e matemático Ulugh Beg. Ele construiu o observatório astronômico Gurjani Zij, onde instalou instrumentos de grande tamanho e precisão: entre eles, um imenso sextante astronômico de três andares, um dos maiores já construídos.
23	3	2022	20220323	23 de março de 1840. John William Draper faz o que é considerada a primeira fotografia bem-sucedida de um objeto celeste. A Lua foi capturada com um daguerreótipo e um telescópio refletor de 13 polegadas. O tempo de exposição foi de 20 minutos.
24	3	2022	20220324	24 de março de 2009. Acontece o primeiro Ada Lovelace Day, uma celebração internacional das conquistas das mulheres em ciência, tecnologia, engenharia e matemática (STEM).
25	3	2022	20220325	25 de março de 2018. Pesquisadores da Universidade de Barcelona e do IGME descobrem a primeira evidência de comportamento de namoro sexual em colêmbolos de 105 milhões de anos atrás. Este grupo de artrópodes está próximo dos insetos.
26	3	2022	20220326	26 de março de 1902. Nasce Marion Cameron Gray, a matemática que deu nome ao gráfico de Gray.
27	3	2022	20220327	27 de março de 2014. Graças às campanhas de vacinação, a pólio foi erradicada do Sudeste Asiático.
28	3	2022	20220328	28 de março de 1927. Nasce a zoólogoa Theo Colborn. Ela era especialista em saúde ambiental e conhecida principalmente por seus estudos sobre desreguladores endócrinos.
29	3	2022	20220329	29 de março de 2008. Às 11h, acontece o nascimento legal da Associação Meteorológica do Sudeste (AMETSE). É uma das primeiras redes amadoras de ciência meteorológica na Espanha.
30	3	2022	20220330	30 de março de 1811. Robert Bunsen, inventor do bico de Bunsen, nasceu junto com seu aluno Henry Roscoe e o técnico Peter Desaga. Este queimador ainda é usado em quase todos os laboratórios do mundo.
31	3	2022	20220331	31 de março de 1927. Nasce a astrofísica Joan Feynman. Ela é conhecida por contribuir para a compreensão da origem das auroras e por descobrir um método para prever os ciclos de manchas solares.
1	4	2022	20220401	1 de abril de 1885. O médico Jaime Ferrán começa a inocular sua vacina contra a cólera em Valência para tentar deter a epidemia que se espalhava pela cidade. Foi a primeira vacina contra esta doença.
2	4	2022	20220402	2 de abril de 1647. Nasce a naturalista e pintora Maria Sibylla Merian. Ela foi uma precursora da entomologia moderna graças às suas observações meticulosas e suas descrições – ilustradas por ela mesma – da metamorfose das borboletas.
3	4	2022	20220403	3 de abril de 1973. Martin Cooper, pesquisador da Motorola, faz a primeira ligação telefônica usando um celular.
4	4	2022	20220404	4 de abril de 1785. O geólogo James Hutton faz sua primeira leitura pública da Teoria da Terra, uma das contribuições fundamentais da Geologia.
5	4	2022	20220405	5 de abril de 1925. Nasce a geneticista Janet Davison Rowley. Especializada em genética humana, ela identificou pela primeira vez a translocação cromossômica como a causa da leucemia e de outros cânceres.
6	4	2022	20220406	6 de abril de 1732. Nasce o botânico, matemático, astrônomo e médico José Celestino Mutis. Dirigiu a Real Expedição Botânica do Novo Reino de Granada (que durou 30 anos) e estudou as propriedades medicinais do quinino.
7	4	2022	20220407	7 de abril de 1827. O químico britânico John Walker vende a primeira caixa de fósforos, que havia inventado no ano anterior.
8	4	2022	20220408	8 de abril de 1917. Nasce a geneticista Irene Ayako Uchida. Ela contribuiu para a identificação da relação entre radiografias realizadas em gestantes e algumas doenças congênitas.
9	4	2022	20220409	9 de abril de 1903. Nasce a física Marion Amelia Spence Ross. Ela é conhecida por seu trabalho em cristalografia de raios-X e dinâmica de fluidos.
10	4	2022	20220410	10 de abril de 1922. Nasce a microbiologista Nancy Fannie Millis. Ele introduziu tecnologias de fermentação na Austrália e criou o primeiro curso para o ensino de microbiologia aplicada em uma universidade australiana.
11	4	2022	20220411	11 de abril de 1755. Nasce o médico James Parkinson. Ele descobriu a paralisia agitante ou a doença de Parkinson. Por isso, nesta data é comemorado o Dia Mundial do Parkinson.
12	4	2022	20220412	12 de abril de 1925. Nasce a engenheira de computação Evelyn Berezin. Ela é conhecida como a mãe dos processadores de texto, pois desenvolveu a ideia de um programa para armazenar e editar textos.
13	4	2022	20220413	13 de abril de 2009. Morre o arabista Julio Cortés Soroa. Foi autor de uma das melhores traduções do Alcorão para o espanhol e de um dicionário árabe-espanhol que é considerado uma das obras-primas da lexicografia bilíngue.
14	4	2022	20220414	14 de abril de 1198. Nasce o intelectual andaluz Ibn Rushd, conhecido como Averróis. Entre suas obras, destacam-se os comentários sobre a obra de Aristóteles e o Livro das Generalidades da Medicina.
15	4	2022	20220415	15 de abril de 1874. Nasce o geneticista e botânico George Harrison Shull. Ele cultivou novas variedades puras de milho e depois as cruzou. Ele mostrou que a prole híbrida era mais vigorosa e previsível, ideal para cultivo comercial.
16	4	2022	20220416	16 de abril de 1955. O filólogo Jacques Perret inventou a palavra computador –do francês ordinateur– em uma carta endereçada à empresa IBM.
17	4	2022	20220417	17 de abril de 1942. Nasce a vulcanóloga Katia Krafft. Seus relatórios gráficos ajudaram a desenvolver o estudo dos vulcões e convencer a população da necessidade de evacuar áreas potencialmente perigosas.
18	4	2022	20220418	18 de abril de 1955. Morre o físico Albert Einstein. Ele desenvolveu a teoria da relatividade e deduziu a equação física mais famosa da história: E=mc².
19	4	2022	20220419	19 de abril de 1870. Nasce a cirurgiã Vera Gedroitz. Suas operações de laparotomia durante a Guerra Russo-Japonesa foram muito bem sucedidas. Por isso, o exército russo adotou esse método para o tratamento de feridas abdominais penetrantes.
20	4	2022	20220420	20 de abril de 1887. Nasce a fitopatologista e psicóloga Margaret Newton. Ele conduziu pesquisas pioneiras sobre a ferrugem do caule (Puccinia graminis), particularmente seu efeito sobre o trigo.
21	4	2022	20220421	21 de abril de 1830. Nasce o filósofo e cientista Clémence Augustine Royer. A ele deve-se a primeira tradução francesa de A Origem das Espécies, de Charles Darwin, introduzindo o darwinismo na França.
22	4	2022	20220422	22 de abril de 1992. Morre o horticultor e botânico Walther Haage, especialista em cactos. Ele financiou expedições de busca de novos cactos, realizou hibridizações e publicou guias para o cuidado dessas plantas.
23	4	2022	20220423	23 de abril de 1941. Nasce o engenheiro Ray Tomlinson, inventor do correio eletrônico.
24	4	2022	20220424	24 de abril de 1787. Nasce Mateo Orfila, médico e químico espanhol considerado o pai da toxicologia científica.
25	4	2022	20220425	25 de abril de 1953. Watson e Crick publicam a estrutura do DNA na revista Nature, pela qual receberam o Prêmio Nobel em 1962. Sua colaboradora, a física Rosalind Franklin, que não foi homenageada ao morrer em 1958, também não foi mencionada em seus discursos de aceitação.
26	4	2022	20220426	26 de abril de 2016. A bioquímica espanhola Margarita Salas inaugura a sala que leva seu nome no Museu Didático e Interativo de Ciências Vega Baja del Segura (MUDIC-VBS-CV).
27	4	2022	20220427	27 de abril de 1923. Nasce o químico Shen Tianhui. Sua pesquisa se concentrou na análise de minas de terras raras e molibdênio e na fabricação de silício superpuro com triclorossilano.
28	4	2022	20220428	28 de abril de 1854. Nasce a física e engenheira Hertha Ayrton. Ela é conhecida por seu trabalho em arcos elétricos e ondas na areia e na água.
29	4	2022	20220429	29 de abril de 2016. O OceanOne, um robô humanóide capaz de se mover no fundo do mar usando hélices, é revelado.
30	4	2022	20220430	30 de abril de 1879. O físico J. J. Thomson anuncia a descoberta do elétron, a primeira partícula subatômica descoberta.
1	5	2022	20220501	1 de maio de 1956. Joe Hin Tjio (Estação Experimental Aula Dei, CSIC) e Albert Levan (Universidade de Lund, Suécia) publicam o número exato de cromossomos da espécie humana (46) na revista Hereditas.
2	5	2022	20220502	2 de maio de 1800. A primeira eletrólise da água é realizada pelos químicos William Nicholson e Anthony Carlisle.
3	5	2022	20220503	3 de maio de 1849. Nasce a pioneira automotiva Bertha Ringer (mais tarde, Bertha Benz). Ele inventou as pastilhas de freio e chamou a atenção mundial da empresa Benz Patent-Motorwagen dirigindo um carro por uma longa distância (105 km).
4	5	2022	20220504	4 de maio de 2012. A Enciclopédia Mecânica inventada pela professora Ángela Ruiz Robles entra na exposição permanente do Museu Nacional de Ciência e Tecnologia (MUNCYT). Esse precursor do livro eletrônico incluía uma forte perspectiva de atenção à diversidade, com a possibilidade de montagem de áudios e lupas para alunos com problemas de acesso.
5	5	2022	20220505	5 de maio de 1892. Nasce a arqueóloga Annie Elizabeth Dorothy Garrod. Ele trabalhou em vários sítios pré-históricos na Grã-Bretanha, Gibraltar, região do Curdistão, Oriente Médio e Líbano.
6	5	2022	20220506	6 de maio de 1882. Nasce a zoóloga e ecologista Ann Haven Morgan. Ele pesquisou limnologia, hibernação animal e outras questões relacionadas à ecologia e ao meio ambiente.
7	5	2022	20220507	7 de maio de 1899. Nasce a bioquímica Arda Alden Green. Ele fez importantes descobertas sobre serotonina e bioluminescência.
8	5	2022	20220508	8 de maio de 1926. Nasce o naturalista britânico David Attenborough, famoso apresentador de documentários de ciência popular.
9	5	2022	20220509	9 de março de 1945. Nasce o químico e virologista Luis Enjuanes. Ele é reconhecido por dirigir o laboratório de coronavírus do Centro Nacional de Biotecnologia (CNB, CSIC).
10	5	2022	20220510	10 de maio de 1946. Nasce o etólogo Birutè Galdikas. Sua especialidade é primatologia, especificamente orangotangos.
11	5	2022	20220511	11 de maio de 1881. Nasce Theodore von Kármán, pai da aerodinâmica moderna e da propulsão espacial com combustível líquido.
12	5	2022	20220512	12 de maio de 1977. Nasce a matemática Maryam Mirzakhani. Ela foi a primeira mulher a receber a Medalha Fields, o maior prêmio concedido pela comunidade matemática internacional.
13	5	2022	20220513	13 de maio de 1883. Nasce o médico Georgios Papanicolaou. Ele desenvolveu um teste para a detecção precoce do câncer do colo do útero: o papanicolau ou citologia vaginal.
14	5	2022	20220514	14 de maio de 1796. O menino James Phipps torna-se a primeira pessoa a ser vacinada na história. Edward Jenner administrou a vacina que havia desenvolvido contra a varíola.
15	5	2022	20220515	15 de maio de 1857. Nasce a astrônma Williamina Fleming. Ele descobriu a famosa Nebulosa Cabeça de Cavalo, bem como um grande número de novas, nebulosas gasosas e estrelas variáveis.
16	5	2022	20220516	16 de maio de 1954. Nasce a oceanógrafa Cindy Lee Van Dover. Ela foi a primeira mulher a pilotar o submarino Alvin, o mais importante da história da exploração oceânica.
17	5	2022	20220517	17 de maio de 2014. Descoberto na Argentina o dinossauro Patagotitan mayorum, o maior conhecido até hoje, com 40 m de comprimento, 20 m de altura e 77 toneladas de peso.
18	5	2022	20220518	18 de maio de 1850. Nasce Oliver Heaviside. Ele desenvolveu métodos matemáticos para resolver equações diferenciais.
19	5	2022	20220519	19 de maio de 1804. O jornal El Regañón General publica a ordem do prefeito de León para vacinar contra a varíola em seu distrito. Para vencer a desconfiança da população e mostrar a segurança da vacina, o prefeito e o cirurgião Antonio José Fernández fizeram um pequeno tour pelas aldeias acompanhando pessoas já vacinadas, que também atuavam como portadoras da vacina.
20	5	2022	20220520	20 de maio de 1873. Levi Strauss e Jacob Davis patentearam o processo de colocar rebites nos pontos de tensão das calças de trabalho, dando-lhes grande resistência. Assim nasceu o famoso jeans azul.
21	5	2022	20220521	21 de maio de 1799. Nasce a paleontóloga Mary Anning. Ele identificou o primeiro esqueleto de ictiossauro e encontrou os dois primeiros esqueletos de plesiossauro, bem como o primeiro esqueleto de pterossauro fora da Alemanha.
22	5	2022	20220522	22 de maio de 1909. Nasce a ilustradora botânica Margaret Mee. Ela foi uma das primeiras ambientalistas a aumentar a conscientização sobre o impacto da mineração em grande escala e do desmatamento na bacia amazônica.
23	5	2022	20220523	23 de maio de 1922. Nasce a física e química Esther M. Conwell. Ela estudou as propriedades de semicondutores e condutores orgânicos, especialmente o transporte de elétrons.
24	5	2022	20220524	24 de maio de 1032. Séculos antes da invenção do telescópio, Ibn Sina (Avicenna) observou e descreveu pela primeira vez o trânsito de Vênus em frente ao Sol, um fenômeno astronômico raro.
25	5	2022	20220525	25 de maio de 2016. O Prêmio Princesa das Astúrias é entregue a Mary Beard, especialista no estudo da civilização romana. O seu grande trabalho de divulgação permitiu aproximar os clássicos do grande público.
26	5	2022	20220526	26 de maio de 1689. Nasce Mary Wortley Montagu, intelectual e precursora da inoculação da varíola, técnica que ela observou na Turquia e importou para a Inglaterra trinta anos antes dos estudos de Edward Jenner.
27	5	2022	20220527	27 de maio de 1332. Nasce Ibn Khaldun. Considerado o precursor da sociologia, antropologia e outras ciências sociais, ele é conhecido principalmente por seu Muqaddima ou "Introdução" ao seu trabalho de história mundial, no qual expõe sua filosofia da história.
28	5	2022	20220528	28 de maio de 1955. Nasce Dan S. Tawfik, pioneiro no estudo dos fatores que possibilitam a evolução em nível molecular, como a estabilidade ou a promiscuidade das enzimas.
29	5	2022	20220529	29 de maio de 1929. Nasce o físico teórico Peter Higgs, que dá nome ao bóson de Higgs. Essa partícula elementar não tem spin, carga elétrica ou cor e decai rapidamente: sua meia-vida é de cerca de um zeptosegundo.
30	5	2022	20220530	30 de maio de 1928. Nasce Nina Georgievna Vinogradova. Ele descobriu como as espécies animais se distribuem em mares profundos e criou o primeiro mapa zoogeográfico do oceano abissal.
31	5	2022	20220531	31 de maio de 1912. Nasce a física Chien-Shiung Wu. Ela mostrou que o princípio da paridade não se sustenta na natureza.
1	6	2022	20220601	1 de junho de 1905. Nasce o veterinário Max Sterne. Em 1935 ele preparou uma vacina atenuada contra o antraz, uma doença infecciosa causada pela bactéria Bacillus anthracis.
2	6	2022	20220602	2 de junho de 1882. Nasce o geólogo Ebba Hult de Geer. Juntamente com Gerard de Geer, ele usou argila depositada em leitos de lagos glaciais como evidência de climas antigos (paleoclimatologia). Isso possibilitou estabelecer uma história climática global.
3	6	2022	20220603	3 de junho de 1844. Nasce o matemático e historiador Paul Mansion. Publicou sobre a história da ciência e traduziu para o francês textos de matemáticos famosos, como Riemann, Plücker e Clebsch.
4	6	2022	20220604	4 de junho de 1905. Nasce o filólogo e arabista Emilio García Gómez, primeiro diretor da Escola de Estudos Árabes de Granada. Recebeu o Prémio Príncipe das Astúrias de Comunicação e Humanidades em 1992.
5	6	2022	20220605	5 de junho de 1949. Nasce a bióloga Susan Lindquist. Ela é conhecida por seu trabalho no estudo do dobramento de proteínas.
6	6	2022	20220606	6 de junho de 2016. A astrofísica Rosemary Wyse recebe o Prêmio Brouwer por seu trabalho em galáxias de disco.
7	6	2022	20220607	7 de junho de 1933. Nasce Tsuneko Okazaki, uma das primeiras estudantes universitárias japonesas. Junto com seu marido Reiji, ela contribuiu com grandes avanços no estudo do DNA, como a descoberta dos fragmentos de Okazaki.
8	6	2022	20220608	8 de junho de 1637. René Descartes publica o Discurso do Método, uma das obras fundamentais no desenvolvimento da ciência.
9	6	2022	20220609	9 de junho de 1903. Nasce a bioquímica Sarah Ratner. Suas contribuições para o estudo do metabolismo do nitrogênio ajudaram a entender os distúrbios da síntese de uréia nas pessoas.
10	6	2022	20220610	10 de junho de 940. Nasce o astrônomo e matemático Abú al-Wafá Buzjani. Ele é conhecido principalmente por suas contribuições para a trigonometria plana e esférica.
11	6	2022	20220611	11 de junho de 1896. Nasce a parasitologista Eloise Blaine Cram. Ela estudou vermes intestinais e foi pioneira no controle da esquistossomose, doença endêmica em regiões tropicais, devido ao parasita Schistosoma.
12	6	2022	20220612	12 de junho de 1908. Inauguração de Rotherhithe, o maior túnel de ferro submarino do mundo, que passa sob o Tâmisa (Londres).
13	6	2022	20220613	13 de junho de 2012. Anúncio do mapeamento da composição do microbioma humano. Esse resultado do Projeto Microbioma Humano (HMP) foi alcançado por meio de técnicas de sequenciamento de genoma e 242 voluntários.
14	6	2022	20220614	14 de junho de 1897. Nasce Marcelino Pascua, uma das principais figuras da saúde pública espanhola, epidemiologia e bioestatística, e um dos fundadores e diretor sênior da OMS.
15	6	2022	20220615	15 de junho de 2021. A 1ª edição dos Prêmios Fundação CSIC-BBVA para a Comunicação Científica concedeu o prêmio na categoria de pesquisadores a Alfredo Corell, Margarita del Val, José Antonio López Guerrero, Ignacio López-Goñi e Antoni Trilla, por serem os voz da ciência na pandemia do coronavírus e transmitir conhecimento em uma linguagem acessível ao público em geral.
16	6	2022	20220616	16 de junho de 2020. Morre o arabista Federico Corriente, especialista em lexicografia e dialetologia andaluza. Foi um pioneiro dos estudos linguísticos da língua árabe na Espanha, bem como da semiótica comparada.
17	6	2022	20220617	17 de junho de 1543. O inventor Blasco de Garay faz uma exposição no porto de Barcelona. Este marinheiro havia criado uma máquina com rodas de pás que, movidas por pessoas, funcionavam como motor de um navio.
18	6	2022	20220618	18 de junho de 2013. Hologramas 3D de alta definição desenvolvidos para ensinar anatomia a estudantes de medicina.
19	6	2022	20220619	19 de junho de 1896. Nasce a física e química Sonia Cotelle. Ela investigou polônio e actínio em colaboração com Marie Skłodowska-Curie e determinou a meia-vida do ionium (antigo nome do tório-230).
20	6	2022	20220620	20 de junho de 1894. Nasce o químico e inventor Lloyd Augustus Hall. Ele contribuiu para a ciência da preservação de alimentos com patentes para novos métodos de esterilização, cura de carnes ou uso de antioxidantes.
21	6	2022	20220621	21 de junho de 1809. Nasce Pascual de Gayangos. Ele escreveu inúmeras obras sobre arabismo, história da literatura, catalogação e bibliografia. Sua grande obra foi a tradução para o inglês da História das dinastias muçulmanas na Espanha, por al-Maqqari.
22	6	2022	20220622	22 de junho de 1850. Nasce Fannie Hesse, microbiologista e descobridora do ágar-ágar como agente gelificante para meios de cultura em microbiologia.
23	6	2022	20220623	23 de junho de 1836. Nasce Francisco Codera y Zaidín. Ele é considerado o fundador da escola moderna de arabistas espanhóis. Juntamente com um grupo de colaboradores, publicou várias fontes andaluzas inéditas.
24	6	2022	20220624	24 de junho de 2012. Morre George Solitário, sem deixar descendentes. É considerado o último espécime da tartaruga gigante Pinta (Chelonoidis abingdonii), que habitou as Ilhas Galápagos.
25	6	2022	20220625	25 de junho de 1498. Um imperador chinês apresentou a primeira escova de dentes com cerdas. Estes eram cortados do pescoço de porcos e costurados em cabos de bambu ou osso. Os comerciantes trouxeram esta invenção para a Europa.
26	6	2022	20220626	26 de junho de 2013. O ônibus espacial chinês Shenzhou 10 retorna com segurança à Terra após completar a missão tripulada mais longa da China até hoje.
27	6	2022	20220627	27 de junho de 1859. O químico francês Edmond Fremy publica seu trabalho "Cutícula de vegetais", onde a cutina é descrita pela primeira vez. É o poliéster natural mais comum.
28	6	2022	20220628	28 de junho de 1909 e 1995. Nasce e faleceu o médico e pesquisador Francisco Grande Covián, respectivamente. Ele é considerado o primeiro especialista em nutrição na Espanha.
29	6	2022	20220629	29 de junho de 1893. Nasce Prasanta Chandra Mahalanobis. Ele se destacou na área de estatística aplicada e introduziu a distância de Mahalanobis, uma medida de distância estatística muito útil porque determina a semelhança entre duas variáveis ​​aleatórias multidimensionais.
30	6	2022	20220630	30 de junho de 1933. Mary Calder, paleobotânica que estudou plantas fósseis do Carbonífero e do Jurássico, recebe seu Ph.D. pela Universidade de Glasgow.
1	7	2022	20220701	1 de julho de 1858. Charles Darwin e Alfred Russel Wallace apresentam a comunicação que estabelece os princípios da teoria da evolução pela seleção natural.
2	7	2022	20220702	2 de julho de 1911. Nasce a epidemiologista, virologista e pediatra Dorothy M. Horstmann. Seu trabalho sobre a disseminação do poliovírus pelo sangue ajudou a lançar as bases para a vacina contra a poliomielite.
3	7	2022	20220703	3 de julho de 1886. Nasce a naturalista Elsie Maud Wakefield. Ele publicou quase 100 artigos sobre micologia e fitopatologia, onde muitas novas espécies de plantas foram descritas.
4	7	2022	20220704	4 de julho de 1854. Nasce Victor Babeş, o microbiologista romeno que primeiro isolou o protozoário Babesia.
5	7	2022	20220705	5 de julho de 2018. O primeiro Dia do Orgulho LGTBIQA+ é comemorado nas disciplinas de ciência, tecnologia, matemática e engenharia.
6	7	2022	20220706	6 de julho de 1973. Laurens Hammond, inventor do órgão Hammond, morre. Este instrumento é baseado nos princípios de eletromagnetismo e amplificação através de alto-falantes individuais.
7	7	2022	20220707	7 de julho de 1843. Nasceu o médico Camillo Golgi. Ele desenvolveu métodos de coloração de células para o estudo de neurônios. Ele deu seu nome ao aparelho de Golgi, uma organela presente nas células eucarióticas.
8	7	2022	20220708	8 de julho de 1925. Nasce a cientista de alimentos Alina Surmacka Szczesniak. Ela desenvolveu a Análise Sensorial do Perfil de Textura, que analisa, quantifica e coloca na ordem correta todas as propriedades texturais percebidas desde a colocação de um alimento na boca até sua última partícula ser ingerida.
9	7	2022	20220709	9 de julho de 1933. Nasce o neurologista e divulgador Oliver Sacks, autor de inúmeros livros sobre casos de pacientes com doenças neurológicas (alguns adaptados para o cinema), como Tempos de Despertar (Despertares).
10	7	2022	20220710	10 de julho de 1960. Nasce a microbiologista Maria Cruz Martín, especialista na aplicação de técnicas moleculares em áreas como microbiologia clínica, segurança alimentar e biotecnologia. Ela foi pioneira na edição de genomas bacterianos.
11	7	2022	20220711	11 de julho de 1881. Nasceu a astrônoma Elizabeth Martin Lewis. Ela trabalhou como uma "calculadora astronômica" para Simon Newcomb, com quem adquiriu vasta experiência em eclipses. Ele desenvolveu métodos para determinar eclipses e prever ocultações lunares.
12	7	2022	20220712	12 de julho de 1898. Nasceu a botânica Bea Schol-Schwarz. Especializada em fitopatologia, foi uma das descobridoras da causa da grafiose: fungos do gênero Ophiostoma.
13	7	2022	20220713	13 de julho de 1944. Nasce o escultor Ernő Rubik. Ele patenteou o cubo mágico, uma invenção agora conhecida como cubo de Rubik.
14	7	2022	20220714	14 de julho de 1805. O Bispo de León escreve uma circular aos hospitais e paróquias sob sua responsabilidade pedindo que colaborem na vacinação contra a varíola. Em uma carta dura, ele acusou famílias que negaram a vacina a suas filhas e filhos de assassinato. Esta vacina, a primeira da história, conseguiu salvar milhões de vidas e erradicar a doença.
15	7	2022	20220715	15 de julho de 1928. Nasce o microbiologista Carl Woese. Ele criou uma nova classificação de seres vivos com base no RNA ribossômico e descobriu um novo domínio, que conhecemos como Archaea.
16	7	2022	20220716	16 de julho de 1904. Nasce o bioquímico Harold Dadford West. Ele foi o primeiro a sintetizar o aminoácido treonina.
17	7	2022	20220717	17 de julho de 1894. Nasce Georges-Henri Lemaître, o físico que propôs a teoria do Big Bang.
18	7	2022	20220718	18 de julho de 1921. Um bebê recém-nascido em Paris recebe a primeira vacina BCG contra tuberculose. Sua mãe havia morrido desta doença após o parto. Essa vacina é a mais antiga em uso e, até o momento, a principal arma para erradicar essa doença.
19	7	2022	20220719	19 de julho de 1921. Nasce a biofísica Rosalyn S. Yalow. Recebeu o Prêmio Nobel pelo desenvolvimento do radioimunoensaio de hormônios peptídicos.
20	7	2022	20220720	20 de julho de 1804. Nasce o biólogo e paleontólogo Richard Owen. Notável por seu trabalho em anatomia comparada e sua definição do conceito de homologia em biologia.
21	7	2022	20220721	21 de julho de 1932. Nasce a bioquímica Audrey Stevens Niyogi. Ela é conhecida por isolar o inibidor que leva seu nome, uma proteína que inibe a RNA polimerase.
22	7	2022	20220722	22 de julho de 1922. Morre Jōkichi Takamine, descobridor do processo de extração e cristalização da adrenalina, que permitiu sua comercialização. Tornou-se uma das primeiras drogas de uso em massa do século 20.
23	7	2022	20220723	23 de julho de 1972. É lançado o primeiro satélite Landsat, destinado a observar a superfície da Terra em alta resolução. A cientista Valerie Thomas supervisionou o desenvolvimento dos primeiros programas de processamento de imagem Landsat.
24	7	2022	20220724	24 de julho de 2018. Uma equipe do CSIC e do IGME descobre uma nova falha no Mar de Alboran, na fronteira entre as placas tectônicas euro-asiática e africana.
25	7	2022	20220725	25 de julho de 1956. Nasceu a engenheira química Frances Arnold. Ele ganhou o Prêmio Nobel de Química por desenvolver a evolução dirigida de enzimas.
26	7	2022	20220726	26 de julho de 1886. Nasceu a cristalógrafa e geóloga Mary Winearls Porter. Ela é conhecida por suas contribuições para a cristalografia e suas publicações sobre arquitetura romana antiga.
27	7	2022	20220727	27 de julho de 1982. É proposto o termo AIDS (síndrome da imunodeficiência adquirida) para denominar o conjunto de doenças causadas pela infecção pelo HIV.
28	7	2022	20220728	28 de julho de 1923. Nasce a especialista em ciência da computação Xia Peisu. Desenvolveu o Modelo 107, o primeiro computador eletrônico multiuso da China. Ela é conhecida como a mãe da computação neste país.
29	7	2022	20220729	29 de julho de 1936. Nasce a bioquímica Phoebe Starfield Leboy. Ela investigou modificações de ácidos nucleicos e regeneração óssea com células-tronco adultas. Isso a colocou na vanguarda da epigenética e da medicina regenerativa.
30	7	2022	20220730	30 de julho de 1886. Nasce o médico e reformador social Muthulakshmi Reddi. Recomendou a inspeção médica sistemática dos alunos nas escolas, promoveu a pesquisa sobre o câncer e apoiou ações em prol da igualdade entre mulheres e homens.
31	7	2022	20220731	31 de julho de 2008. A NASA anuncia a descoberta de água em Marte.
1	8	2022	20220801	1 de agosto de 2001. Rita Levi-Montalcini, neurobióloga ganhadora do Prêmio Nobel, é nomeada senadora vitalícia no parlamento italiano.
2	8	2022	20220802	2 de agosto de 1904. Nasce o arabista Salvador Vila Hernández. Ele investigou sobre instituições e formas notariais da Espanha muçulmana. Foi diretor da Escola de Estudos Árabes (CSIC) e reitor da Universidade de Granada.
3	8	2022	20220803	3 de agosto de 1927. É estabelecida uma conexão de telefonia sem fio entre Berlim e Buenos Aires.
4	8	2022	20220804	4 de agosto de 1693. Data tradicionalmente atribuída à descoberta do champanhe pelo monge Dom Pérignon.
5	8	2022	20220805	5 de agosto de 1969. A sonda espacial americana Mariner 7 emite novas fotos do planeta Marte. Foram as imagens mais nítidas obtidas até então.
6	8	2022	20220806	6 de agosto de 1924. Nasce a bioquímica Winifred Watkins. Ela investigou a ciência do sangue e dos grupos sanguíneos. Recebeu vários prêmios por suas contribuições para a transfusão de sangue.
7	8	2022	20220807	7 de agosto de 2015. Morre a farmacologista Frances Oldham Kelsey. Supervisora da Food and Drug Administration (EUA), recusou-se a autorizar a venda do medicamento talidomida devido a dúvidas sobre sua segurança.
8	8	2022	20220808	8 de agosto de 2013. Uma nova vacina contra a malária é testada com uma taxa de eficácia de até 100%.
9	8	2022	20220809	9 de agosto de 1794. Nasce o zoólogo Achille Valenciennes. Seus estudos sobre os parasitas de seres humanos representam uma importante contribuição para a parasitologia.
10	8	2022	20220810	10 de agosto de 1937. George Beauchamp recebe sua patente para a guitarra elétrica. Embora o nome oficial fosse Rickenbacker Electro A-22, esta guitarra ficou conhecida como "a frigideira".
11	8	2022	20220811	11 de agosto de 2020. É registrado o Gam-COVID-Vac, mais conhecido como Sputnik V. É a primeira vacina contra o COVID-19 a ser autorizada no mundo.
12	8	2022	20220812	12 de agosto de 1990. A paleontóloga Sue Hendrickson descobre Sue, o maior e mais bem preservado espécime de Tiranossauro rex já encontrado.
13	8	2022	20220813	13 de agosto de 2008. Morre a bioquímica Anna Macleod. Em 1975, ela foi nomeada a primeira professora de cerveja do mundo.
14	8	2022	20220814	14 de agosto de 1991. O físico Paul Ginsparg lançou um boletim eletrônico para a troca de artigos ainda não publicados em um subcampo da física teórica de altas energias. Hoje é o conhecido repositório arXiv.
15	8	2022	20220815	15 de agosto de 2017. Francisco Juan Martínez Mojica, Emmanuelle Charpentier, Jennifer Doudna, Luciano Marraffini e Feng Zhang recebem o Prêmio Albany Medical Center. Este prêmio é um dos mais prestigiados em medicina e pesquisa biomédica e reconheceu seu papel no desenvolvimento de tecnologias CRISPR para edição de genoma.
16	8	2022	20220816	16 de agosto de 1849. Nasce o químico Johan Kjeldahl. Ele desenvolveu um método de análise para determinar a quantidade de nitrogênio em compostos orgânicos. O método Kjeldahl foi nomeado em sua homenagem.
17	8	2022	20220817	17 de agosto de 1970. É lançada a Venera 7, o primeiro veículo espacial a transmitir com sucesso dados da superfície de outro planeta (Vênus).
18	8	2022	20220818	18 de agosto de 1987. Aprovado o primeiro teste em pessoas de uma vacina candidata contra o vírus da imunodeficiência humana (HIV).
19	8	2022	20220819	19 de agosto de 1839. Louis Daguerre anuncia a invenção do processo fotográfico chamado daguerreótipo, o primeiro a permitir a fixação permanente de uma imagem.
20	8	2022	20220820	20 de agosto de 1911. Nasce a virologista Isabel Morgan. Ela participou do desenvolvimento de uma vacina que protegeu macacos contra a poliomielite, um passo fundamental na corrida para erradicar a doença.
21	8	2022	20220821	21 de agosto de 1874. Nasce Eleanor Daves-Colley, uma das primeiras cirurgiãs a operar no Reino Unido e fundadora do South London Hospital for Women and Children.
22	8	2022	20220822	22 de agosto de 1934. Nasce o físico e astrônomo Samuel Pierpont Langley. Ele inventou o bolômetro, que mede a quantidade total de radiação eletromagnética proveniente de um objeto em todos os comprimentos de onda.
23	8	2022	20220823	23 de agosto de 1917. Nasce a bioquímica e farmacologista Marjorie Horning. Ela foi pioneira em cromatografia ao desenvolver novas técnicas para o estudo do metabolismo de drogas.
24	8	2022	20220824	24 de agosto de 2006. A União Astronômica Internacional aprova a nova definição de planeta. Ao excluir Plutão, os planetas do sistema solar reduziram seu número de nove para oito.
25	8	2022	20220825	25 de agosto de 1858. Descoberto o tesouro Guarrazar, um dos maiores achados arqueológicos ligados aos visigodos. Entre outras peças, destacam-se as magníficas coroas votivas.
26	8	2022	20220826	26 de agosto de 865. Nasce o médico e escritor Abū Bakr Muhammad ibn Zakarīyā al-Rāzī, conhecido como al-Razi. Ele escreveu al-Hawi, uma colossal enciclopédia médica, e realizou a primeira destilação de petróleo para obter querosene. É considerado o descobridor do ácido sulfúrico e do etanol, bem como do uso deste último na medicina.
27	8	2022	20220827	27 de agosto de 1947. Nasce a virologista Flossie Wong-Staal. Ela foi a primeira pessoa a clonar o vírus da imunodeficiência humana (HIV) e determinar a função de seus genes, um passo fundamental para provar que ele causava a AIDS.
28	8	2022	20220828	28 de agosto de 1927. Nasceu a bioquímica Betty Twarog. Ela foi a primeira pessoa a encontrar serotonina no cérebro dos mamíferos.
29	8	2022	20220829	29 de agosto de 1914. Nasce o físico-químico Bernard Vonnegut. Ele descobriu que o iodeto de prata pode ser usado como agente nucleante para semear nuvens.
30	8	2022	20220830	30 de agosto de 1919. Nasceu o microbiologista Maurice Hilleman. Ele desenvolveu cerca de 40 vacinas, algumas tão relevantes quanto as de sarampo, caxumba, hepatite A, hepatite B, varicela, meningite, pneumonia e Haemophilus influenzae.
31	8	2022	20220831	31 de agosto de 1909. Sahachiro Hata injetou arsfenamina em um coelho com sífilis: no dia seguinte, o coelho estava curado. Assim, um dos primeiros medicamentos para curar uma doença infecciosa com alta mortalidade foi alcançado.
1	9	2022	20220901	1 de setembro de 1979. A sonda Pioneer 11 torna-se a primeira a visitar o planeta Saturno, sobre o qual sobrevoa a 21.000 quilômetros.
2	9	2022	20220902	2 de setembro de 2020. Cientistas da Universidade de Toronto encontram microfibras azuis de roupas jeans na água do Ártico. Eles também revelaram que um único par de jeans libera cerca de 50.000 partículas minúsculas por lavagem.
3	9	2022	20220903	3 de setembro de 1992. Morre a botânica Barbara McClintock. Ela recebeu o Prêmio Nobel por suas descobertas no campo do rearranjo genético.
4	9	2022	20220904	4 de setembro de 1939. Alan Turing começa a trabalhar em Bletchley Park, onde eles decifraram códigos secretos alemães na Segunda Guerra Mundial.
5	9	2022	20220905	5 de setembro de 2012. O astronauta Akihiko Hoshide tirou sua famosa selfie enquanto orbitava a Terra na Estação Espacial Internacional. A foto, em que o Sol é visto ao fundo, viralizou nas redes sociais.
6	9	2022	20220906	6 de setembro de 1929. Nasce a física Ljubov Rebane. Ele introduziu a espectroscopia a laser na educação e treinou toda uma geração de especialistas na área.
7	9	2022	20220907	7 de setembro de 1936. O último tigre da Tasmânia morre. Seu nome era Benjamin, mas suspeita-se que ele era, na verdade, uma fêmea. Todo dia 7 de setembro, a Austrália comemora o Dia das Espécies Ameaçadas.
8	9	2022	20220908	8 de setembro de 1954. O médico e virologista Jonas Salk apresenta sua vacina contra a poliomielite, fundamental na erradicação desta doença altamente mortal.
9	9	2022	20220909	9 de setembro de 1947. O primeiro caso registrado de um erro de computador: uma mariposa presa no relé do computador Mark II da Universidade de Harvard.
10	9	2022	20220910	10 de setembro de 1926. Nasce o microbiologista Thomas Brock. Ele estudou as bactérias que vivem em temperaturas muito altas em Yellowstone. Seu trabalho foi a base para o desenvolvimento da reação em cadeia da polimerase (PCR).
11	9	2022	20220911	11 de setembro de 1884. Nasce o físico Harvey Fletcher. Ele fez inúmeras contribuições em acústica e é creditado com a invenção do aparelho auditivo.
12	9	2022	20220912	12 de setembro de 1957. O New England Journal of Medicine publica os resultados dos primeiros 6 transplantes de medula óssea, técnica que permite tratar leucemia ou mieloma múltiplo. Seu autor, E. Donnall Thomas, recebeu o Prêmio Nobel em 1990.
13	9	2022	20220913	13 de setembro de 1853. Nasce o bacteriologista Hans Christian Gram. Ele desenvolveu a coloração de Gram, uma coloração diferencial usada para visualizar e diferenciar bactérias.
14	9	2022	20220914	14 de setembro de 1912. Nasce a bioquímica Kamala Sohonie. Ela investigou os efeitos das vitaminas e os valores nutricionais de leguminosas, arroz e outros alimentos consumidos pelos setores mais pobres da Índia.
15	9	2022	20220915	15 de setembro de 1830. É inaugurada a primeira linha ferroviária interurbana do mundo (Liverpool-Manchester).
16	9	2022	20220916	16 de setembro de 2015. Como parte do projeto SISMOSIMA, Raúl Pérez (IGME) desce à Sima del Vapor, a mais quente abismo do mundo. Este abismo em Alhama de Murcia está na falha que causou o terremoto de 2011 em Lorca.
17	9	2022	20220917	17 de setembro de 1801. Nasce o orientalista e lexicógrafo Edward William Lane. Ele é conhecido por sua descrição da vida no Egito e por seu Léxico Árabe-Inglês, um dos melhores dicionários de árabe para uma língua européia.
18	9	2022	20220918	18 de setembro de 1982. Morre o paleontólogo e antropólogo Pei Wenzhong. Ele foi o responsável pela escavação que encontrou o Homo erectus pekinensis em 1929, uma descoberta fundamental para apoiar a teoria da evolução.
19	9	2022	20220919	19 de setembro de 1915. Nasce a patologista Elizabeth Stern. Ela foi uma dos primeiras a se especializar em citopatologia, disciplina que estuda as alterações de células extraídas de diferentes áreas do corpo.
20	9	2022	20220920	20 de setembro de 1952. Os resultados do experimento de Alfred Hershey e Martha Chase são publicados. Este relatório confirmou que o DNA é a base do material genético (e não das proteínas).
21	9	2022	20220921	21 de setembro de 1895. Nasce Juan de la Cierva, o engenheiro e aviador que inventou o autogiro, o precursor do helicóptero.
22	9	2022	20220922	22 de setembro de 1896. Nasce a bioquímica Dorothy M. Needham. Ela é mais conhecida por seu trabalho sobre a bioquímica do músculo.
23	9	2022	20220923	23 de setembro de 1869. Nasce Mary Mallon, conhecida como Typhoid Mary. Ela foi identificada como a primeira portadora assintomática da bactéria que causa a febre tifóide. Ele viveu o resto de sua vida em quarentena.
24	9	2022	20220924	24 de setembro de 2000. Comemora-se o primeiro Dia Mundial da Pesquisa do Câncer. Seu objetivo é conscientizar e mobilizar a sociedade para avançar na prevenção e controle dessa doença.
25	9	2022	20220925	25 de setembro de 1893. Nasce a fisiologista Elizabeth M. Bright. Junto com o oceanógrafo Alfred C. Redfield, estudou os efeitos da radiação em alguns animais como o Nereis, um verme marinho.
26	9	2022	20220926	26 de setembro de 1940. Nasce a bioquímica Louise Napier Johnson. Investigou, usando a técnica de cristalografia de raios X, a enzima glicogênio fosforilase.
27	9	2022	20220927	27 de setembro de 1962. A bióloga marinha Rachel Carson publica o livro Primavera Silenciosa, que mudou as atitudes sobre o uso indiscriminado de agrotóxicos.
28	9	2022	20220928	28 de setembro de 1895. Morre o químico Louis Pasteur, inventor da pasteurização. Este método permite o controle de microrganismos em líquidos, como o leite.
29	9	2022	20220929	29 de setembro de 1511. Nasce o teólogo e cientista Miguel Servet, conhecido por sua descrição da circulação pulmonar. Ele foi preso na Suíça e condenado à morte na fogueira em 1543.
30	9	2022	20220930	30 de setembro de 1886. Nasce o veterinário e biólogo Gaston Ramon. Seu trabalho foi fundamental para o desenvolvimento de vacinas eficazes contra a difteria e o tétano.
1	10	2022	20221001	1 de outubro de 1912. Nasce a matemática e educadora Kathleen Ollerenshaw. Ela era um especialista em quadrados mágicos, onde a soma dos números por colunas, linhas e diagonais principais é a mesma.
2	10	2022	20221002	2 de outubro de 1846. Nasce a médica e educadora Eliza Maria Mosher. Ela foi pioneira em medicina postural e sistemas anatômicos: ela projetou assentos para bondes e uma cadeira anatômica para berçários.
3	10	2022	20221003	3 de outubro de 2005. Os médicos Marshall e Warren ganham o Prêmio Nobel por descobrirem que a bactéria Helicobacter pylori causa úlceras gástricas. Diante do ceticismo da comunidade científica, Marshall provou sua hipótese inoculando-se com essa bactéria.
4	10	2022	20221004	4 de outubro de 1971. O mol – unidade com a qual se mede a quantidade de substância – é adotado como medida química, e se soma às seis unidades básicas do Sistema Internacional de Unidades (SI).
5	10	2022	20221005	5 de outubro de 1958. Nasce o astrofísico e divulgador da ciência Neil deGrasse Tyson. Seus livros aproximaram as ciências espaciais do público em geral.
6	10	2022	20221006	6 de outubro de 1907. Nasce a embriologista Salome Gluecksohn Waelsch. Ela é considerada uma das fundadoras da genética do desenvolvimento.
7	10	2022	20221007	7 de outubro de 1952. Publicada a patente norte-americana nº 2.612.994, dos inventores Joseph Woodland e Bernard Silver: era a de um código de barras primitivo.
8	10	2022	20221008	8 de outubro de 2015. A NASA anuncia que a New Horizons detectou água congelada e céu azul em Plutão.
9	10	2022	20221009	9 de outubro de 1410. Primeira menção do relógio astronômico em Praga. Seu mostrador astronômico tem a forma de um astrolábio e mostra 24 horas por dia, as posições do Sol e da Lua no céu e outros detalhes astronômicos.
10	10	2022	20221010	10 de outubro de 1865. John Wesley Hyatt patenteia o celulóide, um plástico usado para fazer filmes.
11	10	2022	20221011	11 de outubro de 1910. Nasce o matemático Cahit Arf. Ele desenvolveu um bom número de conceitos que levam seu nome, como o anel de Arf, os semigrupos de Arf, a invariante de Arf ou o teorema de Hasse-Arf.
12	10	2022	20221012	12 de outubro de 1889. Nasce Jorge Loring Martínez. Inventou novos aviões e fundou a CETA, a primeira companhia aérea espanhola de transporte de passageiros.
13	10	2022	20221013	13 de outubro de 1986. Chegam à Espanha os restos mortais do cientista Pío del Río Hortega, que morreu no exílio na Argentina em 1945. Ele é conhecido por descobrir a microglia, um tipo de célula do sistema nervoso.
14	10	2022	20221014	14 de outubro de 1100. Ibn al-Zarqalluh (Azarquiel), o mais importante astrônomo andaluz, morre. Suas obras, traduzidas para o latim por Gerard de Cremona, tiveram ampla circulação na Europa medieval.
15	10	2022	20221015	15 de outubro de 1949. Christopher Polge relata que o glicerol permite o congelamento do esperma, anúncio que marcou o início das técnicas de reprodução assistida.
16	10	2022	20221016	16 de outubro de 2012. O astrofísico Xavier Dumusque e colaboradores anunciam a descoberta do planeta extrassolar Alpha Centauri Bb. Está localizado no sistema estelar triplo Alpha Centauri.
17	10	2022	20221017	17 de outubro de 1934. Morre Santiago Ramón y Cajal, o primeiro espanhol ganhador do Prêmio Nobel de Fisiologia ou Medicina . O prêmio foi dado a ele por seu estudo sobre a estrutura do sistema nervoso.
18	10	2022	20221018	18 de outubro de 1872. Nasce a médica Laura Rodríguez Dulanto. Em 1900, ela se tornou a primeira mulher a obter o título de cirurgiã médica no Peru. Sua iniciativa abriu caminho para outras mulheres no país.
19	10	2022	20221019	19 de outubro de 1862. Nasce o inventor Auguste Lumière. Junto com seu irmão Louis, criou o cinematógrafo, uma máquina pioneira capaz de filmar e projetar imagens em movimento.
20	10	2022	20221020	20 de outubro de 1900. É inaugurado o Boston Symphony Hall, a primeira sala de concertos projetada com parâmetros acústicos. Considerado um dos melhores do mundo, seu designer foi o físico Wallace Clement Sabine.
21	10	2022	20221021	21 de Outubro de 2016. A LETIPharma apresenta a vacina contra a leishmaniose canina (LetiFend), baseada numa proteína recombinante e que permite distinguir os vacinados dos infectados. Esta zoonose afeta cães e humanos.
22	10	2022	20221022	22 de outubro de 1951. O Conselho de Energia Nuclear (JEN) ​​é criado a partir do Conselho de Pesquisa Atômica. A investigação de materiais radioativos começa na Espanha.
23	10	2022	20221023	23 de outubro de 2022. Celebra-se o Dia do Mol, entre as 06:02 (06:02 AM) e as 18:02 (06:02 PM).
24	10	2022	20221024	24 de outubro de 2010. Enrique Peñalver (IGME) e Jean Gaudant (Museu Nacional de História Natural da França) descobrem um novo peixe de 10 milhões de anos atrás. Aphanius bicorbensis foi nomeado em homenagem à população de Bicorb (Valência).
25	10	2022	20221025	25 de outubro de 1921. Nasce a bióloga Marian Koshland. Ele descobriu que as diferenças nos aminoácidos dos anticorpos explicam com que eficiência e eficácia eles combatem invasores estrangeiros.
26	10	2022	20221026	26 de outubro de 1920. Nasce a astrônoma Sarah Lee Lippincott. Ela foi pioneira no uso da astrometria para determinar o caráter de estrelas binárias e a busca de planetas extra-solares.
27	10	2022	20221027	27 de outubro de 1953. Morre a agrônoma e fisiologista de plantas Winifred Elsie Brenchley. Seu trabalho na Estação Experimental de Rothamsted permitiu, entre outras coisas, aprimorar a técnica de cultivo de plantas em hidroponia.
28	10	2022	20221028	28 de outubro de 2011. A NASA lança o satélite Suomi NPP com a missão de fazer observações climatológicas da Terra.
29	10	2022	20221029	29 de outubro de 1933. Morre Albert Calmette, descobridor de uma forma atenuada de Mycobacterium tuberculosis (bacilo Calmette-Guerin) que foi usada na vacina contra tuberculose.
30	10	2022	20221030	30 de outubro de 1929. Nasce a matemática Regina Iosifovna Tyshkevich. Especialista em teoria dos grafos, ela é co-inventora da noção de grafos divididos.
31	10	2022	20221031	31 de outubro de 2002. O Vaticano reabilita Galileu 359 anos depois de sua condenação.
1	11	2022	20221101	1 de novembro de 1945. Nasce a física química Milliana Kroumova Kaisheva. Ela é conhecida por seu trabalho em eletroquímica e química colóide.
2	11	2022	20221102	2 de novembro de 2010. Descoberto na Biblioteca do Congresso dos Estados Unidos o primeiro filme sonoro em espanhol, Concha Piquer interpreta várias canções, como jota, cuplé ou fado.
3	11	2022	20221103	3 de novembro de 1854. Nasce Jōkichi Takamine, inventor da Taka-diastase, a primeira enzima industrializada. Foi obtido a partir do fungo Aspergillus e permitiu acelerar a fermentação de bebidas alcoólicas e facilitar as digestões pesadas.
4	11	2022	20221104	4 de novembro de 1942. Nasce a médica e inventora Patricia Bath. Ela foi a primeira mulher afro-americana a receber uma patente para fins médicos. Sua sonda Laserphaco é usada para tratar catarata.
5	11	2022	20221105	5 de novembro de 1927. Nasce o estatístico Hirotsugu Akaike. Ele formulou o Akaike Information Criterion (AIC), amplamente utilizado para medir a qualidade relativa de um modelo estatístico.
6	11	2022	20221106	6 de novembro de 1988. Nasce a cientista da computação Alexandra Elbakyan. Em 2011, criou o Sci-Hub, um site que permite o acesso gratuito a uma infinidade de artigos científicos.
7	11	2022	20221107	7 de novembro de 1905. Leonardo Torres Quevedo realiza a primeira demonstração do telekino, um autômato de controle remoto. Foi um marco de engenharia, pois foi o primeiro dispositivo guiado por rádio da história.
8	11	2022	20221108	8 de novembro de 1968. Morre a química e farmacêutica Chika Kuroda. Ela ajudou a desenvolver a droga anti-hipertensiva Kerutin C estudando a pigmentação da casca da cebola e extraindo cristais de quercetina dela.
9	11	2022	20221109	9 de novembro de 1910. Nasce a médica Eugenia Sacerdote de Lustig. Ela foi a primeira pessoa a ser vacinada contra a poliomielite na Argentina, vacinando a si mesma e seus filhos em público para convencer a população dos benefícios da vacina.
10	11	2022	20221110	10 de novembro de 1887. Nasce Elisa Leonida Zamfirescu, a primeira engenheira romena e uma das primeiras do mundo. Ele dirigiu os laboratórios do Instituto Geológico Romeno.
11	11	2022	20221111	11 de novembro de 2006. Morre Esther Lederberg, descobridora do fago lambda, que infecta E. coli. Devido a esta descoberta, fundamental para o desenvolvimento da engenharia genética, ela é considerada a mãe desta disciplina.
12	11	2022	20221112	12 de novembro de 1910. Nasce o matemático Hua Luogeng. Embora nunca tenha tido uma educação universitária formal, seus talentos matemáticos lhe permitiram escrever inúmeros artigos que se tornaram clássicos.
13	11	2022	20221113	13 de novembro de 1715. Nasce a médica Dorothea Erxleben. Ela foi inspirada por Laura Bassi para lutar pelo seu direito de exercer a medicina e se tornou a primeira mulher a obter um doutorado em medicina na Alemanha.
14	11	2022	20221114	14 de novembro de 1889. Nasce o escritor Taha Hussein, fundador do Instituto Egípcio de Estudos Islâmicos de Madri. Este centro promove a investigação nos domínios da cultura árabe, andaluza e hispânica e funciona como ponte de entendimento entre as duas margens do Mediterrâneo.
15	11	2022	20221115	15 de novembro de 1313. Nasce o médico, escritor e político andaluz Ibn al-Jatib. Ele escreveu mais de 70 obras, incluindo um tratado sobre a epidemia de peste. Seus poemas adornam a Alhambra de Granada.
16	11	2022	20221116	16 de novembro de 2015. A matemática afro-americana Katherine Johnson recebe a Medalha da Liberdade de Barack Obama. Seus cálculos de mecânica orbital foram fundamentais para o sucesso da NASA.
17	11	2022	20221117	17 de novembro de 1881. Nasce a cientista da computação astronômica e sismóloga Ethel Bellamy. Ele ajudou a catalogar a posição de cerca de um milhão de estrelas do Observatório Radcliffe de Oxford.
18	11	2022	20221118	18 de novembro de 1906. Nasce a física teórica Wang Ming-chen. Ela é reconhecida por seu trabalho em processos estocásticos e movimento browniano.
19	11	2022	20221119	19 de novembro de 1887. Nasce o bioquímico James Batcheller Sumner. Ele recebeu o Prêmio Nobel por desenvolver métodos para cristalizar enzimas na forma pura. Graças a eles sabemos que as enzimas são proteínas.
20	11	2022	20221120	20 de novembro de 1885. Nasce a engenheira Olive Wetzel Dennis. Seus projetos revolucionários mudaram a natureza das viagens ferroviárias.
21	11	2022	20221121	21 de novembro de 1932. É inaugurada a Escola de Estudos Árabes de Granada. Seu primeiro diretor foi o arabista Emilio García Gómez. Em 1939 ingressou no CSIC.
22	11	2022	20221122	22 de novembro de 1864. Nasce a médica Rukhmabai. Ela foi uma das primeiras médicas na Índia colonial. Ela dirigiu o Hospital Feminino de Surat e estabeleceu a Sociedade da Cruz Vermelha em Rajkot.
23	11	2022	20221123	23 de novembro de 1924. Edwin Hubble publica sua descoberta de que Andrômeda era uma galáxia (não uma nebulosa). Isso mostrou que a Via Láctea não era a única galáxia do universo.
24	11	2022	20221124	24 de novembro de 1895. Nasceu a geóloga e paleontóloga Esther Applin. Ela foi pioneira no uso de microfósseis para datar formações rochosas. Esta informação foi usada para procurar petróleo no Golfo do México.
25	11	2022	20221125	25 de novembro de 2008. O Prêmio Nobel de Física George Smoot inaugura o Museu Educacional e Interativo de Ciências da Vega Baja del Segura da Comunidade Valenciana (MUDIC-VBS-CV).
26	11	2022	20221126	26 de novembro de 1894. Nasce o matemático Norbert Wiener. Ele é considerado o fundador da cibernética como uma nova ciência.
27	11	2022	20221127	27 de novembro de 1911. Nasce a pediatra Fe Villanueva del Mundo. Notável por seu trabalho pioneiro em doenças infecciosas nas comunidades filipinas.
28	11	2022	20221128	28 de novembro de 1991. Morre a bioquímica Lu Gwei-djen. Especialista em história da ciência e tecnologia na China, ela também era médica especializada em nutrição.
29	11	2022	20221129	29 de novembro de 1920. Nasceu o químico têxtil Joseph Shivers. É especialmente conhecido pelo seu papel no desenvolvimento do Spandex ou elastano, uma fibra de grande elasticidade e resistência.
30	11	2022	20221130	30 de novembro de 1803. A Expedição Real de Vacinas Filantrópicas, liderada por Francisco Javier Balmis, zarpa da Corunha. Na corveta María Pita estavam a enfermeira Isabel Zendal e 22 órfãos que levariam a vacina ao redor do mundo.
1	12	2022	20221201	1 de dezembro de 2007. Morre June Almeida, uma virologista pioneira em novos métodos de identificação e captura de imagens de vírus. Ela foi a primeira pessoa a ver um coronavírus sob um microscópio.
2	12	2022	20221202	2 de dezembro de 2012. Morre o desenhista industrial Gabriel Lluelles. Ele inventou o Minipimer, um dos primeiros mixers de mão, cujo nome é comumente usado para se referir a esses instrumentos.
3	12	2022	20221203	3 de dezembro de 1930. Nasce Sara Rietti, a primeira química nuclear argentina. Ele estudou hidretos de boro (que ele chamou de boranos), que são usados ​​na indústria aeroespacial.
4	12	2022	20221204	4 de dezembro de 1927. Nasce a neuropediatra Isabelle Rapin. Foi referência científica no estudo dos transtornos do espectro do autismo.
5	12	2022	20221205	5 de dezembro de 1822. Nasce a naturalista e educadora Elizabeth Cabot Agassiz. Ela realizou expedições científicas junto com seu marido Louis, com quem fundaram o laboratório marinho da Anderson School of Natural History.
6	12	2022	20221206	6 de dezembro de 1877. Thomas Edison faz a primeira gravação em um cilindro fonográfico. Este dispositivo pode gravar e reproduzir som.
7	12	2022	20221207	7 de dezembro de 1921. Nasce Valerie Hunter Gordon. Inventou o Paddi, sistema duplo de fralda descartável e capa lavável (o primeiro do gênero), e o Nikini, antecedente dos absorventes higiênicos.
8	12	2022	20221208	8 de dezembro de 1920. Nasce a farmacêutica Ester de Camargo Fonseca Moraes. Foi pioneira na implantação da toxicologia no Brasil, onde estabeleceu um laboratório antidoping.
9	12	2022	20221209	9 de dezembro de 1748. Nasce o químico Claude Louis Berthollet. Ele estudou as propriedades de branqueamento do cloro e desenvolveu um método para branquear tecidos usando uma solução de hipoclorito de sódio: alvejante.
10	12	2022	20221210	10 de dezembro de 2017. Pesquisadores do IGME e da Universidade de Oxford descrevem um novo carrapato: o Deinocroton draculi ou terrível carrapato de Drácula. Ele parasitava dinossauros dentro ou perto de seus ninhos.
11	12	2022	20221211	11 de dezembro de 1913. Otto Rohm patenteia o primeiro detergente enzimático: Burnus. Ele teve a ideia de sua esposa, que sugeriu que extratos que dissolvem a gordura antes de curtir as peles também podem dissolver manchas nos tecidos. Hoje todos os detergentes contêm enzimas.
12	12	2022	20221212	12 de dezembro de 1927. Nasce Robert Noyce, o engenheiro que inventou o microchip. Ele foi apelidado de prefeito do Vale do Silício.
13	12	2022	20221213	13 de dezembro de 1204. Morre o influente filósofo sefardita Ibn Maymun (Maimônides). Destacou-se nos campos da medicina e da astronomia, e foi referência para a ciência e a filosofia da época.
14	12	2022	20221214	14 de dezembro de 1546. Nasce o astrônomo Tycho Brahe. Ele é considerado um dos maiores observadores do céu antes da invenção do telescópio.
15	12	2022	20221215	15 de dezembro de 1935. Nasce a astrônoma Tamara Smirnova. Ela descobriu 135 asteróides, além do cometa periódico 74P/Smirnova-Chernykh, junto com o astrônomo Nikolai Chernykh.
16	12	2022	20221216	16 de dezembro de 1901. Nasce a antropóloga Margaret Mead. Ele questionou a visão biológica que prevalecia nas ciências sociais, segundo a qual se estabelecia uma divisão do trabalho familiar devido a supostas diferenças inatas entre o comportamento produtivo dos homens e o comportamento expressivo das mulheres.
17	12	2022	20221217	17 de dezembro de 1813. Morreu o agrônomo e higienista Antoine Parmentier. Graças ao seu trabalho, as leis que proibiam o cultivo de batatas foram anuladas. Até então, quase todos os países europeus consideravam a batata não comestível.
18	12	2022	20221218	18 de dezembro de 1926. Gilbert N. Lewis usa pela primeira vez o termo fóton para descrever o comportamento corpuscular da luz.
19	12	2022	20221219	19 de dezembro de 2016. Começa o PanAfGeo, o maior projeto internacional desenvolvido entre serviços geológicos europeus e africanos. O IGME participa disso.
20	12	2022	20221220	20 de dezembro de 1900. O cometa 21P/Giacobini-Zinner foi avistado pela primeira vez. Em 1985, tornou-se o primeiro cometa a ser visitado por uma nave espacial.
21	12	2022	20221221	21 de dezembro de 2018. A influência das mudanças climáticas no gelo subaquático é estudada pela primeira vez. Esta pesquisa é realizada no âmbito do projeto EXPLOSEA, liderado pelo IGME.
22	12	2022	20221222	22 de dezembro de 1943. Morre Beatrix Potter. Além de escritora e ilustradora de histórias infantis, ela foi uma das primeiras pessoas a cultivar cogumelos de seus esporos. Ela postulou que o mofo é mais um estágio de crescimento fúngico, e não um organismo diferente.
23	12	2022	20221223	23 de dezembro de 1805. Morre a escritora e anatomista Geneviève Charlotte Thiroux d'Arconville. Ela é conhecida por seus estudos sobre putrefação, que ela compilou em seu Essai pourservir à l'histoire de la putréfaction (1766).
24	12	2022	20221224	24 de dezembro de 1891. Nasce Marguerite Thomas Williams, a primeira geóloga afro-americana a se doutorar nos Estados Unidos, quando nem sequer eram reconhecidos os direitos da população negra. Sua tese mostrou que a atividade humana como formadora da paisagem estava ligada às trágicas inundações sofridas pelo rio Anacostia.
25	12	2022	20221225	25 de dezembro de 1938. Morre o escritor de ficção científica Karel Čapek. Ele popularizou a palavra robô em sua peça R. U. R. (1920).
26	12	2022	20221226	26 de dezembro de 1791. Nasceu o matemático Charles Babbage. Ele projetou a primeira máquina de calcular programável. Embora não pudesse ser construído, hoje é considerado o antecessor dos computadores.
27	12	2022	20221227	27 de dezembro de 2020. Araceli Hidalgo, 96 anos, torna-se a primeira pessoa a ser vacinada contra o COVID-19 na Espanha.
28	12	2022	20221228	28 de dezembro de 1957. Começam a usar a vacina Salk na Espanha. Foi a primeira vacina eficaz contra a poliomielite.
29	12	2022	20221229	29 de dezembro de 1952. O primeiro aparelho auditivo com transistor começa a ser vendido. Seu custo foi de 300 dólares.
30	12	2022	20221230	30 de dezembro de 1924. Nasce a engenheira aeroespacial Yvonne Madelaine Brill. Ela patenteou um sistema de propulsão de hidrazina para manter um satélite em uma órbita geoestacionária fixa por mais tempo do que outros métodos.
31	12	2022	20221231	31 de dezembro de 1909. Mónica Sánchez patenteia o primeiro aparelho portátil de raios-X e correntes de alta frequência.
