Dia,Mes,etiqueta
25,1,@uramonllull @cescept
26,1,@LluisMontoliu @TuSocialMedia
27,1,@elfisicobarbudo
28,1,@queenofquanta
29,1,@CarmenAgustin @LOPEZMASCARAQUE @mujerconciencia 
30,1,@hayquehacerla @tercosmicqueen
31,1,@loretahur @shora
1,2,@iaa_csic
2,2,@Nebesu_
3,2,@Ununcuadio
4,2,@pakitochus
5,2,@el_pakozoico @ArqueoInquieta
6,2,@esa_es @PlanetarioMad
7,2,@geologoenapuros
8,2,@bioamara @BiotecX_
9,2,@manuelfherrador
10,2,@emulenews
11,2,@garirius @ProyectoMeitner
12,2,@Honey_LimitedEd
13,2,@ClaraGrima @MartaMachoS
14,2,@CireniaSketches @CSICdivulga
15,2,@GVAfisabio
16,2,@pablorros_
17,2,@mujerconciencia @geologoenapuros
18,2,@Ununcuadio @MelliToral
19,2,@Carrie_Catgirl @jaimealtozano
20,2,@victagua @_Sara_Varela
21,2,@Avillafranca_
22,2,@MasTwitts @NEC_blog
23,2,@bioamara @mujerconciencia
24,2,@metilado
25,2,@Alexny_85
26,2,@PatriLiVG @LauraMParro
27,2,@boticariagarcia
28,2,@depocholate
1,3,@AEMET_Esp
2,3,@sailormerqury @mujerconciencia
3,3,@RamonNogueras @Cerebrotes
4,3,@Anibal_Bueno_
5,3,@julesanchez28
6,3,@AliciaPelegrina
7,3,@IAC_Astrofisica
8,3,@loretahur
9,3,@javierarmentia
10,3,@PatriLiVG
11,3,@RaquelBlascoR
12,3,@shora
13,3,@manuelfherrador
14,3,@astro_duque
15,3,@TelecoUPV
16,3,@bioamara
17,3,@farmagemma
18,3,@RSEF_ESP
19,3,@pablorros_
20,3,@ElObjetivoVerde
21,3,@manolux4444
22,3,@AndreuEscriva @mujerconciencia
23,3,@CNB_CSIC @CSIC @infecciosasryc
24,3,@Ciencia_miuda
25,3,@LostTransposon
26,3,@javierpadillab
27,3,@Nebesu_
28,3,@DrBioblogo
29,3,@AinoaGmez1
30,3,@Fundeu @Bibliotecas_IC
31,3,@IFS_CSIC @REF_Filosofia
1,4,@Diplotaxis @mujerconciencia
2,4,@ift_uam_csic
3,4,@JaneGoodallEspa @Biologus_agri
4,4,@MartaMachoS @sailormerqury
5,4,@byribosoma
6,4,@thequeercanibot
7,4,@mc2coruna
8,4,@bioamara
9,4,@barbersscience @radioclasica
10,4,@IGME1849 @ucc_complutense @CIATF
11,4,@iismadrid
12,4,@PatriLiVG
13,4,@pablorros_ @IGME1849
14,4,@geologoenapuros
15,4,@PutoMikel
16,4,@metilado
17,4,@Letirroja
18,4,@RamonNogueras
19,4,@cgdoval
20,4,@LluisMontoliu
21,4,@eforestal
22,4,@Casa_Ciencias
23,4,@NASA_es
24,4,@geologoenapuros
25,4,@Messcobar_
26,4,@LostTransposon
27,4,@jaimealtozano
28,4,@Sandribiopio
29,4,@GEMF_RSEF
30,4,@IGME1849
1,5,@NeuroAlc @Europeos_CSIC @umhsapiens
2,5,@FATAPUERCA
3,5,@PutoMikel
4,5,@El_Pakozoico
5,5,@LazaroElena
6,5,@gamusino
7,5,@manuelfherrador
8,5,@CAV_AEP
9,5,@jramonfernandez
10,5,@HematoLaPaz
11,5,@IGN_Sismologia
12,5,@SEQA_QA
13,5,@Virusemergentes
14,5,@Mylestring
15,5,@DraAnaCeci
16,5,@IEOoceanografia
17,5,@FinlayInstituto
18,5,@Loeflingia
19,5,@NASA_es
20,5,@metilado
21,5,@ift_uam_csic @OperadorNuclear
22,5,@Sismos_CSN
23,5,@SoyBiotec
24,5,@kikollan
25,5,@Cerebrotes
26,5,@ConchiLillo
27,5,@Yolanda_Diaz_
28,5,@PatriLiVG
29,5,@elenafunes_
30,5,@AsociacionELA
31,5,@puratura
1,6,@CentroMdicoPon1
2,6,@M_Ferrocarril
3,6,@bynzelman
4,6,@intaespana
5,6,@twitamit_es
6,6,@henkeliberica
7,6,@AstronautaLili
8,6,@pablorros_
9,6,@diarioastronomo
10,6,@rtve
11,6,@AndreuEscriva
12,6,@BytesAndHumans
13,6,@puratura @radioclasica
14,6,@AchucarroGlia @SierraLabAch @NeurologiaRyC
15,6,@info_avite
16,6,@MujeresaSeguir
17,6,@Space_Station @NASA_astronauts
18,6,@pakitochus
19,6,@SEBBM_es
20,6,@CSIC_divulga
21,6,@FUNDELA1 @raquelsastrecom
22,6,@byribosoma
23,6,@turinginst
24,6,@DigitalCSIC
25,6,@p_pandora
26,6,@Codigodebarras
27,6,@ElenaParlorio
28,6,@MIT
29,6,@NeurologiaHUPH
30,6,@epcienfuegos
1,7,@ICMCSIC @mujerconciencia
2,7,@garirius
3,7,@mininacheshire @LazaroElena
4,7,@PRISMAciencia
5,7,@Biologus_agri
6,7,@shora
7,7,@mujerconciencia @Cerebrotes
8,7,@psiquiatraca
9,7,@CuevaSoplao @IGME1849
10,7,@icmmcsic @ICMA_Aragon @UAM_Madrid @CNRS
11,7,@MasTwitts
12,7,@IAC_Astrofisica
13,7,@paleontologiaUR
14,7,@educando_ntza @mujerconciencia
15,7,@empeltada
16,7,@esa_es
17,7,@AndreuEscriva
18,7,@mujerconciencia @LazaroElena
19,7,@smartinezho1
20,7,@PatriLiVG
21,7,@inigobretos
22,7,@manuelfherrador
23,7,@GEO3BCN_CSIC @csic
24,7,@GTCtelescope
25,7,@psidenisa
26,7,@jmarenas_eco
27,7,@TEDxArxiduc
28,7,@Victagua
29,7,@euklidiadas
30,7,@MolaSaber
31,7,@metilado
1,8,@CNIOStopCancer
2,8,@ALymphsLife
3,8,@pablorros_
4,8,@BytesAndHumans
5,8,@DrLitos
6,8,@JaSantaolalla
7,8,@mujerconciencia
8,8,@ElConjuntoVacio
9,8,@kanciller
10,8,@IGME1849
11,8,@depocholate
12,8,@geologoenapuros
13,8,@doctoraGeo
14,8,@PatriLiVG
15,8,@tvaldessolis
16,8,@Principia_io
17,8,@INIA_es @Cipotato
18,8,
19,8,@TeoremaPi
20,8,@vacunando
21,8,@sdesiensia
22,8,@Honey_LimitedEd
23,8,@SaraRC83
24,8,@Ciencia_miuda @Girls4STEMVLC
25,8,@OWNature
26,8,@ArqueoInquieta
27,8,@OperadorNuclear
28,8,@victagua
29,8,@PRISMAciencia
30,8,@NASA_es
31,8,@metilado
1,9,@SEO_BirdLife
2,9,@Anianisotropia
3,9,@metilado @aurehidalgo
4,9,@SaseAmaro
5,9,@GasolinaPrecio
6,9,@JAHHM
7,9,@IGME1849
8,9,@pakitochus
9,9,@cienciamiuda
10,9,@Honey_LimitedEd
11,9,@PRISMAciencia
12,9,@ElenaGarcaSant1
13,9,@PatriLiVG @IBM_ES
14,9,@psiquiatraca
15,9,@ValeArvejita
16,9,@farmagemma
17,9,@emulenews
18,9,@CACiencies
19,9,@PuteadoMikel
20,9,@ClaraGrima
21,9,@CentroMdicoPon1
22,9,@microBIOblog
23,9,@freakmondo @NintendoES
24,9,@CBMSO_CSIC_UAM
25,9,@Cerebrotes
26,9,@geologoenapuros
27,9,@Casa_Ciencias @IESCosmeGarcia
28,9,@CSICdivulga
29,9,@OperadorNuclear
30,9,@agencia_sinc
1,10,@telecoupm
2,10,@SEtelecoGob
3,10,@ChemistredPuck
4,10,@aecc_es
5,10,@LluisMontoliu
6,10,@Shora
7,10,@DivuLCC
8,10,@secardiologia
9,10,@museodealtamira
10,10,@dePocholate
11,10,@metilado
12,10,@BoixRichter
13,10,@Pontebata
14,10,@Hjorvik
15,10,@MasTwitts
16,10,@ebdonana
17,10,@metro_madrid
18,10,@hrsolla
19,10,@REP_Patologia
20,10,@Mylestring
21,10,@emulenews
22,10,@ONT_esp @FIBAO
23,10,@CienciaGob
24,10,@FAOenEspanol @farmagemma
25,10,@Doctor_Bacteria
26,10,@SantiGarciaCC
27,10,@Correos
28,10,@M_Ferrocarril
29,10,@PatriLiVG
30,10,@ConchiLillo
31,10,@MissCromatina
1,11,@OperadorNuclear
2,11,@geologoenapuros
3,11,@orbitalaika_tve
4,11,@IGME1849
5,11,@metilado
6,11,@ferblazrom
7,11,@cuestionquimica @mujerconciencia
8,11,@El_Pakozoico
9,11,@PRISMAciencia
10,11,@BytesAndHumans
11,11,@tvaldessolis
12,11,@Carrie_Catgirl
13,11,@JaSantaolalla
14,11,@metilado
15,11,@Nopanaden
16,11,@IO_CSIC
17,11,@pablorros_ @IGME1849
18,11,@PRISMAciencia
19,11,@NintendoES
20,11,@CentroMdicoPon1
21,11,@uw_icecube
22,11,@BoixRichter
23,11,@RACiencias
24,11,@waltzing_piglet
25,11,@metilado
26,11,@SimonPerera
27,11,@NobelPrize
28,11,@hrsolla, @IEM_CSIC
29,11,@SEA_astronomia
30,11,@ClaraGrima @MartaMachoS
1,12,@psidenisa
2,12,@RadiactivoMan
3,12,@pablorros_
4,12,@AEMET_Esp
5,12,@Teatro_Real
6,12,@brionesci
7,12,@FECYT_Ciencia @mininacheshire
8,12,@Dictatriz
9,12,@alfredocorell
10,12,@mujerconciencia
11,12,@alex_riveiro
12,12,@PatriLiVG
13,12,@siemens_es
14,12,@MarGomezH
15,12,@CSICdivulga
16,12,@OphCourse
17,12,@IGME1849
18,12,@VeterinariaUCM
19,12,@ringo_ring
20,12,@Ciencia_miuda
21,12,@metilado
22,12,@agencia_sinc
23,12,@javierfpanadero
24,12,@dePocholate
25,12,@LeJeuneDariio
26,12,@Aurora_Ranchal
27,12,@metilado
28,12,@IFCA_CSIC_UC
29,12,@UBUinvestiga
30,12,@elenagomezdiaz
31,12,@OMS_Spain
